--system:

#
# Key Schedule equations
#
K^01_00 + KW^01_02
K^01_01 + KW^01_03
K^01_02 + KW^01_12
K^01_03 + KW^01_15
K^01_04 + KW^01_17
K^01_05 + KW^01_18
K^01_06 + KW^01_28
K^01_07 + KW^01_31

KW^02_00 + KW^01_04 + S(KW^01_16)
KW^02_01 + KW^01_05
KW^02_02 + KW^01_06
KW^02_03 + KW^01_07 + CON_H^01
KW^02_04 + KW^01_08
KW^02_05 + KW^01_09
KW^02_06 + KW^01_10
KW^02_07 + KW^01_11
KW^02_08 + KW^01_12
KW^02_09 + KW^01_13
KW^02_10 + KW^01_14
KW^02_11 + KW^01_15
KW^02_12 + KW^01_16
KW^02_13 + KW^01_17
KW^02_14 + KW^01_18
KW^02_15 + KW^01_19 + CON_L^01
KW^02_16 + KW^01_20
KW^02_17 + KW^01_21
KW^02_18 + KW^01_22
KW^02_19 + KW^01_23 + S(KW^01_30)
KW^02_20 + KW^01_24
KW^02_21 + KW^01_25
KW^02_22 + KW^01_26
KW^02_23 + KW^01_27
KW^02_24 + KW^01_28
KW^02_25 + KW^01_29
KW^02_26 + KW^01_30
KW^02_27 + KW^01_31
KW^02_28 + KW^01_01 + S(KW^01_00)
KW^02_29 + KW^01_02
KW^02_30 + KW^01_03
KW^02_31 + KW^01_00

K^02_00 + KW^02_02
K^02_01 + KW^02_03
K^02_02 + KW^02_12
K^02_03 + KW^02_15
K^02_04 + KW^02_17
K^02_05 + KW^02_18
K^02_06 + KW^02_28
K^02_07 + KW^02_31

KW^03_00 + KW^02_04 + S(KW^02_16)
KW^03_01 + KW^02_05
KW^03_02 + KW^02_06
KW^03_03 + KW^02_07 + CON_H^02
KW^03_04 + KW^02_08
KW^03_05 + KW^02_09
KW^03_06 + KW^02_10
KW^03_07 + KW^02_11
KW^03_08 + KW^02_12
KW^03_09 + KW^02_13
KW^03_10 + KW^02_14
KW^03_11 + KW^02_15
KW^03_12 + KW^02_16
KW^03_13 + KW^02_17
KW^03_14 + KW^02_18
KW^03_15 + KW^02_19 + CON_L^02
KW^03_16 + KW^02_20
KW^03_17 + KW^02_21
KW^03_18 + KW^02_22
KW^03_19 + KW^02_23 + S(KW^02_30)
KW^03_20 + KW^02_24
KW^03_21 + KW^02_25
KW^03_22 + KW^02_26
KW^03_23 + KW^02_27
KW^03_24 + KW^02_28
KW^03_25 + KW^02_29
KW^03_26 + KW^02_30
KW^03_27 + KW^02_31
KW^03_28 + KW^02_01 + S(KW^02_00)
KW^03_29 + KW^02_02
KW^03_30 + KW^02_03
KW^03_31 + KW^02_00

K^03_00 + KW^03_02
K^03_01 + KW^03_03
K^03_02 + KW^03_12
K^03_03 + KW^03_15
K^03_04 + KW^03_17
K^03_05 + KW^03_18
K^03_06 + KW^03_28
K^03_07 + KW^03_31

KW^04_00 + KW^03_04 + S(KW^03_16)
KW^04_01 + KW^03_05
KW^04_02 + KW^03_06
KW^04_03 + KW^03_07 + CON_H^03
KW^04_04 + KW^03_08
KW^04_05 + KW^03_09
KW^04_06 + KW^03_10
KW^04_07 + KW^03_11
KW^04_08 + KW^03_12
KW^04_09 + KW^03_13
KW^04_10 + KW^03_14
KW^04_11 + KW^03_15
KW^04_12 + KW^03_16
KW^04_13 + KW^03_17
KW^04_14 + KW^03_18
KW^04_15 + KW^03_19 + CON_L^03
KW^04_16 + KW^03_20
KW^04_17 + KW^03_21
KW^04_18 + KW^03_22
KW^04_19 + KW^03_23 + S(KW^03_30)
KW^04_20 + KW^03_24
KW^04_21 + KW^03_25
KW^04_22 + KW^03_26
KW^04_23 + KW^03_27
KW^04_24 + KW^03_28
KW^04_25 + KW^03_29
KW^04_26 + KW^03_30
KW^04_27 + KW^03_31
KW^04_28 + KW^03_01 + S(KW^03_00)
KW^04_29 + KW^03_02
KW^04_30 + KW^03_03
KW^04_31 + KW^03_00

K^04_00 + KW^04_02
K^04_01 + KW^04_03
K^04_02 + KW^04_12
K^04_03 + KW^04_15
K^04_04 + KW^04_17
K^04_05 + KW^04_18
K^04_06 + KW^04_28
K^04_07 + KW^04_31

KW^05_00 + KW^04_04 + S(KW^04_16)
KW^05_01 + KW^04_05
KW^05_02 + KW^04_06
KW^05_03 + KW^04_07 + CON_H^04
KW^05_04 + KW^04_08
KW^05_05 + KW^04_09
KW^05_06 + KW^04_10
KW^05_07 + KW^04_11
KW^05_08 + KW^04_12
KW^05_09 + KW^04_13
KW^05_10 + KW^04_14
KW^05_11 + KW^04_15
KW^05_12 + KW^04_16
KW^05_13 + KW^04_17
KW^05_14 + KW^04_18
KW^05_15 + KW^04_19 + CON_L^04
KW^05_16 + KW^04_20
KW^05_17 + KW^04_21
KW^05_18 + KW^04_22
KW^05_19 + KW^04_23 + S(KW^04_30)
KW^05_20 + KW^04_24
KW^05_21 + KW^04_25
KW^05_22 + KW^04_26
KW^05_23 + KW^04_27
KW^05_24 + KW^04_28
KW^05_25 + KW^04_29
KW^05_26 + KW^04_30
KW^05_27 + KW^04_31
KW^05_28 + KW^04_01 + S(KW^04_00)
KW^05_29 + KW^04_02
KW^05_30 + KW^04_03
KW^05_31 + KW^04_00

K^05_00 + KW^05_02
K^05_01 + KW^05_03
K^05_02 + KW^05_12
K^05_03 + KW^05_15
K^05_04 + KW^05_17
K^05_05 + KW^05_18
K^05_06 + KW^05_28
K^05_07 + KW^05_31

KW^06_00 + KW^05_04 + S(KW^05_16)
KW^06_01 + KW^05_05
KW^06_02 + KW^05_06
KW^06_03 + KW^05_07 + CON_H^05
KW^06_04 + KW^05_08
KW^06_05 + KW^05_09
KW^06_06 + KW^05_10
KW^06_07 + KW^05_11
KW^06_08 + KW^05_12
KW^06_09 + KW^05_13
KW^06_10 + KW^05_14
KW^06_11 + KW^05_15
KW^06_12 + KW^05_16
KW^06_13 + KW^05_17
KW^06_14 + KW^05_18
KW^06_15 + KW^05_19 + CON_L^05
KW^06_16 + KW^05_20
KW^06_17 + KW^05_21
KW^06_18 + KW^05_22
KW^06_19 + KW^05_23 + S(KW^05_30)
KW^06_20 + KW^05_24
KW^06_21 + KW^05_25
KW^06_22 + KW^05_26
KW^06_23 + KW^05_27
KW^06_24 + KW^05_28
KW^06_25 + KW^05_29
KW^06_26 + KW^05_30
KW^06_27 + KW^05_31
KW^06_28 + KW^05_01 + S(KW^05_00)
KW^06_29 + KW^05_02
KW^06_30 + KW^05_03
KW^06_31 + KW^05_00

K^06_00 + KW^06_02
K^06_01 + KW^06_03
K^06_02 + KW^06_12
K^06_03 + KW^06_15
K^06_04 + KW^06_17
K^06_05 + KW^06_18
K^06_06 + KW^06_28
K^06_07 + KW^06_31

KW^07_00 + KW^06_04 + S(KW^06_16)
KW^07_01 + KW^06_05
KW^07_02 + KW^06_06
KW^07_03 + KW^06_07 + CON_H^06
KW^07_04 + KW^06_08
KW^07_05 + KW^06_09
KW^07_06 + KW^06_10
KW^07_07 + KW^06_11
KW^07_08 + KW^06_12
KW^07_09 + KW^06_13
KW^07_10 + KW^06_14
KW^07_11 + KW^06_15
KW^07_12 + KW^06_16
KW^07_13 + KW^06_17
KW^07_14 + KW^06_18
KW^07_15 + KW^06_19 + CON_L^06
KW^07_16 + KW^06_20
KW^07_17 + KW^06_21
KW^07_18 + KW^06_22
KW^07_19 + KW^06_23 + S(KW^06_30)
KW^07_20 + KW^06_24
KW^07_21 + KW^06_25
KW^07_22 + KW^06_26
KW^07_23 + KW^06_27
KW^07_24 + KW^06_28
KW^07_25 + KW^06_29
KW^07_26 + KW^06_30
KW^07_27 + KW^06_31
KW^07_28 + KW^06_01 + S(KW^06_00)
KW^07_29 + KW^06_02
KW^07_30 + KW^06_03
KW^07_31 + KW^06_00

K^07_00 + KW^07_02
K^07_01 + KW^07_03
K^07_02 + KW^07_12
K^07_03 + KW^07_15
K^07_04 + KW^07_17
K^07_05 + KW^07_18
K^07_06 + KW^07_28
K^07_07 + KW^07_31

KW^08_00 + KW^07_04 + S(KW^07_16)
KW^08_01 + KW^07_05
KW^08_02 + KW^07_06
KW^08_03 + KW^07_07 + CON_H^07
KW^08_04 + KW^07_08
KW^08_05 + KW^07_09
KW^08_06 + KW^07_10
KW^08_07 + KW^07_11
KW^08_08 + KW^07_12
KW^08_09 + KW^07_13
KW^08_10 + KW^07_14
KW^08_11 + KW^07_15
KW^08_12 + KW^07_16
KW^08_13 + KW^07_17
KW^08_14 + KW^07_18
KW^08_15 + KW^07_19 + CON_L^07
KW^08_16 + KW^07_20
KW^08_17 + KW^07_21
KW^08_18 + KW^07_22
KW^08_19 + KW^07_23 + S(KW^07_30)
KW^08_20 + KW^07_24
KW^08_21 + KW^07_25
KW^08_22 + KW^07_26
KW^08_23 + KW^07_27
KW^08_24 + KW^07_28
KW^08_25 + KW^07_29
KW^08_26 + KW^07_30
KW^08_27 + KW^07_31
KW^08_28 + KW^07_01 + S(KW^07_00)
KW^08_29 + KW^07_02
KW^08_30 + KW^07_03
KW^08_31 + KW^07_00

K^08_00 + KW^08_02
K^08_01 + KW^08_03
K^08_02 + KW^08_12
K^08_03 + KW^08_15
K^08_04 + KW^08_17
K^08_05 + KW^08_18
K^08_06 + KW^08_28
K^08_07 + KW^08_31

KW^09_00 + KW^08_04 + S(KW^08_16)
KW^09_01 + KW^08_05
KW^09_02 + KW^08_06
KW^09_03 + KW^08_07 + CON_H^08
KW^09_04 + KW^08_08
KW^09_05 + KW^08_09
KW^09_06 + KW^08_10
KW^09_07 + KW^08_11
KW^09_08 + KW^08_12
KW^09_09 + KW^08_13
KW^09_10 + KW^08_14
KW^09_11 + KW^08_15
KW^09_12 + KW^08_16
KW^09_13 + KW^08_17
KW^09_14 + KW^08_18
KW^09_15 + KW^08_19 + CON_L^08
KW^09_16 + KW^08_20
KW^09_17 + KW^08_21
KW^09_18 + KW^08_22
KW^09_19 + KW^08_23 + S(KW^08_30)
KW^09_20 + KW^08_24
KW^09_21 + KW^08_25
KW^09_22 + KW^08_26
KW^09_23 + KW^08_27
KW^09_24 + KW^08_28
KW^09_25 + KW^08_29
KW^09_26 + KW^08_30
KW^09_27 + KW^08_31
KW^09_28 + KW^08_01 + S(KW^08_00)
KW^09_29 + KW^08_02
KW^09_30 + KW^08_03
KW^09_31 + KW^08_00

K^09_00 + KW^09_02
K^09_01 + KW^09_03
K^09_02 + KW^09_12
K^09_03 + KW^09_15
K^09_04 + KW^09_17
K^09_05 + KW^09_18
K^09_06 + KW^09_28
K^09_07 + KW^09_31

KW^10_00 + KW^09_04 + S(KW^09_16)
KW^10_01 + KW^09_05
KW^10_02 + KW^09_06
KW^10_03 + KW^09_07 + CON_H^09
KW^10_04 + KW^09_08
KW^10_05 + KW^09_09
KW^10_06 + KW^09_10
KW^10_07 + KW^09_11
KW^10_08 + KW^09_12
KW^10_09 + KW^09_13
KW^10_10 + KW^09_14
KW^10_11 + KW^09_15
KW^10_12 + KW^09_16
KW^10_13 + KW^09_17
KW^10_14 + KW^09_18
KW^10_15 + KW^09_19 + CON_L^09
KW^10_16 + KW^09_20
KW^10_17 + KW^09_21
KW^10_18 + KW^09_22
KW^10_19 + KW^09_23 + S(KW^09_30)
KW^10_20 + KW^09_24
KW^10_21 + KW^09_25
KW^10_22 + KW^09_26
KW^10_23 + KW^09_27
KW^10_24 + KW^09_28
KW^10_25 + KW^09_29
KW^10_26 + KW^09_30
KW^10_27 + KW^09_31
KW^10_28 + KW^09_01 + S(KW^09_00)
KW^10_29 + KW^09_02
KW^10_30 + KW^09_03
KW^10_31 + KW^09_00

K^10_00 + KW^10_02
K^10_01 + KW^10_03
K^10_02 + KW^10_12
K^10_03 + KW^10_15
K^10_04 + KW^10_17
K^10_05 + KW^10_18
K^10_06 + KW^10_28
K^10_07 + KW^10_31

KW^11_00 + KW^10_04 + S(KW^10_16)
KW^11_01 + KW^10_05
KW^11_02 + KW^10_06
KW^11_03 + KW^10_07 + CON_H^10
KW^11_04 + KW^10_08
KW^11_05 + KW^10_09
KW^11_06 + KW^10_10
KW^11_07 + KW^10_11
KW^11_08 + KW^10_12
KW^11_09 + KW^10_13
KW^11_10 + KW^10_14
KW^11_11 + KW^10_15
KW^11_12 + KW^10_16
KW^11_13 + KW^10_17
KW^11_14 + KW^10_18
KW^11_15 + KW^10_19 + CON_L^10
KW^11_16 + KW^10_20
KW^11_17 + KW^10_21
KW^11_18 + KW^10_22
KW^11_19 + KW^10_23 + S(KW^10_30)
KW^11_20 + KW^10_24
KW^11_21 + KW^10_25
KW^11_22 + KW^10_26
KW^11_23 + KW^10_27
KW^11_24 + KW^10_28
KW^11_25 + KW^10_29
KW^11_26 + KW^10_30
KW^11_27 + KW^10_31
KW^11_28 + KW^10_01 + S(KW^10_00)
KW^11_29 + KW^10_02
KW^11_30 + KW^10_03
KW^11_31 + KW^10_00

K^11_00 + KW^11_02
K^11_01 + KW^11_03
K^11_02 + KW^11_12
K^11_03 + KW^11_15
K^11_04 + KW^11_17
K^11_05 + KW^11_18
K^11_06 + KW^11_28
K^11_07 + KW^11_31

KW^12_00 + KW^11_04 + S(KW^11_16)
KW^12_01 + KW^11_05
KW^12_02 + KW^11_06
KW^12_03 + KW^11_07 + CON_H^11
KW^12_04 + KW^11_08
KW^12_05 + KW^11_09
KW^12_06 + KW^11_10
KW^12_07 + KW^11_11
KW^12_08 + KW^11_12
KW^12_09 + KW^11_13
KW^12_10 + KW^11_14
KW^12_11 + KW^11_15
KW^12_12 + KW^11_16
KW^12_13 + KW^11_17
KW^12_14 + KW^11_18
KW^12_15 + KW^11_19 + CON_L^11
KW^12_16 + KW^11_20
KW^12_17 + KW^11_21
KW^12_18 + KW^11_22
KW^12_19 + KW^11_23 + S(KW^11_30)
KW^12_20 + KW^11_24
KW^12_21 + KW^11_25
KW^12_22 + KW^11_26
KW^12_23 + KW^11_27
KW^12_24 + KW^11_28
KW^12_25 + KW^11_29
KW^12_26 + KW^11_30
KW^12_27 + KW^11_31
KW^12_28 + KW^11_01 + S(KW^11_00)
KW^12_29 + KW^11_02
KW^12_30 + KW^11_03
KW^12_31 + KW^11_00

K^12_00 + KW^12_02
K^12_01 + KW^12_03
K^12_02 + KW^12_12
K^12_03 + KW^12_15
K^12_04 + KW^12_17
K^12_05 + KW^12_18
K^12_06 + KW^12_28
K^12_07 + KW^12_31

KW^13_00 + KW^12_04 + S(KW^12_16)
KW^13_01 + KW^12_05
KW^13_02 + KW^12_06
KW^13_03 + KW^12_07 + CON_H^12
KW^13_04 + KW^12_08
KW^13_05 + KW^12_09
KW^13_06 + KW^12_10
KW^13_07 + KW^12_11
KW^13_08 + KW^12_12
KW^13_09 + KW^12_13
KW^13_10 + KW^12_14
KW^13_11 + KW^12_15
KW^13_12 + KW^12_16
KW^13_13 + KW^12_17
KW^13_14 + KW^12_18
KW^13_15 + KW^12_19 + CON_L^12
KW^13_16 + KW^12_20
KW^13_17 + KW^12_21
KW^13_18 + KW^12_22
KW^13_19 + KW^12_23 + S(KW^12_30)
KW^13_20 + KW^12_24
KW^13_21 + KW^12_25
KW^13_22 + KW^12_26
KW^13_23 + KW^12_27
KW^13_24 + KW^12_28
KW^13_25 + KW^12_29
KW^13_26 + KW^12_30
KW^13_27 + KW^12_31
KW^13_28 + KW^12_01 + S(KW^12_00)
KW^13_29 + KW^12_02
KW^13_30 + KW^12_03
KW^13_31 + KW^12_00

K^13_00 + KW^13_02
K^13_01 + KW^13_03
K^13_02 + KW^13_12
K^13_03 + KW^13_15
K^13_04 + KW^13_17
K^13_05 + KW^13_18
K^13_06 + KW^13_28
K^13_07 + KW^13_31

KW^14_00 + KW^13_04 + S(KW^13_16)
KW^14_01 + KW^13_05
KW^14_02 + KW^13_06
KW^14_03 + KW^13_07 + CON_H^13
KW^14_04 + KW^13_08
KW^14_05 + KW^13_09
KW^14_06 + KW^13_10
KW^14_07 + KW^13_11
KW^14_08 + KW^13_12
KW^14_09 + KW^13_13
KW^14_10 + KW^13_14
KW^14_11 + KW^13_15
KW^14_12 + KW^13_16
KW^14_13 + KW^13_17
KW^14_14 + KW^13_18
KW^14_15 + KW^13_19 + CON_L^13
KW^14_16 + KW^13_20
KW^14_17 + KW^13_21
KW^14_18 + KW^13_22
KW^14_19 + KW^13_23 + S(KW^13_30)
KW^14_20 + KW^13_24
KW^14_21 + KW^13_25
KW^14_22 + KW^13_26
KW^14_23 + KW^13_27
KW^14_24 + KW^13_28
KW^14_25 + KW^13_29
KW^14_26 + KW^13_30
KW^14_27 + KW^13_31
KW^14_28 + KW^13_01 + S(KW^13_00)
KW^14_29 + KW^13_02
KW^14_30 + KW^13_03
KW^14_31 + KW^13_00

K^14_00 + KW^14_02
K^14_01 + KW^14_03
K^14_02 + KW^14_12
K^14_03 + KW^14_15
K^14_04 + KW^14_17
K^14_05 + KW^14_18
K^14_06 + KW^14_28
K^14_07 + KW^14_31

KW^15_00 + KW^14_04 + S(KW^14_16)
KW^15_01 + KW^14_05
KW^15_02 + KW^14_06
KW^15_03 + KW^14_07 + CON_H^14
KW^15_04 + KW^14_08
KW^15_05 + KW^14_09
KW^15_06 + KW^14_10
KW^15_07 + KW^14_11
KW^15_08 + KW^14_12
KW^15_09 + KW^14_13
KW^15_10 + KW^14_14
KW^15_11 + KW^14_15
KW^15_12 + KW^14_16
KW^15_13 + KW^14_17
KW^15_14 + KW^14_18
KW^15_15 + KW^14_19 + CON_L^14
KW^15_16 + KW^14_20
KW^15_17 + KW^14_21
KW^15_18 + KW^14_22
KW^15_19 + KW^14_23 + S(KW^14_30)
KW^15_20 + KW^14_24
KW^15_21 + KW^14_25
KW^15_22 + KW^14_26
KW^15_23 + KW^14_27
KW^15_24 + KW^14_28
KW^15_25 + KW^14_29
KW^15_26 + KW^14_30
KW^15_27 + KW^14_31
KW^15_28 + KW^14_01 + S(KW^14_00)
KW^15_29 + KW^14_02
KW^15_30 + KW^14_03
KW^15_31 + KW^14_00

K^15_00 + KW^15_02
K^15_01 + KW^15_03
K^15_02 + KW^15_12
K^15_03 + KW^15_15
K^15_04 + KW^15_17
K^15_05 + KW^15_18
K^15_06 + KW^15_28
K^15_07 + KW^15_31

KW^16_00 + KW^15_04 + S(KW^15_16)
KW^16_01 + KW^15_05
KW^16_02 + KW^15_06
KW^16_03 + KW^15_07 + CON_H^15
KW^16_04 + KW^15_08
KW^16_05 + KW^15_09
KW^16_06 + KW^15_10
KW^16_07 + KW^15_11
KW^16_08 + KW^15_12
KW^16_09 + KW^15_13
KW^16_10 + KW^15_14
KW^16_11 + KW^15_15
KW^16_12 + KW^15_16
KW^16_13 + KW^15_17
KW^16_14 + KW^15_18
KW^16_15 + KW^15_19 + CON_L^15
KW^16_16 + KW^15_20
KW^16_17 + KW^15_21
KW^16_18 + KW^15_22
KW^16_19 + KW^15_23 + S(KW^15_30)
KW^16_20 + KW^15_24
KW^16_21 + KW^15_25
KW^16_22 + KW^15_26
KW^16_23 + KW^15_27
KW^16_24 + KW^15_28
KW^16_25 + KW^15_29
KW^16_26 + KW^15_30
KW^16_27 + KW^15_31
KW^16_28 + KW^15_01 + S(KW^15_00)
KW^16_29 + KW^15_02
KW^16_30 + KW^15_03
KW^16_31 + KW^15_00

K^16_00 + KW^16_02
K^16_01 + KW^16_03
K^16_02 + KW^16_12
K^16_03 + KW^16_15
K^16_04 + KW^16_17
K^16_05 + KW^16_18
K^16_06 + KW^16_28
K^16_07 + KW^16_31

KW^17_00 + KW^16_04 + S(KW^16_16)
KW^17_01 + KW^16_05
KW^17_02 + KW^16_06
KW^17_03 + KW^16_07 + CON_H^16
KW^17_04 + KW^16_08
KW^17_05 + KW^16_09
KW^17_06 + KW^16_10
KW^17_07 + KW^16_11
KW^17_08 + KW^16_12
KW^17_09 + KW^16_13
KW^17_10 + KW^16_14
KW^17_11 + KW^16_15
KW^17_12 + KW^16_16
KW^17_13 + KW^16_17
KW^17_14 + KW^16_18
KW^17_15 + KW^16_19 + CON_L^16
KW^17_16 + KW^16_20
KW^17_17 + KW^16_21
KW^17_18 + KW^16_22
KW^17_19 + KW^16_23 + S(KW^16_30)
KW^17_20 + KW^16_24
KW^17_21 + KW^16_25
KW^17_22 + KW^16_26
KW^17_23 + KW^16_27
KW^17_24 + KW^16_28
KW^17_25 + KW^16_29
KW^17_26 + KW^16_30
KW^17_27 + KW^16_31
KW^17_28 + KW^16_01 + S(KW^16_00)
KW^17_29 + KW^16_02
KW^17_30 + KW^16_03
KW^17_31 + KW^16_00

K^17_00 + KW^17_02
K^17_01 + KW^17_03
K^17_02 + KW^17_12
K^17_03 + KW^17_15
K^17_04 + KW^17_17
K^17_05 + KW^17_18
K^17_06 + KW^17_28
K^17_07 + KW^17_31

KW^18_00 + KW^17_04 + S(KW^17_16)
KW^18_01 + KW^17_05
KW^18_02 + KW^17_06
KW^18_03 + KW^17_07 + CON_H^17
KW^18_04 + KW^17_08
KW^18_05 + KW^17_09
KW^18_06 + KW^17_10
KW^18_07 + KW^17_11
KW^18_08 + KW^17_12
KW^18_09 + KW^17_13
KW^18_10 + KW^17_14
KW^18_11 + KW^17_15
KW^18_12 + KW^17_16
KW^18_13 + KW^17_17
KW^18_14 + KW^17_18
KW^18_15 + KW^17_19 + CON_L^17
KW^18_16 + KW^17_20
KW^18_17 + KW^17_21
KW^18_18 + KW^17_22
KW^18_19 + KW^17_23 + S(KW^17_30)
KW^18_20 + KW^17_24
KW^18_21 + KW^17_25
KW^18_22 + KW^17_26
KW^18_23 + KW^17_27
KW^18_24 + KW^17_28
KW^18_25 + KW^17_29
KW^18_26 + KW^17_30
KW^18_27 + KW^17_31
KW^18_28 + KW^17_01 + S(KW^17_00)
KW^18_29 + KW^17_02
KW^18_30 + KW^17_03
KW^18_31 + KW^17_00

K^18_00 + KW^18_02
K^18_01 + KW^18_03
K^18_02 + KW^18_12
K^18_03 + KW^18_15
K^18_04 + KW^18_17
K^18_05 + KW^18_18
K^18_06 + KW^18_28
K^18_07 + KW^18_31

KW^19_00 + KW^18_04 + S(KW^18_16)
KW^19_01 + KW^18_05
KW^19_02 + KW^18_06
KW^19_03 + KW^18_07 + CON_H^18
KW^19_04 + KW^18_08
KW^19_05 + KW^18_09
KW^19_06 + KW^18_10
KW^19_07 + KW^18_11
KW^19_08 + KW^18_12
KW^19_09 + KW^18_13
KW^19_10 + KW^18_14
KW^19_11 + KW^18_15
KW^19_12 + KW^18_16
KW^19_13 + KW^18_17
KW^19_14 + KW^18_18
KW^19_15 + KW^18_19 + CON_L^18
KW^19_16 + KW^18_20
KW^19_17 + KW^18_21
KW^19_18 + KW^18_22
KW^19_19 + KW^18_23 + S(KW^18_30)
KW^19_20 + KW^18_24
KW^19_21 + KW^18_25
KW^19_22 + KW^18_26
KW^19_23 + KW^18_27
KW^19_24 + KW^18_28
KW^19_25 + KW^18_29
KW^19_26 + KW^18_30
KW^19_27 + KW^18_31
KW^19_28 + KW^18_01 + S(KW^18_00)
KW^19_29 + KW^18_02
KW^19_30 + KW^18_03
KW^19_31 + KW^18_00

K^19_00 + KW^19_02
K^19_01 + KW^19_03
K^19_02 + KW^19_12
K^19_03 + KW^19_15
K^19_04 + KW^19_17
K^19_05 + KW^19_18
K^19_06 + KW^19_28
K^19_07 + KW^19_31

KW^20_00 + KW^19_04 + S(KW^19_16)
KW^20_01 + KW^19_05
KW^20_02 + KW^19_06
KW^20_03 + KW^19_07 + CON_H^19
KW^20_04 + KW^19_08
KW^20_05 + KW^19_09
KW^20_06 + KW^19_10
KW^20_07 + KW^19_11
KW^20_08 + KW^19_12
KW^20_09 + KW^19_13
KW^20_10 + KW^19_14
KW^20_11 + KW^19_15
KW^20_12 + KW^19_16
KW^20_13 + KW^19_17
KW^20_14 + KW^19_18
KW^20_15 + KW^19_19 + CON_L^19
KW^20_16 + KW^19_20
KW^20_17 + KW^19_21
KW^20_18 + KW^19_22
KW^20_19 + KW^19_23 + S(KW^19_30)
KW^20_20 + KW^19_24
KW^20_21 + KW^19_25
KW^20_22 + KW^19_26
KW^20_23 + KW^19_27
KW^20_24 + KW^19_28
KW^20_25 + KW^19_29
KW^20_26 + KW^19_30
KW^20_27 + KW^19_31
KW^20_28 + KW^19_01 + S(KW^19_00)
KW^20_29 + KW^19_02
KW^20_30 + KW^19_03
KW^20_31 + KW^19_00

K^20_00 + KW^20_02
K^20_01 + KW^20_03
K^20_02 + KW^20_12
K^20_03 + KW^20_15
K^20_04 + KW^20_17
K^20_05 + KW^20_18
K^20_06 + KW^20_28
K^20_07 + KW^20_31

KW^21_00 + KW^20_04 + S(KW^20_16)
KW^21_01 + KW^20_05
KW^21_02 + KW^20_06
KW^21_03 + KW^20_07 + CON_H^20
KW^21_04 + KW^20_08
KW^21_05 + KW^20_09
KW^21_06 + KW^20_10
KW^21_07 + KW^20_11
KW^21_08 + KW^20_12
KW^21_09 + KW^20_13
KW^21_10 + KW^20_14
KW^21_11 + KW^20_15
KW^21_12 + KW^20_16
KW^21_13 + KW^20_17
KW^21_14 + KW^20_18
KW^21_15 + KW^20_19 + CON_L^20
KW^21_16 + KW^20_20
KW^21_17 + KW^20_21
KW^21_18 + KW^20_22
KW^21_19 + KW^20_23 + S(KW^20_30)
KW^21_20 + KW^20_24
KW^21_21 + KW^20_25
KW^21_22 + KW^20_26
KW^21_23 + KW^20_27
KW^21_24 + KW^20_28
KW^21_25 + KW^20_29
KW^21_26 + KW^20_30
KW^21_27 + KW^20_31
KW^21_28 + KW^20_01 + S(KW^20_00)
KW^21_29 + KW^20_02
KW^21_30 + KW^20_03
KW^21_31 + KW^20_00

K^21_00 + KW^21_02
K^21_01 + KW^21_03
K^21_02 + KW^21_12
K^21_03 + KW^21_15
K^21_04 + KW^21_17
K^21_05 + KW^21_18
K^21_06 + KW^21_28
K^21_07 + KW^21_31

KW^22_00 + KW^21_04 + S(KW^21_16)
KW^22_01 + KW^21_05
KW^22_02 + KW^21_06
KW^22_03 + KW^21_07 + CON_H^21
KW^22_04 + KW^21_08
KW^22_05 + KW^21_09
KW^22_06 + KW^21_10
KW^22_07 + KW^21_11
KW^22_08 + KW^21_12
KW^22_09 + KW^21_13
KW^22_10 + KW^21_14
KW^22_11 + KW^21_15
KW^22_12 + KW^21_16
KW^22_13 + KW^21_17
KW^22_14 + KW^21_18
KW^22_15 + KW^21_19 + CON_L^21
KW^22_16 + KW^21_20
KW^22_17 + KW^21_21
KW^22_18 + KW^21_22
KW^22_19 + KW^21_23 + S(KW^21_30)
KW^22_20 + KW^21_24
KW^22_21 + KW^21_25
KW^22_22 + KW^21_26
KW^22_23 + KW^21_27
KW^22_24 + KW^21_28
KW^22_25 + KW^21_29
KW^22_26 + KW^21_30
KW^22_27 + KW^21_31
KW^22_28 + KW^21_01 + S(KW^21_00)
KW^22_29 + KW^21_02
KW^22_30 + KW^21_03
KW^22_31 + KW^21_00

K^22_00 + KW^22_02
K^22_01 + KW^22_03
K^22_02 + KW^22_12
K^22_03 + KW^22_15
K^22_04 + KW^22_17
K^22_05 + KW^22_18
K^22_06 + KW^22_28
K^22_07 + KW^22_31

KW^23_00 + KW^22_04 + S(KW^22_16)
KW^23_01 + KW^22_05
KW^23_02 + KW^22_06
KW^23_03 + KW^22_07 + CON_H^22
KW^23_04 + KW^22_08
KW^23_05 + KW^22_09
KW^23_06 + KW^22_10
KW^23_07 + KW^22_11
KW^23_08 + KW^22_12
KW^23_09 + KW^22_13
KW^23_10 + KW^22_14
KW^23_11 + KW^22_15
KW^23_12 + KW^22_16
KW^23_13 + KW^22_17
KW^23_14 + KW^22_18
KW^23_15 + KW^22_19 + CON_L^22
KW^23_16 + KW^22_20
KW^23_17 + KW^22_21
KW^23_18 + KW^22_22
KW^23_19 + KW^22_23 + S(KW^22_30)
KW^23_20 + KW^22_24
KW^23_21 + KW^22_25
KW^23_22 + KW^22_26
KW^23_23 + KW^22_27
KW^23_24 + KW^22_28
KW^23_25 + KW^22_29
KW^23_26 + KW^22_30
KW^23_27 + KW^22_31
KW^23_28 + KW^22_01 + S(KW^22_00)
KW^23_29 + KW^22_02
KW^23_30 + KW^22_03
KW^23_31 + KW^22_00

K^23_00 + KW^23_02
K^23_01 + KW^23_03
K^23_02 + KW^23_12
K^23_03 + KW^23_15
K^23_04 + KW^23_17
K^23_05 + KW^23_18
K^23_06 + KW^23_28
K^23_07 + KW^23_31

KW^24_00 + KW^23_04 + S(KW^23_16)
KW^24_01 + KW^23_05
KW^24_02 + KW^23_06
KW^24_03 + KW^23_07 + CON_H^23
KW^24_04 + KW^23_08
KW^24_05 + KW^23_09
KW^24_06 + KW^23_10
KW^24_07 + KW^23_11
KW^24_08 + KW^23_12
KW^24_09 + KW^23_13
KW^24_10 + KW^23_14
KW^24_11 + KW^23_15
KW^24_12 + KW^23_16
KW^24_13 + KW^23_17
KW^24_14 + KW^23_18
KW^24_15 + KW^23_19 + CON_L^23
KW^24_16 + KW^23_20
KW^24_17 + KW^23_21
KW^24_18 + KW^23_22
KW^24_19 + KW^23_23 + S(KW^23_30)
KW^24_20 + KW^23_24
KW^24_21 + KW^23_25
KW^24_22 + KW^23_26
KW^24_23 + KW^23_27
KW^24_24 + KW^23_28
KW^24_25 + KW^23_29
KW^24_26 + KW^23_30
KW^24_27 + KW^23_31
KW^24_28 + KW^23_01 + S(KW^23_00)
KW^24_29 + KW^23_02
KW^24_30 + KW^23_03
KW^24_31 + KW^23_00

K^24_00 + KW^24_02
K^24_01 + KW^24_03
K^24_02 + KW^24_12
K^24_03 + KW^24_15
K^24_04 + KW^24_17
K^24_05 + KW^24_18
K^24_06 + KW^24_28
K^24_07 + KW^24_31

#
# Block cipher equations for message 1
#
X[01]^01_00 + P[01]_00
X[01]^01_01 + P[01]_01
X[01]^01_02 + P[01]_02
X[01]^01_03 + P[01]_03
X[01]^01_04 + P[01]_04
X[01]^01_05 + P[01]_05
X[01]^01_06 + P[01]_06
X[01]^01_07 + P[01]_07
X[01]^01_08 + P[01]_08
X[01]^01_09 + P[01]_09
X[01]^01_10 + P[01]_10
X[01]^01_11 + P[01]_11
X[01]^01_12 + P[01]_12
X[01]^01_13 + P[01]_13
X[01]^01_14 + P[01]_14
X[01]^01_15 + P[01]_15

### Round 01: : X[01]^02 := f(X[01]^01, K^01)
Y[01]^01_00 + X[01]^01_00 + K^01_00
Y[01]^01_02 + X[01]^01_02 + K^01_01
Y[01]^01_04 + X[01]^01_04 + K^01_02
Y[01]^01_06 + X[01]^01_06 + K^01_03
Y[01]^01_08 + X[01]^01_08 + K^01_04
Y[01]^01_10 + X[01]^01_10 + K^01_05
Y[01]^01_12 + X[01]^01_12 + K^01_06
Y[01]^01_14 + X[01]^01_14 + K^01_07

X[01]^02_05 + X[01]^01_00
X[01]^02_00 + X[01]^01_01 + S(Y[01]^01_00)
X[01]^02_01 + X[01]^01_02
X[01]^02_04 + X[01]^01_03 + S(Y[01]^01_02)
X[01]^02_07 + X[01]^01_04
X[01]^02_12 + X[01]^01_05 + S(Y[01]^01_04)
X[01]^02_03 + X[01]^01_06
X[01]^02_08 + X[01]^01_07 + S(Y[01]^01_06)
X[01]^02_13 + X[01]^01_08
X[01]^02_06 + X[01]^01_09 + S(Y[01]^01_08)
X[01]^02_09 + X[01]^01_10
X[01]^02_02 + X[01]^01_11 + S(Y[01]^01_10)
X[01]^02_15 + X[01]^01_12
X[01]^02_10 + X[01]^01_13 + S(Y[01]^01_12)
X[01]^02_11 + X[01]^01_14
X[01]^02_14 + X[01]^01_15 + S(Y[01]^01_14)

### Round 02: : X[01]^03 := f(X[01]^02, K^02)
Y[01]^02_00 + X[01]^02_00 + K^02_00
Y[01]^02_02 + X[01]^02_02 + K^02_01
Y[01]^02_04 + X[01]^02_04 + K^02_02
Y[01]^02_06 + X[01]^02_06 + K^02_03
Y[01]^02_08 + X[01]^02_08 + K^02_04
Y[01]^02_10 + X[01]^02_10 + K^02_05
Y[01]^02_12 + X[01]^02_12 + K^02_06
Y[01]^02_14 + X[01]^02_14 + K^02_07

X[01]^03_05 + X[01]^02_00
X[01]^03_00 + X[01]^02_01 + S(Y[01]^02_00)
X[01]^03_01 + X[01]^02_02
X[01]^03_04 + X[01]^02_03 + S(Y[01]^02_02)
X[01]^03_07 + X[01]^02_04
X[01]^03_12 + X[01]^02_05 + S(Y[01]^02_04)
X[01]^03_03 + X[01]^02_06
X[01]^03_08 + X[01]^02_07 + S(Y[01]^02_06)
X[01]^03_13 + X[01]^02_08
X[01]^03_06 + X[01]^02_09 + S(Y[01]^02_08)
X[01]^03_09 + X[01]^02_10
X[01]^03_02 + X[01]^02_11 + S(Y[01]^02_10)
X[01]^03_15 + X[01]^02_12
X[01]^03_10 + X[01]^02_13 + S(Y[01]^02_12)
X[01]^03_11 + X[01]^02_14
X[01]^03_14 + X[01]^02_15 + S(Y[01]^02_14)

### Round 03: : X[01]^04 := f(X[01]^03, K^03)
Y[01]^03_00 + X[01]^03_00 + K^03_00
Y[01]^03_02 + X[01]^03_02 + K^03_01
Y[01]^03_04 + X[01]^03_04 + K^03_02
Y[01]^03_06 + X[01]^03_06 + K^03_03
Y[01]^03_08 + X[01]^03_08 + K^03_04
Y[01]^03_10 + X[01]^03_10 + K^03_05
Y[01]^03_12 + X[01]^03_12 + K^03_06
Y[01]^03_14 + X[01]^03_14 + K^03_07

X[01]^04_05 + X[01]^03_00
X[01]^04_00 + X[01]^03_01 + S(Y[01]^03_00)
X[01]^04_01 + X[01]^03_02
X[01]^04_04 + X[01]^03_03 + S(Y[01]^03_02)
X[01]^04_07 + X[01]^03_04
X[01]^04_12 + X[01]^03_05 + S(Y[01]^03_04)
X[01]^04_03 + X[01]^03_06
X[01]^04_08 + X[01]^03_07 + S(Y[01]^03_06)
X[01]^04_13 + X[01]^03_08
X[01]^04_06 + X[01]^03_09 + S(Y[01]^03_08)
X[01]^04_09 + X[01]^03_10
X[01]^04_02 + X[01]^03_11 + S(Y[01]^03_10)
X[01]^04_15 + X[01]^03_12
X[01]^04_10 + X[01]^03_13 + S(Y[01]^03_12)
X[01]^04_11 + X[01]^03_14
X[01]^04_14 + X[01]^03_15 + S(Y[01]^03_14)

### Round 04: : X[01]^05 := f(X[01]^04, K^04)
Y[01]^04_00 + X[01]^04_00 + K^04_00
Y[01]^04_02 + X[01]^04_02 + K^04_01
Y[01]^04_04 + X[01]^04_04 + K^04_02
Y[01]^04_06 + X[01]^04_06 + K^04_03
Y[01]^04_08 + X[01]^04_08 + K^04_04
Y[01]^04_10 + X[01]^04_10 + K^04_05
Y[01]^04_12 + X[01]^04_12 + K^04_06
Y[01]^04_14 + X[01]^04_14 + K^04_07

X[01]^05_05 + X[01]^04_00
X[01]^05_00 + X[01]^04_01 + S(Y[01]^04_00)
X[01]^05_01 + X[01]^04_02
X[01]^05_04 + X[01]^04_03 + S(Y[01]^04_02)
X[01]^05_07 + X[01]^04_04
X[01]^05_12 + X[01]^04_05 + S(Y[01]^04_04)
X[01]^05_03 + X[01]^04_06
X[01]^05_08 + X[01]^04_07 + S(Y[01]^04_06)
X[01]^05_13 + X[01]^04_08
X[01]^05_06 + X[01]^04_09 + S(Y[01]^04_08)
X[01]^05_09 + X[01]^04_10
X[01]^05_02 + X[01]^04_11 + S(Y[01]^04_10)
X[01]^05_15 + X[01]^04_12
X[01]^05_10 + X[01]^04_13 + S(Y[01]^04_12)
X[01]^05_11 + X[01]^04_14
X[01]^05_14 + X[01]^04_15 + S(Y[01]^04_14)

### Round 05: : X[01]^06 := f(X[01]^05, K^05)
Y[01]^05_00 + X[01]^05_00 + K^05_00
Y[01]^05_02 + X[01]^05_02 + K^05_01
Y[01]^05_04 + X[01]^05_04 + K^05_02
Y[01]^05_06 + X[01]^05_06 + K^05_03
Y[01]^05_08 + X[01]^05_08 + K^05_04
Y[01]^05_10 + X[01]^05_10 + K^05_05
Y[01]^05_12 + X[01]^05_12 + K^05_06
Y[01]^05_14 + X[01]^05_14 + K^05_07

X[01]^06_05 + X[01]^05_00
X[01]^06_00 + X[01]^05_01 + S(Y[01]^05_00)
X[01]^06_01 + X[01]^05_02
X[01]^06_04 + X[01]^05_03 + S(Y[01]^05_02)
X[01]^06_07 + X[01]^05_04
X[01]^06_12 + X[01]^05_05 + S(Y[01]^05_04)
X[01]^06_03 + X[01]^05_06
X[01]^06_08 + X[01]^05_07 + S(Y[01]^05_06)
X[01]^06_13 + X[01]^05_08
X[01]^06_06 + X[01]^05_09 + S(Y[01]^05_08)
X[01]^06_09 + X[01]^05_10
X[01]^06_02 + X[01]^05_11 + S(Y[01]^05_10)
X[01]^06_15 + X[01]^05_12
X[01]^06_10 + X[01]^05_13 + S(Y[01]^05_12)
X[01]^06_11 + X[01]^05_14
X[01]^06_14 + X[01]^05_15 + S(Y[01]^05_14)

### Round 06: : X[01]^07 := f(X[01]^06, K^06)
Y[01]^06_00 + X[01]^06_00 + K^06_00
Y[01]^06_02 + X[01]^06_02 + K^06_01
Y[01]^06_04 + X[01]^06_04 + K^06_02
Y[01]^06_06 + X[01]^06_06 + K^06_03
Y[01]^06_08 + X[01]^06_08 + K^06_04
Y[01]^06_10 + X[01]^06_10 + K^06_05
Y[01]^06_12 + X[01]^06_12 + K^06_06
Y[01]^06_14 + X[01]^06_14 + K^06_07

X[01]^07_05 + X[01]^06_00
X[01]^07_00 + X[01]^06_01 + S(Y[01]^06_00)
X[01]^07_01 + X[01]^06_02
X[01]^07_04 + X[01]^06_03 + S(Y[01]^06_02)
X[01]^07_07 + X[01]^06_04
X[01]^07_12 + X[01]^06_05 + S(Y[01]^06_04)
X[01]^07_03 + X[01]^06_06
X[01]^07_08 + X[01]^06_07 + S(Y[01]^06_06)
X[01]^07_13 + X[01]^06_08
X[01]^07_06 + X[01]^06_09 + S(Y[01]^06_08)
X[01]^07_09 + X[01]^06_10
X[01]^07_02 + X[01]^06_11 + S(Y[01]^06_10)
X[01]^07_15 + X[01]^06_12
X[01]^07_10 + X[01]^06_13 + S(Y[01]^06_12)
X[01]^07_11 + X[01]^06_14
X[01]^07_14 + X[01]^06_15 + S(Y[01]^06_14)

### Round 07: : X[01]^08 := f(X[01]^07, K^07)
Y[01]^07_00 + X[01]^07_00 + K^07_00
Y[01]^07_02 + X[01]^07_02 + K^07_01
Y[01]^07_04 + X[01]^07_04 + K^07_02
Y[01]^07_06 + X[01]^07_06 + K^07_03
Y[01]^07_08 + X[01]^07_08 + K^07_04
Y[01]^07_10 + X[01]^07_10 + K^07_05
Y[01]^07_12 + X[01]^07_12 + K^07_06
Y[01]^07_14 + X[01]^07_14 + K^07_07

X[01]^08_05 + X[01]^07_00
X[01]^08_00 + X[01]^07_01 + S(Y[01]^07_00)
X[01]^08_01 + X[01]^07_02
X[01]^08_04 + X[01]^07_03 + S(Y[01]^07_02)
X[01]^08_07 + X[01]^07_04
X[01]^08_12 + X[01]^07_05 + S(Y[01]^07_04)
X[01]^08_03 + X[01]^07_06
X[01]^08_08 + X[01]^07_07 + S(Y[01]^07_06)
X[01]^08_13 + X[01]^07_08
X[01]^08_06 + X[01]^07_09 + S(Y[01]^07_08)
X[01]^08_09 + X[01]^07_10
X[01]^08_02 + X[01]^07_11 + S(Y[01]^07_10)
X[01]^08_15 + X[01]^07_12
X[01]^08_10 + X[01]^07_13 + S(Y[01]^07_12)
X[01]^08_11 + X[01]^07_14
X[01]^08_14 + X[01]^07_15 + S(Y[01]^07_14)

### Round 08: : X[01]^09 := f(X[01]^08, K^08)
Y[01]^08_00 + X[01]^08_00 + K^08_00
Y[01]^08_02 + X[01]^08_02 + K^08_01
Y[01]^08_04 + X[01]^08_04 + K^08_02
Y[01]^08_06 + X[01]^08_06 + K^08_03
Y[01]^08_08 + X[01]^08_08 + K^08_04
Y[01]^08_10 + X[01]^08_10 + K^08_05
Y[01]^08_12 + X[01]^08_12 + K^08_06
Y[01]^08_14 + X[01]^08_14 + K^08_07

X[01]^09_05 + X[01]^08_00
X[01]^09_00 + X[01]^08_01 + S(Y[01]^08_00)
X[01]^09_01 + X[01]^08_02
X[01]^09_04 + X[01]^08_03 + S(Y[01]^08_02)
X[01]^09_07 + X[01]^08_04
X[01]^09_12 + X[01]^08_05 + S(Y[01]^08_04)
X[01]^09_03 + X[01]^08_06
X[01]^09_08 + X[01]^08_07 + S(Y[01]^08_06)
X[01]^09_13 + X[01]^08_08
X[01]^09_06 + X[01]^08_09 + S(Y[01]^08_08)
X[01]^09_09 + X[01]^08_10
X[01]^09_02 + X[01]^08_11 + S(Y[01]^08_10)
X[01]^09_15 + X[01]^08_12
X[01]^09_10 + X[01]^08_13 + S(Y[01]^08_12)
X[01]^09_11 + X[01]^08_14
X[01]^09_14 + X[01]^08_15 + S(Y[01]^08_14)

### Round 09: : X[01]^10 := f(X[01]^09, K^09)
Y[01]^09_00 + X[01]^09_00 + K^09_00
Y[01]^09_02 + X[01]^09_02 + K^09_01
Y[01]^09_04 + X[01]^09_04 + K^09_02
Y[01]^09_06 + X[01]^09_06 + K^09_03
Y[01]^09_08 + X[01]^09_08 + K^09_04
Y[01]^09_10 + X[01]^09_10 + K^09_05
Y[01]^09_12 + X[01]^09_12 + K^09_06
Y[01]^09_14 + X[01]^09_14 + K^09_07

X[01]^10_05 + X[01]^09_00
X[01]^10_00 + X[01]^09_01 + S(Y[01]^09_00)
X[01]^10_01 + X[01]^09_02
X[01]^10_04 + X[01]^09_03 + S(Y[01]^09_02)
X[01]^10_07 + X[01]^09_04
X[01]^10_12 + X[01]^09_05 + S(Y[01]^09_04)
X[01]^10_03 + X[01]^09_06
X[01]^10_08 + X[01]^09_07 + S(Y[01]^09_06)
X[01]^10_13 + X[01]^09_08
X[01]^10_06 + X[01]^09_09 + S(Y[01]^09_08)
X[01]^10_09 + X[01]^09_10
X[01]^10_02 + X[01]^09_11 + S(Y[01]^09_10)
X[01]^10_15 + X[01]^09_12
X[01]^10_10 + X[01]^09_13 + S(Y[01]^09_12)
X[01]^10_11 + X[01]^09_14
X[01]^10_14 + X[01]^09_15 + S(Y[01]^09_14)

### Round 10: : X[01]^11 := f(X[01]^10, K^10)
Y[01]^10_00 + X[01]^10_00 + K^10_00
Y[01]^10_02 + X[01]^10_02 + K^10_01
Y[01]^10_04 + X[01]^10_04 + K^10_02
Y[01]^10_06 + X[01]^10_06 + K^10_03
Y[01]^10_08 + X[01]^10_08 + K^10_04
Y[01]^10_10 + X[01]^10_10 + K^10_05
Y[01]^10_12 + X[01]^10_12 + K^10_06
Y[01]^10_14 + X[01]^10_14 + K^10_07

X[01]^11_05 + X[01]^10_00
X[01]^11_00 + X[01]^10_01 + S(Y[01]^10_00)
X[01]^11_01 + X[01]^10_02
X[01]^11_04 + X[01]^10_03 + S(Y[01]^10_02)
X[01]^11_07 + X[01]^10_04
X[01]^11_12 + X[01]^10_05 + S(Y[01]^10_04)
X[01]^11_03 + X[01]^10_06
X[01]^11_08 + X[01]^10_07 + S(Y[01]^10_06)
X[01]^11_13 + X[01]^10_08
X[01]^11_06 + X[01]^10_09 + S(Y[01]^10_08)
X[01]^11_09 + X[01]^10_10
X[01]^11_02 + X[01]^10_11 + S(Y[01]^10_10)
X[01]^11_15 + X[01]^10_12
X[01]^11_10 + X[01]^10_13 + S(Y[01]^10_12)
X[01]^11_11 + X[01]^10_14
X[01]^11_14 + X[01]^10_15 + S(Y[01]^10_14)

### Round 11: : X[01]^12 := f(X[01]^11, K^11)
Y[01]^11_00 + X[01]^11_00 + K^11_00
Y[01]^11_02 + X[01]^11_02 + K^11_01
Y[01]^11_04 + X[01]^11_04 + K^11_02
Y[01]^11_06 + X[01]^11_06 + K^11_03
Y[01]^11_08 + X[01]^11_08 + K^11_04
Y[01]^11_10 + X[01]^11_10 + K^11_05
Y[01]^11_12 + X[01]^11_12 + K^11_06
Y[01]^11_14 + X[01]^11_14 + K^11_07

X[01]^12_05 + X[01]^11_00
X[01]^12_00 + X[01]^11_01 + S(Y[01]^11_00)
X[01]^12_01 + X[01]^11_02
X[01]^12_04 + X[01]^11_03 + S(Y[01]^11_02)
X[01]^12_07 + X[01]^11_04
X[01]^12_12 + X[01]^11_05 + S(Y[01]^11_04)
X[01]^12_03 + X[01]^11_06
X[01]^12_08 + X[01]^11_07 + S(Y[01]^11_06)
X[01]^12_13 + X[01]^11_08
X[01]^12_06 + X[01]^11_09 + S(Y[01]^11_08)
X[01]^12_09 + X[01]^11_10
X[01]^12_02 + X[01]^11_11 + S(Y[01]^11_10)
X[01]^12_15 + X[01]^11_12
X[01]^12_10 + X[01]^11_13 + S(Y[01]^11_12)
X[01]^12_11 + X[01]^11_14
X[01]^12_14 + X[01]^11_15 + S(Y[01]^11_14)

### Round 12: : X[01]^13 := f(X[01]^12, K^12)
Y[01]^12_00 + X[01]^12_00 + K^12_00
Y[01]^12_02 + X[01]^12_02 + K^12_01
Y[01]^12_04 + X[01]^12_04 + K^12_02
Y[01]^12_06 + X[01]^12_06 + K^12_03
Y[01]^12_08 + X[01]^12_08 + K^12_04
Y[01]^12_10 + X[01]^12_10 + K^12_05
Y[01]^12_12 + X[01]^12_12 + K^12_06
Y[01]^12_14 + X[01]^12_14 + K^12_07

X[01]^13_05 + X[01]^12_00
X[01]^13_00 + X[01]^12_01 + S(Y[01]^12_00)
X[01]^13_01 + X[01]^12_02
X[01]^13_04 + X[01]^12_03 + S(Y[01]^12_02)
X[01]^13_07 + X[01]^12_04
X[01]^13_12 + X[01]^12_05 + S(Y[01]^12_04)
X[01]^13_03 + X[01]^12_06
X[01]^13_08 + X[01]^12_07 + S(Y[01]^12_06)
X[01]^13_13 + X[01]^12_08
X[01]^13_06 + X[01]^12_09 + S(Y[01]^12_08)
X[01]^13_09 + X[01]^12_10
X[01]^13_02 + X[01]^12_11 + S(Y[01]^12_10)
X[01]^13_15 + X[01]^12_12
X[01]^13_10 + X[01]^12_13 + S(Y[01]^12_12)
X[01]^13_11 + X[01]^12_14
X[01]^13_14 + X[01]^12_15 + S(Y[01]^12_14)

### Round 13: : X[01]^14 := f(X[01]^13, K^13)
Y[01]^13_00 + X[01]^13_00 + K^13_00
Y[01]^13_02 + X[01]^13_02 + K^13_01
Y[01]^13_04 + X[01]^13_04 + K^13_02
Y[01]^13_06 + X[01]^13_06 + K^13_03
Y[01]^13_08 + X[01]^13_08 + K^13_04
Y[01]^13_10 + X[01]^13_10 + K^13_05
Y[01]^13_12 + X[01]^13_12 + K^13_06
Y[01]^13_14 + X[01]^13_14 + K^13_07

X[01]^14_05 + X[01]^13_00
X[01]^14_00 + X[01]^13_01 + S(Y[01]^13_00)
X[01]^14_01 + X[01]^13_02
X[01]^14_04 + X[01]^13_03 + S(Y[01]^13_02)
X[01]^14_07 + X[01]^13_04
X[01]^14_12 + X[01]^13_05 + S(Y[01]^13_04)
X[01]^14_03 + X[01]^13_06
X[01]^14_08 + X[01]^13_07 + S(Y[01]^13_06)
X[01]^14_13 + X[01]^13_08
X[01]^14_06 + X[01]^13_09 + S(Y[01]^13_08)
X[01]^14_09 + X[01]^13_10
X[01]^14_02 + X[01]^13_11 + S(Y[01]^13_10)
X[01]^14_15 + X[01]^13_12
X[01]^14_10 + X[01]^13_13 + S(Y[01]^13_12)
X[01]^14_11 + X[01]^13_14
X[01]^14_14 + X[01]^13_15 + S(Y[01]^13_14)

### Round 14: : X[01]^15 := f(X[01]^14, K^14)
Y[01]^14_00 + X[01]^14_00 + K^14_00
Y[01]^14_02 + X[01]^14_02 + K^14_01
Y[01]^14_04 + X[01]^14_04 + K^14_02
Y[01]^14_06 + X[01]^14_06 + K^14_03
Y[01]^14_08 + X[01]^14_08 + K^14_04
Y[01]^14_10 + X[01]^14_10 + K^14_05
Y[01]^14_12 + X[01]^14_12 + K^14_06
Y[01]^14_14 + X[01]^14_14 + K^14_07

X[01]^15_05 + X[01]^14_00
X[01]^15_00 + X[01]^14_01 + S(Y[01]^14_00)
X[01]^15_01 + X[01]^14_02
X[01]^15_04 + X[01]^14_03 + S(Y[01]^14_02)
X[01]^15_07 + X[01]^14_04
X[01]^15_12 + X[01]^14_05 + S(Y[01]^14_04)
X[01]^15_03 + X[01]^14_06
X[01]^15_08 + X[01]^14_07 + S(Y[01]^14_06)
X[01]^15_13 + X[01]^14_08
X[01]^15_06 + X[01]^14_09 + S(Y[01]^14_08)
X[01]^15_09 + X[01]^14_10
X[01]^15_02 + X[01]^14_11 + S(Y[01]^14_10)
X[01]^15_15 + X[01]^14_12
X[01]^15_10 + X[01]^14_13 + S(Y[01]^14_12)
X[01]^15_11 + X[01]^14_14
X[01]^15_14 + X[01]^14_15 + S(Y[01]^14_14)

### Round 15: : X[01]^16 := f(X[01]^15, K^15)
Y[01]^15_00 + X[01]^15_00 + K^15_00
Y[01]^15_02 + X[01]^15_02 + K^15_01
Y[01]^15_04 + X[01]^15_04 + K^15_02
Y[01]^15_06 + X[01]^15_06 + K^15_03
Y[01]^15_08 + X[01]^15_08 + K^15_04
Y[01]^15_10 + X[01]^15_10 + K^15_05
Y[01]^15_12 + X[01]^15_12 + K^15_06
Y[01]^15_14 + X[01]^15_14 + K^15_07

X[01]^16_05 + X[01]^15_00
X[01]^16_00 + X[01]^15_01 + S(Y[01]^15_00)
X[01]^16_01 + X[01]^15_02
X[01]^16_04 + X[01]^15_03 + S(Y[01]^15_02)
X[01]^16_07 + X[01]^15_04
X[01]^16_12 + X[01]^15_05 + S(Y[01]^15_04)
X[01]^16_03 + X[01]^15_06
X[01]^16_08 + X[01]^15_07 + S(Y[01]^15_06)
X[01]^16_13 + X[01]^15_08
X[01]^16_06 + X[01]^15_09 + S(Y[01]^15_08)
X[01]^16_09 + X[01]^15_10
X[01]^16_02 + X[01]^15_11 + S(Y[01]^15_10)
X[01]^16_15 + X[01]^15_12
X[01]^16_10 + X[01]^15_13 + S(Y[01]^15_12)
X[01]^16_11 + X[01]^15_14
X[01]^16_14 + X[01]^15_15 + S(Y[01]^15_14)

### Round 16: : X[01]^17 := f(X[01]^16, K^16)
Y[01]^16_00 + X[01]^16_00 + K^16_00
Y[01]^16_02 + X[01]^16_02 + K^16_01
Y[01]^16_04 + X[01]^16_04 + K^16_02
Y[01]^16_06 + X[01]^16_06 + K^16_03
Y[01]^16_08 + X[01]^16_08 + K^16_04
Y[01]^16_10 + X[01]^16_10 + K^16_05
Y[01]^16_12 + X[01]^16_12 + K^16_06
Y[01]^16_14 + X[01]^16_14 + K^16_07

X[01]^17_05 + X[01]^16_00
X[01]^17_00 + X[01]^16_01 + S(Y[01]^16_00)
X[01]^17_01 + X[01]^16_02
X[01]^17_04 + X[01]^16_03 + S(Y[01]^16_02)
X[01]^17_07 + X[01]^16_04
X[01]^17_12 + X[01]^16_05 + S(Y[01]^16_04)
X[01]^17_03 + X[01]^16_06
X[01]^17_08 + X[01]^16_07 + S(Y[01]^16_06)
X[01]^17_13 + X[01]^16_08
X[01]^17_06 + X[01]^16_09 + S(Y[01]^16_08)
X[01]^17_09 + X[01]^16_10
X[01]^17_02 + X[01]^16_11 + S(Y[01]^16_10)
X[01]^17_15 + X[01]^16_12
X[01]^17_10 + X[01]^16_13 + S(Y[01]^16_12)
X[01]^17_11 + X[01]^16_14
X[01]^17_14 + X[01]^16_15 + S(Y[01]^16_14)

### Round 17: : X[01]^18 := f(X[01]^17, K^17)
Y[01]^17_00 + X[01]^17_00 + K^17_00
Y[01]^17_02 + X[01]^17_02 + K^17_01
Y[01]^17_04 + X[01]^17_04 + K^17_02
Y[01]^17_06 + X[01]^17_06 + K^17_03
Y[01]^17_08 + X[01]^17_08 + K^17_04
Y[01]^17_10 + X[01]^17_10 + K^17_05
Y[01]^17_12 + X[01]^17_12 + K^17_06
Y[01]^17_14 + X[01]^17_14 + K^17_07

X[01]^18_05 + X[01]^17_00
X[01]^18_00 + X[01]^17_01 + S(Y[01]^17_00)
X[01]^18_01 + X[01]^17_02
X[01]^18_04 + X[01]^17_03 + S(Y[01]^17_02)
X[01]^18_07 + X[01]^17_04
X[01]^18_12 + X[01]^17_05 + S(Y[01]^17_04)
X[01]^18_03 + X[01]^17_06
X[01]^18_08 + X[01]^17_07 + S(Y[01]^17_06)
X[01]^18_13 + X[01]^17_08
X[01]^18_06 + X[01]^17_09 + S(Y[01]^17_08)
X[01]^18_09 + X[01]^17_10
X[01]^18_02 + X[01]^17_11 + S(Y[01]^17_10)
X[01]^18_15 + X[01]^17_12
X[01]^18_10 + X[01]^17_13 + S(Y[01]^17_12)
X[01]^18_11 + X[01]^17_14
X[01]^18_14 + X[01]^17_15 + S(Y[01]^17_14)

### Round 18: : X[01]^19 := f(X[01]^18, K^18)
Y[01]^18_00 + X[01]^18_00 + K^18_00
Y[01]^18_02 + X[01]^18_02 + K^18_01
Y[01]^18_04 + X[01]^18_04 + K^18_02
Y[01]^18_06 + X[01]^18_06 + K^18_03
Y[01]^18_08 + X[01]^18_08 + K^18_04
Y[01]^18_10 + X[01]^18_10 + K^18_05
Y[01]^18_12 + X[01]^18_12 + K^18_06
Y[01]^18_14 + X[01]^18_14 + K^18_07

X[01]^19_05 + X[01]^18_00
X[01]^19_00 + X[01]^18_01 + S(Y[01]^18_00)
X[01]^19_01 + X[01]^18_02
X[01]^19_04 + X[01]^18_03 + S(Y[01]^18_02)
X[01]^19_07 + X[01]^18_04
X[01]^19_12 + X[01]^18_05 + S(Y[01]^18_04)
X[01]^19_03 + X[01]^18_06
X[01]^19_08 + X[01]^18_07 + S(Y[01]^18_06)
X[01]^19_13 + X[01]^18_08
X[01]^19_06 + X[01]^18_09 + S(Y[01]^18_08)
X[01]^19_09 + X[01]^18_10
X[01]^19_02 + X[01]^18_11 + S(Y[01]^18_10)
X[01]^19_15 + X[01]^18_12
X[01]^19_10 + X[01]^18_13 + S(Y[01]^18_12)
X[01]^19_11 + X[01]^18_14
X[01]^19_14 + X[01]^18_15 + S(Y[01]^18_14)

### Round 19: : X[01]^20 := f(X[01]^19, K^19)
Y[01]^19_00 + X[01]^19_00 + K^19_00
Y[01]^19_02 + X[01]^19_02 + K^19_01
Y[01]^19_04 + X[01]^19_04 + K^19_02
Y[01]^19_06 + X[01]^19_06 + K^19_03
Y[01]^19_08 + X[01]^19_08 + K^19_04
Y[01]^19_10 + X[01]^19_10 + K^19_05
Y[01]^19_12 + X[01]^19_12 + K^19_06
Y[01]^19_14 + X[01]^19_14 + K^19_07

X[01]^20_05 + X[01]^19_00
X[01]^20_00 + X[01]^19_01 + S(Y[01]^19_00)
X[01]^20_01 + X[01]^19_02
X[01]^20_04 + X[01]^19_03 + S(Y[01]^19_02)
X[01]^20_07 + X[01]^19_04
X[01]^20_12 + X[01]^19_05 + S(Y[01]^19_04)
X[01]^20_03 + X[01]^19_06
X[01]^20_08 + X[01]^19_07 + S(Y[01]^19_06)
X[01]^20_13 + X[01]^19_08
X[01]^20_06 + X[01]^19_09 + S(Y[01]^19_08)
X[01]^20_09 + X[01]^19_10
X[01]^20_02 + X[01]^19_11 + S(Y[01]^19_10)
X[01]^20_15 + X[01]^19_12
X[01]^20_10 + X[01]^19_13 + S(Y[01]^19_12)
X[01]^20_11 + X[01]^19_14
X[01]^20_14 + X[01]^19_15 + S(Y[01]^19_14)

### Round 20: : X[01]^21 := f(X[01]^20, K^20)
Y[01]^20_00 + X[01]^20_00 + K^20_00
Y[01]^20_02 + X[01]^20_02 + K^20_01
Y[01]^20_04 + X[01]^20_04 + K^20_02
Y[01]^20_06 + X[01]^20_06 + K^20_03
Y[01]^20_08 + X[01]^20_08 + K^20_04
Y[01]^20_10 + X[01]^20_10 + K^20_05
Y[01]^20_12 + X[01]^20_12 + K^20_06
Y[01]^20_14 + X[01]^20_14 + K^20_07

X[01]^21_05 + X[01]^20_00
X[01]^21_00 + X[01]^20_01 + S(Y[01]^20_00)
X[01]^21_01 + X[01]^20_02
X[01]^21_04 + X[01]^20_03 + S(Y[01]^20_02)
X[01]^21_07 + X[01]^20_04
X[01]^21_12 + X[01]^20_05 + S(Y[01]^20_04)
X[01]^21_03 + X[01]^20_06
X[01]^21_08 + X[01]^20_07 + S(Y[01]^20_06)
X[01]^21_13 + X[01]^20_08
X[01]^21_06 + X[01]^20_09 + S(Y[01]^20_08)
X[01]^21_09 + X[01]^20_10
X[01]^21_02 + X[01]^20_11 + S(Y[01]^20_10)
X[01]^21_15 + X[01]^20_12
X[01]^21_10 + X[01]^20_13 + S(Y[01]^20_12)
X[01]^21_11 + X[01]^20_14
X[01]^21_14 + X[01]^20_15 + S(Y[01]^20_14)

### Round 21: : X[01]^22 := f(X[01]^21, K^21)
Y[01]^21_00 + X[01]^21_00 + K^21_00
Y[01]^21_02 + X[01]^21_02 + K^21_01
Y[01]^21_04 + X[01]^21_04 + K^21_02
Y[01]^21_06 + X[01]^21_06 + K^21_03
Y[01]^21_08 + X[01]^21_08 + K^21_04
Y[01]^21_10 + X[01]^21_10 + K^21_05
Y[01]^21_12 + X[01]^21_12 + K^21_06
Y[01]^21_14 + X[01]^21_14 + K^21_07

X[01]^22_05 + X[01]^21_00
X[01]^22_00 + X[01]^21_01 + S(Y[01]^21_00)
X[01]^22_01 + X[01]^21_02
X[01]^22_04 + X[01]^21_03 + S(Y[01]^21_02)
X[01]^22_07 + X[01]^21_04
X[01]^22_12 + X[01]^21_05 + S(Y[01]^21_04)
X[01]^22_03 + X[01]^21_06
X[01]^22_08 + X[01]^21_07 + S(Y[01]^21_06)
X[01]^22_13 + X[01]^21_08
X[01]^22_06 + X[01]^21_09 + S(Y[01]^21_08)
X[01]^22_09 + X[01]^21_10
X[01]^22_02 + X[01]^21_11 + S(Y[01]^21_10)
X[01]^22_15 + X[01]^21_12
X[01]^22_10 + X[01]^21_13 + S(Y[01]^21_12)
X[01]^22_11 + X[01]^21_14
X[01]^22_14 + X[01]^21_15 + S(Y[01]^21_14)

### Round 22: : X[01]^23 := f(X[01]^22, K^22)
Y[01]^22_00 + X[01]^22_00 + K^22_00
Y[01]^22_02 + X[01]^22_02 + K^22_01
Y[01]^22_04 + X[01]^22_04 + K^22_02
Y[01]^22_06 + X[01]^22_06 + K^22_03
Y[01]^22_08 + X[01]^22_08 + K^22_04
Y[01]^22_10 + X[01]^22_10 + K^22_05
Y[01]^22_12 + X[01]^22_12 + K^22_06
Y[01]^22_14 + X[01]^22_14 + K^22_07

X[01]^23_05 + X[01]^22_00
X[01]^23_00 + X[01]^22_01 + S(Y[01]^22_00)
X[01]^23_01 + X[01]^22_02
X[01]^23_04 + X[01]^22_03 + S(Y[01]^22_02)
X[01]^23_07 + X[01]^22_04
X[01]^23_12 + X[01]^22_05 + S(Y[01]^22_04)
X[01]^23_03 + X[01]^22_06
X[01]^23_08 + X[01]^22_07 + S(Y[01]^22_06)
X[01]^23_13 + X[01]^22_08
X[01]^23_06 + X[01]^22_09 + S(Y[01]^22_08)
X[01]^23_09 + X[01]^22_10
X[01]^23_02 + X[01]^22_11 + S(Y[01]^22_10)
X[01]^23_15 + X[01]^22_12
X[01]^23_10 + X[01]^22_13 + S(Y[01]^22_12)
X[01]^23_11 + X[01]^22_14
X[01]^23_14 + X[01]^22_15 + S(Y[01]^22_14)

### Round 23: : X[01]^24 := f(X[01]^23, K^23)
Y[01]^23_00 + X[01]^23_00 + K^23_00
Y[01]^23_02 + X[01]^23_02 + K^23_01
Y[01]^23_04 + X[01]^23_04 + K^23_02
Y[01]^23_06 + X[01]^23_06 + K^23_03
Y[01]^23_08 + X[01]^23_08 + K^23_04
Y[01]^23_10 + X[01]^23_10 + K^23_05
Y[01]^23_12 + X[01]^23_12 + K^23_06
Y[01]^23_14 + X[01]^23_14 + K^23_07

X[01]^24_05 + X[01]^23_00
X[01]^24_00 + X[01]^23_01 + S(Y[01]^23_00)
X[01]^24_01 + X[01]^23_02
X[01]^24_04 + X[01]^23_03 + S(Y[01]^23_02)
X[01]^24_07 + X[01]^23_04
X[01]^24_12 + X[01]^23_05 + S(Y[01]^23_04)
X[01]^24_03 + X[01]^23_06
X[01]^24_08 + X[01]^23_07 + S(Y[01]^23_06)
X[01]^24_13 + X[01]^23_08
X[01]^24_06 + X[01]^23_09 + S(Y[01]^23_08)
X[01]^24_09 + X[01]^23_10
X[01]^24_02 + X[01]^23_11 + S(Y[01]^23_10)
X[01]^24_15 + X[01]^23_12
X[01]^24_10 + X[01]^23_13 + S(Y[01]^23_12)
X[01]^24_11 + X[01]^23_14
X[01]^24_14 + X[01]^23_15 + S(Y[01]^23_14)

### Round 24: : C[01] := f(X[01]^24, K^24)
Y[01]^24_00 + X[01]^24_00 + K^24_00
Y[01]^24_02 + X[01]^24_02 + K^24_01
Y[01]^24_04 + X[01]^24_04 + K^24_02
Y[01]^24_06 + X[01]^24_06 + K^24_03
Y[01]^24_08 + X[01]^24_08 + K^24_04
Y[01]^24_10 + X[01]^24_10 + K^24_05
Y[01]^24_12 + X[01]^24_12 + K^24_06
Y[01]^24_14 + X[01]^24_14 + K^24_07

C[01]_00 + X[01]^24_00
C[01]_01 + X[01]^24_01 + S(Y[01]^24_00)
C[01]_02 + X[01]^24_02
C[01]_03 + X[01]^24_03 + S(Y[01]^24_02)
C[01]_04 + X[01]^24_04
C[01]_05 + X[01]^24_05 + S(Y[01]^24_04)
C[01]_06 + X[01]^24_06
C[01]_07 + X[01]^24_07 + S(Y[01]^24_06)
C[01]_08 + X[01]^24_08
C[01]_09 + X[01]^24_09 + S(Y[01]^24_08)
C[01]_10 + X[01]^24_10
C[01]_11 + X[01]^24_11 + S(Y[01]^24_10)
C[01]_12 + X[01]^24_12
C[01]_13 + X[01]^24_13 + S(Y[01]^24_12)
C[01]_14 + X[01]^24_14
C[01]_15 + X[01]^24_15 + S(Y[01]^24_14)


--known variables:


CON_H^01 CON_L^01 CON_H^02 CON_L^02 CON_H^03 CON_L^03 
CON_H^04 CON_L^04 CON_H^05 CON_L^05 CON_H^06 CON_L^06 CON_H^07 CON_L^07 
CON_H^08 CON_L^08 CON_H^09 CON_L^09 CON_H^10 CON_L^10 CON_H^11 CON_L^11 
CON_H^12 CON_L^12 CON_H^13 CON_L^13 CON_H^14 CON_L^14 CON_H^15 CON_L^15 
CON_H^16 CON_L^16 CON_H^17 CON_L^17 CON_H^18 CON_L^18 CON_H^19 CON_L^19 
CON_H^20 CON_L^20 CON_H^21 CON_L^21 CON_H^22 CON_L^22 CON_H^23 CON_L^23 

