--system:
R_1[0] + L_0[0]
R_1[1] + L_0[1]
R_1[2] + L_0[2]
R_1[3] + L_0[3]
R_1[4] + L_0[4]
R_1[5] + L_0[5]
R_1[6] + L_0[6]
R_1[7] + L_0[7]
R_1[8] + L_0[8]
R_1[9] + L_0[9]
R_1[10] + L_0[10]
R_1[11] + L_0[11]
R_1[12] + L_0[12]
R_1[13] + L_0[13]
R_1[14] + L_0[14]
R_1[15] + L_0[15]
L_1[0] + R_0[0] + K_0[0] + L_0[2] + AND(L_0[8],L_0[1])
L_1[1] + R_0[1] + K_0[1] + L_0[3] + AND(L_0[9],L_0[2])
L_1[2] + R_0[2] + K_0[2] + L_0[4] + AND(L_0[10],L_0[3])
L_1[3] + R_0[3] + K_0[3] + L_0[5] + AND(L_0[11],L_0[4])
L_1[4] + R_0[4] + K_0[4] + L_0[6] + AND(L_0[12],L_0[5])
L_1[5] + R_0[5] + K_0[5] + L_0[7] + AND(L_0[13],L_0[6])
L_1[6] + R_0[6] + K_0[6] + L_0[8] + AND(L_0[14],L_0[7])
L_1[7] + R_0[7] + K_0[7] + L_0[9] + AND(L_0[15],L_0[8])
L_1[8] + R_0[8] + K_0[8] + L_0[10] + AND(L_0[0],L_0[9])
L_1[9] + R_0[9] + K_0[9] + L_0[11] + AND(L_0[1],L_0[10])
L_1[10] + R_0[10] + K_0[10] + L_0[12] + AND(L_0[2],L_0[11])
L_1[11] + R_0[11] + K_0[11] + L_0[13] + AND(L_0[3],L_0[12])
L_1[12] + R_0[12] + K_0[12] + L_0[14] + AND(L_0[4],L_0[13])
L_1[13] + R_0[13] + K_0[13] + L_0[15] + AND(L_0[5],L_0[14])
L_1[14] + R_0[14] + K_0[14] + L_0[0] + AND(L_0[6],L_0[15])
L_1[15] + R_0[15] + K_0[15] + L_0[1] + AND(L_0[7],L_0[0])
R_2[0] + L_1[0]
R_2[1] + L_1[1]
R_2[2] + L_1[2]
R_2[3] + L_1[3]
R_2[4] + L_1[4]
R_2[5] + L_1[5]
R_2[6] + L_1[6]
R_2[7] + L_1[7]
R_2[8] + L_1[8]
R_2[9] + L_1[9]
R_2[10] + L_1[10]
R_2[11] + L_1[11]
R_2[12] + L_1[12]
R_2[13] + L_1[13]
R_2[14] + L_1[14]
R_2[15] + L_1[15]
L_2[0] + R_1[0] + K_1[0] + L_1[2] + AND(L_1[8],L_1[1])
L_2[1] + R_1[1] + K_1[1] + L_1[3] + AND(L_1[9],L_1[2])
L_2[2] + R_1[2] + K_1[2] + L_1[4] + AND(L_1[10],L_1[3])
L_2[3] + R_1[3] + K_1[3] + L_1[5] + AND(L_1[11],L_1[4])
L_2[4] + R_1[4] + K_1[4] + L_1[6] + AND(L_1[12],L_1[5])
L_2[5] + R_1[5] + K_1[5] + L_1[7] + AND(L_1[13],L_1[6])
L_2[6] + R_1[6] + K_1[6] + L_1[8] + AND(L_1[14],L_1[7])
L_2[7] + R_1[7] + K_1[7] + L_1[9] + AND(L_1[15],L_1[8])
L_2[8] + R_1[8] + K_1[8] + L_1[10] + AND(L_1[0],L_1[9])
L_2[9] + R_1[9] + K_1[9] + L_1[11] + AND(L_1[1],L_1[10])
L_2[10] + R_1[10] + K_1[10] + L_1[12] + AND(L_1[2],L_1[11])
L_2[11] + R_1[11] + K_1[11] + L_1[13] + AND(L_1[3],L_1[12])
L_2[12] + R_1[12] + K_1[12] + L_1[14] + AND(L_1[4],L_1[13])
L_2[13] + R_1[13] + K_1[13] + L_1[15] + AND(L_1[5],L_1[14])
L_2[14] + R_1[14] + K_1[14] + L_1[0] + AND(L_1[6],L_1[15])
L_2[15] + R_1[15] + K_1[15] + L_1[1] + AND(L_1[7],L_1[0])
R_3[0] + L_2[0]
R_3[1] + L_2[1]
R_3[2] + L_2[2]
R_3[3] + L_2[3]
R_3[4] + L_2[4]
R_3[5] + L_2[5]
R_3[6] + L_2[6]
R_3[7] + L_2[7]
R_3[8] + L_2[8]
R_3[9] + L_2[9]
R_3[10] + L_2[10]
R_3[11] + L_2[11]
R_3[12] + L_2[12]
R_3[13] + L_2[13]
R_3[14] + L_2[14]
R_3[15] + L_2[15]
L_3[0] + R_2[0] + K_2[0] + L_2[2] + AND(L_2[8],L_2[1])
L_3[1] + R_2[1] + K_2[1] + L_2[3] + AND(L_2[9],L_2[2])
L_3[2] + R_2[2] + K_2[2] + L_2[4] + AND(L_2[10],L_2[3])
L_3[3] + R_2[3] + K_2[3] + L_2[5] + AND(L_2[11],L_2[4])
L_3[4] + R_2[4] + K_2[4] + L_2[6] + AND(L_2[12],L_2[5])
L_3[5] + R_2[5] + K_2[5] + L_2[7] + AND(L_2[13],L_2[6])
L_3[6] + R_2[6] + K_2[6] + L_2[8] + AND(L_2[14],L_2[7])
L_3[7] + R_2[7] + K_2[7] + L_2[9] + AND(L_2[15],L_2[8])
L_3[8] + R_2[8] + K_2[8] + L_2[10] + AND(L_2[0],L_2[9])
L_3[9] + R_2[9] + K_2[9] + L_2[11] + AND(L_2[1],L_2[10])
L_3[10] + R_2[10] + K_2[10] + L_2[12] + AND(L_2[2],L_2[11])
L_3[11] + R_2[11] + K_2[11] + L_2[13] + AND(L_2[3],L_2[12])
L_3[12] + R_2[12] + K_2[12] + L_2[14] + AND(L_2[4],L_2[13])
L_3[13] + R_2[13] + K_2[13] + L_2[15] + AND(L_2[5],L_2[14])
L_3[14] + R_2[14] + K_2[14] + L_2[0] + AND(L_2[6],L_2[15])
L_3[15] + R_2[15] + K_2[15] + L_2[1] + AND(L_2[7],L_2[0])
R_4[0] + L_3[0]
R_4[1] + L_3[1]
R_4[2] + L_3[2]
R_4[3] + L_3[3]
R_4[4] + L_3[4]
R_4[5] + L_3[5]
R_4[6] + L_3[6]
R_4[7] + L_3[7]
R_4[8] + L_3[8]
R_4[9] + L_3[9]
R_4[10] + L_3[10]
R_4[11] + L_3[11]
R_4[12] + L_3[12]
R_4[13] + L_3[13]
R_4[14] + L_3[14]
R_4[15] + L_3[15]
L_4[0] + R_3[0] + K_3[0] + L_3[2] + AND(L_3[8],L_3[1])
L_4[1] + R_3[1] + K_3[1] + L_3[3] + AND(L_3[9],L_3[2])
L_4[2] + R_3[2] + K_3[2] + L_3[4] + AND(L_3[10],L_3[3])
L_4[3] + R_3[3] + K_3[3] + L_3[5] + AND(L_3[11],L_3[4])
L_4[4] + R_3[4] + K_3[4] + L_3[6] + AND(L_3[12],L_3[5])
L_4[5] + R_3[5] + K_3[5] + L_3[7] + AND(L_3[13],L_3[6])
L_4[6] + R_3[6] + K_3[6] + L_3[8] + AND(L_3[14],L_3[7])
L_4[7] + R_3[7] + K_3[7] + L_3[9] + AND(L_3[15],L_3[8])
L_4[8] + R_3[8] + K_3[8] + L_3[10] + AND(L_3[0],L_3[9])
L_4[9] + R_3[9] + K_3[9] + L_3[11] + AND(L_3[1],L_3[10])
L_4[10] + R_3[10] + K_3[10] + L_3[12] + AND(L_3[2],L_3[11])
L_4[11] + R_3[11] + K_3[11] + L_3[13] + AND(L_3[3],L_3[12])
L_4[12] + R_3[12] + K_3[12] + L_3[14] + AND(L_3[4],L_3[13])
L_4[13] + R_3[13] + K_3[13] + L_3[15] + AND(L_3[5],L_3[14])
L_4[14] + R_3[14] + K_3[14] + L_3[0] + AND(L_3[6],L_3[15])
L_4[15] + R_3[15] + K_3[15] + L_3[1] + AND(L_3[7],L_3[0])
R_5[0] + L_4[0]
R_5[1] + L_4[1]
R_5[2] + L_4[2]
R_5[3] + L_4[3]
R_5[4] + L_4[4]
R_5[5] + L_4[5]
R_5[6] + L_4[6]
R_5[7] + L_4[7]
R_5[8] + L_4[8]
R_5[9] + L_4[9]
R_5[10] + L_4[10]
R_5[11] + L_4[11]
R_5[12] + L_4[12]
R_5[13] + L_4[13]
R_5[14] + L_4[14]
R_5[15] + L_4[15]
L_5[0] + R_4[0] + K_4[0] + L_4[2] + AND(L_4[8],L_4[1])
L_5[1] + R_4[1] + K_4[1] + L_4[3] + AND(L_4[9],L_4[2])
L_5[2] + R_4[2] + K_4[2] + L_4[4] + AND(L_4[10],L_4[3])
L_5[3] + R_4[3] + K_4[3] + L_4[5] + AND(L_4[11],L_4[4])
L_5[4] + R_4[4] + K_4[4] + L_4[6] + AND(L_4[12],L_4[5])
L_5[5] + R_4[5] + K_4[5] + L_4[7] + AND(L_4[13],L_4[6])
L_5[6] + R_4[6] + K_4[6] + L_4[8] + AND(L_4[14],L_4[7])
L_5[7] + R_4[7] + K_4[7] + L_4[9] + AND(L_4[15],L_4[8])
L_5[8] + R_4[8] + K_4[8] + L_4[10] + AND(L_4[0],L_4[9])
L_5[9] + R_4[9] + K_4[9] + L_4[11] + AND(L_4[1],L_4[10])
L_5[10] + R_4[10] + K_4[10] + L_4[12] + AND(L_4[2],L_4[11])
L_5[11] + R_4[11] + K_4[11] + L_4[13] + AND(L_4[3],L_4[12])
L_5[12] + R_4[12] + K_4[12] + L_4[14] + AND(L_4[4],L_4[13])
L_5[13] + R_4[13] + K_4[13] + L_4[15] + AND(L_4[5],L_4[14])
L_5[14] + R_4[14] + K_4[14] + L_4[0] + AND(L_4[6],L_4[15])
L_5[15] + R_4[15] + K_4[15] + L_4[1] + AND(L_4[7],L_4[0])
R_6[0] + L_5[0]
R_6[1] + L_5[1]
R_6[2] + L_5[2]
R_6[3] + L_5[3]
R_6[4] + L_5[4]
R_6[5] + L_5[5]
R_6[6] + L_5[6]
R_6[7] + L_5[7]
R_6[8] + L_5[8]
R_6[9] + L_5[9]
R_6[10] + L_5[10]
R_6[11] + L_5[11]
R_6[12] + L_5[12]
R_6[13] + L_5[13]
R_6[14] + L_5[14]
R_6[15] + L_5[15]
L_6[0] + R_5[0] + K_5[0] + L_5[2] + AND(L_5[8],L_5[1])
L_6[1] + R_5[1] + K_5[1] + L_5[3] + AND(L_5[9],L_5[2])
L_6[2] + R_5[2] + K_5[2] + L_5[4] + AND(L_5[10],L_5[3])
L_6[3] + R_5[3] + K_5[3] + L_5[5] + AND(L_5[11],L_5[4])
L_6[4] + R_5[4] + K_5[4] + L_5[6] + AND(L_5[12],L_5[5])
L_6[5] + R_5[5] + K_5[5] + L_5[7] + AND(L_5[13],L_5[6])
L_6[6] + R_5[6] + K_5[6] + L_5[8] + AND(L_5[14],L_5[7])
L_6[7] + R_5[7] + K_5[7] + L_5[9] + AND(L_5[15],L_5[8])
L_6[8] + R_5[8] + K_5[8] + L_5[10] + AND(L_5[0],L_5[9])
L_6[9] + R_5[9] + K_5[9] + L_5[11] + AND(L_5[1],L_5[10])
L_6[10] + R_5[10] + K_5[10] + L_5[12] + AND(L_5[2],L_5[11])
L_6[11] + R_5[11] + K_5[11] + L_5[13] + AND(L_5[3],L_5[12])
L_6[12] + R_5[12] + K_5[12] + L_5[14] + AND(L_5[4],L_5[13])
L_6[13] + R_5[13] + K_5[13] + L_5[15] + AND(L_5[5],L_5[14])
L_6[14] + R_5[14] + K_5[14] + L_5[0] + AND(L_5[6],L_5[15])
L_6[15] + R_5[15] + K_5[15] + L_5[1] + AND(L_5[7],L_5[0])
R_7[0] + L_6[0]
R_7[1] + L_6[1]
R_7[2] + L_6[2]
R_7[3] + L_6[3]
R_7[4] + L_6[4]
R_7[5] + L_6[5]
R_7[6] + L_6[6]
R_7[7] + L_6[7]
R_7[8] + L_6[8]
R_7[9] + L_6[9]
R_7[10] + L_6[10]
R_7[11] + L_6[11]
R_7[12] + L_6[12]
R_7[13] + L_6[13]
R_7[14] + L_6[14]
R_7[15] + L_6[15]
L_7[0] + R_6[0] + K_6[0] + L_6[2] + AND(L_6[8],L_6[1])
L_7[1] + R_6[1] + K_6[1] + L_6[3] + AND(L_6[9],L_6[2])
L_7[2] + R_6[2] + K_6[2] + L_6[4] + AND(L_6[10],L_6[3])
L_7[3] + R_6[3] + K_6[3] + L_6[5] + AND(L_6[11],L_6[4])
L_7[4] + R_6[4] + K_6[4] + L_6[6] + AND(L_6[12],L_6[5])
L_7[5] + R_6[5] + K_6[5] + L_6[7] + AND(L_6[13],L_6[6])
L_7[6] + R_6[6] + K_6[6] + L_6[8] + AND(L_6[14],L_6[7])
L_7[7] + R_6[7] + K_6[7] + L_6[9] + AND(L_6[15],L_6[8])
L_7[8] + R_6[8] + K_6[8] + L_6[10] + AND(L_6[0],L_6[9])
L_7[9] + R_6[9] + K_6[9] + L_6[11] + AND(L_6[1],L_6[10])
L_7[10] + R_6[10] + K_6[10] + L_6[12] + AND(L_6[2],L_6[11])
L_7[11] + R_6[11] + K_6[11] + L_6[13] + AND(L_6[3],L_6[12])
L_7[12] + R_6[12] + K_6[12] + L_6[14] + AND(L_6[4],L_6[13])
L_7[13] + R_6[13] + K_6[13] + L_6[15] + AND(L_6[5],L_6[14])
L_7[14] + R_6[14] + K_6[14] + L_6[0] + AND(L_6[6],L_6[15])
L_7[15] + R_6[15] + K_6[15] + L_6[1] + AND(L_6[7],L_6[0])
R_8[0] + L_7[0]
R_8[1] + L_7[1]
R_8[2] + L_7[2]
R_8[3] + L_7[3]
R_8[4] + L_7[4]
R_8[5] + L_7[5]
R_8[6] + L_7[6]
R_8[7] + L_7[7]
R_8[8] + L_7[8]
R_8[9] + L_7[9]
R_8[10] + L_7[10]
R_8[11] + L_7[11]
R_8[12] + L_7[12]
R_8[13] + L_7[13]
R_8[14] + L_7[14]
R_8[15] + L_7[15]
L_8[0] + R_7[0] + K_7[0] + L_7[2] + AND(L_7[8],L_7[1])
L_8[1] + R_7[1] + K_7[1] + L_7[3] + AND(L_7[9],L_7[2])
L_8[2] + R_7[2] + K_7[2] + L_7[4] + AND(L_7[10],L_7[3])
L_8[3] + R_7[3] + K_7[3] + L_7[5] + AND(L_7[11],L_7[4])
L_8[4] + R_7[4] + K_7[4] + L_7[6] + AND(L_7[12],L_7[5])
L_8[5] + R_7[5] + K_7[5] + L_7[7] + AND(L_7[13],L_7[6])
L_8[6] + R_7[6] + K_7[6] + L_7[8] + AND(L_7[14],L_7[7])
L_8[7] + R_7[7] + K_7[7] + L_7[9] + AND(L_7[15],L_7[8])
L_8[8] + R_7[8] + K_7[8] + L_7[10] + AND(L_7[0],L_7[9])
L_8[9] + R_7[9] + K_7[9] + L_7[11] + AND(L_7[1],L_7[10])
L_8[10] + R_7[10] + K_7[10] + L_7[12] + AND(L_7[2],L_7[11])
L_8[11] + R_7[11] + K_7[11] + L_7[13] + AND(L_7[3],L_7[12])
L_8[12] + R_7[12] + K_7[12] + L_7[14] + AND(L_7[4],L_7[13])
L_8[13] + R_7[13] + K_7[13] + L_7[15] + AND(L_7[5],L_7[14])
L_8[14] + R_7[14] + K_7[14] + L_7[0] + AND(L_7[6],L_7[15])
L_8[15] + R_7[15] + K_7[15] + L_7[1] + AND(L_7[7],L_7[0])
R_9[0] + L_8[0]
R_9[1] + L_8[1]
R_9[2] + L_8[2]
R_9[3] + L_8[3]
R_9[4] + L_8[4]
R_9[5] + L_8[5]
R_9[6] + L_8[6]
R_9[7] + L_8[7]
R_9[8] + L_8[8]
R_9[9] + L_8[9]
R_9[10] + L_8[10]
R_9[11] + L_8[11]
R_9[12] + L_8[12]
R_9[13] + L_8[13]
R_9[14] + L_8[14]
R_9[15] + L_8[15]
L_9[0] + R_8[0] + K_8[0] + L_8[2] + AND(L_8[8],L_8[1])
L_9[1] + R_8[1] + K_8[1] + L_8[3] + AND(L_8[9],L_8[2])
L_9[2] + R_8[2] + K_8[2] + L_8[4] + AND(L_8[10],L_8[3])
L_9[3] + R_8[3] + K_8[3] + L_8[5] + AND(L_8[11],L_8[4])
L_9[4] + R_8[4] + K_8[4] + L_8[6] + AND(L_8[12],L_8[5])
L_9[5] + R_8[5] + K_8[5] + L_8[7] + AND(L_8[13],L_8[6])
L_9[6] + R_8[6] + K_8[6] + L_8[8] + AND(L_8[14],L_8[7])
L_9[7] + R_8[7] + K_8[7] + L_8[9] + AND(L_8[15],L_8[8])
L_9[8] + R_8[8] + K_8[8] + L_8[10] + AND(L_8[0],L_8[9])
L_9[9] + R_8[9] + K_8[9] + L_8[11] + AND(L_8[1],L_8[10])
L_9[10] + R_8[10] + K_8[10] + L_8[12] + AND(L_8[2],L_8[11])
L_9[11] + R_8[11] + K_8[11] + L_8[13] + AND(L_8[3],L_8[12])
L_9[12] + R_8[12] + K_8[12] + L_8[14] + AND(L_8[4],L_8[13])
L_9[13] + R_8[13] + K_8[13] + L_8[15] + AND(L_8[5],L_8[14])
L_9[14] + R_8[14] + K_8[14] + L_8[0] + AND(L_8[6],L_8[15])
L_9[15] + R_8[15] + K_8[15] + L_8[1] + AND(L_8[7],L_8[0])
R_10[0] + L_9[0]
R_10[1] + L_9[1]
R_10[2] + L_9[2]
R_10[3] + L_9[3]
R_10[4] + L_9[4]
R_10[5] + L_9[5]
R_10[6] + L_9[6]
R_10[7] + L_9[7]
R_10[8] + L_9[8]
R_10[9] + L_9[9]
R_10[10] + L_9[10]
R_10[11] + L_9[11]
R_10[12] + L_9[12]
R_10[13] + L_9[13]
R_10[14] + L_9[14]
R_10[15] + L_9[15]
L_10[0] + R_9[0] + K_9[0] + L_9[2] + AND(L_9[8],L_9[1])
L_10[1] + R_9[1] + K_9[1] + L_9[3] + AND(L_9[9],L_9[2])
L_10[2] + R_9[2] + K_9[2] + L_9[4] + AND(L_9[10],L_9[3])
L_10[3] + R_9[3] + K_9[3] + L_9[5] + AND(L_9[11],L_9[4])
L_10[4] + R_9[4] + K_9[4] + L_9[6] + AND(L_9[12],L_9[5])
L_10[5] + R_9[5] + K_9[5] + L_9[7] + AND(L_9[13],L_9[6])
L_10[6] + R_9[6] + K_9[6] + L_9[8] + AND(L_9[14],L_9[7])
L_10[7] + R_9[7] + K_9[7] + L_9[9] + AND(L_9[15],L_9[8])
L_10[8] + R_9[8] + K_9[8] + L_9[10] + AND(L_9[0],L_9[9])
L_10[9] + R_9[9] + K_9[9] + L_9[11] + AND(L_9[1],L_9[10])
L_10[10] + R_9[10] + K_9[10] + L_9[12] + AND(L_9[2],L_9[11])
L_10[11] + R_9[11] + K_9[11] + L_9[13] + AND(L_9[3],L_9[12])
L_10[12] + R_9[12] + K_9[12] + L_9[14] + AND(L_9[4],L_9[13])
L_10[13] + R_9[13] + K_9[13] + L_9[15] + AND(L_9[5],L_9[14])
L_10[14] + R_9[14] + K_9[14] + L_9[0] + AND(L_9[6],L_9[15])
L_10[15] + R_9[15] + K_9[15] + L_9[1] + AND(L_9[7],L_9[0])
R_11[0] + L_10[0]
R_11[1] + L_10[1]
R_11[2] + L_10[2]
R_11[3] + L_10[3]
R_11[4] + L_10[4]
R_11[5] + L_10[5]
R_11[6] + L_10[6]
R_11[7] + L_10[7]
R_11[8] + L_10[8]
R_11[9] + L_10[9]
R_11[10] + L_10[10]
R_11[11] + L_10[11]
R_11[12] + L_10[12]
R_11[13] + L_10[13]
R_11[14] + L_10[14]
R_11[15] + L_10[15]
L_11[0] + R_10[0] + K_10[0] + L_10[2] + AND(L_10[8],L_10[1])
L_11[1] + R_10[1] + K_10[1] + L_10[3] + AND(L_10[9],L_10[2])
L_11[2] + R_10[2] + K_10[2] + L_10[4] + AND(L_10[10],L_10[3])
L_11[3] + R_10[3] + K_10[3] + L_10[5] + AND(L_10[11],L_10[4])
L_11[4] + R_10[4] + K_10[4] + L_10[6] + AND(L_10[12],L_10[5])
L_11[5] + R_10[5] + K_10[5] + L_10[7] + AND(L_10[13],L_10[6])
L_11[6] + R_10[6] + K_10[6] + L_10[8] + AND(L_10[14],L_10[7])
L_11[7] + R_10[7] + K_10[7] + L_10[9] + AND(L_10[15],L_10[8])
L_11[8] + R_10[8] + K_10[8] + L_10[10] + AND(L_10[0],L_10[9])
L_11[9] + R_10[9] + K_10[9] + L_10[11] + AND(L_10[1],L_10[10])
L_11[10] + R_10[10] + K_10[10] + L_10[12] + AND(L_10[2],L_10[11])
L_11[11] + R_10[11] + K_10[11] + L_10[13] + AND(L_10[3],L_10[12])
L_11[12] + R_10[12] + K_10[12] + L_10[14] + AND(L_10[4],L_10[13])
L_11[13] + R_10[13] + K_10[13] + L_10[15] + AND(L_10[5],L_10[14])
L_11[14] + R_10[14] + K_10[14] + L_10[0] + AND(L_10[6],L_10[15])
L_11[15] + R_10[15] + K_10[15] + L_10[1] + AND(L_10[7],L_10[0])
R_12[0] + L_11[0]
R_12[1] + L_11[1]
R_12[2] + L_11[2]
R_12[3] + L_11[3]
R_12[4] + L_11[4]
R_12[5] + L_11[5]
R_12[6] + L_11[6]
R_12[7] + L_11[7]
R_12[8] + L_11[8]
R_12[9] + L_11[9]
R_12[10] + L_11[10]
R_12[11] + L_11[11]
R_12[12] + L_11[12]
R_12[13] + L_11[13]
R_12[14] + L_11[14]
R_12[15] + L_11[15]
L_12[0] + R_11[0] + K_11[0] + L_11[2] + AND(L_11[8],L_11[1])
L_12[1] + R_11[1] + K_11[1] + L_11[3] + AND(L_11[9],L_11[2])
L_12[2] + R_11[2] + K_11[2] + L_11[4] + AND(L_11[10],L_11[3])
L_12[3] + R_11[3] + K_11[3] + L_11[5] + AND(L_11[11],L_11[4])
L_12[4] + R_11[4] + K_11[4] + L_11[6] + AND(L_11[12],L_11[5])
L_12[5] + R_11[5] + K_11[5] + L_11[7] + AND(L_11[13],L_11[6])
L_12[6] + R_11[6] + K_11[6] + L_11[8] + AND(L_11[14],L_11[7])
L_12[7] + R_11[7] + K_11[7] + L_11[9] + AND(L_11[15],L_11[8])
L_12[8] + R_11[8] + K_11[8] + L_11[10] + AND(L_11[0],L_11[9])
L_12[9] + R_11[9] + K_11[9] + L_11[11] + AND(L_11[1],L_11[10])
L_12[10] + R_11[10] + K_11[10] + L_11[12] + AND(L_11[2],L_11[11])
L_12[11] + R_11[11] + K_11[11] + L_11[13] + AND(L_11[3],L_11[12])
L_12[12] + R_11[12] + K_11[12] + L_11[14] + AND(L_11[4],L_11[13])
L_12[13] + R_11[13] + K_11[13] + L_11[15] + AND(L_11[5],L_11[14])
L_12[14] + R_11[14] + K_11[14] + L_11[0] + AND(L_11[6],L_11[15])
L_12[15] + R_11[15] + K_11[15] + L_11[1] + AND(L_11[7],L_11[0])
P[0] + L_0[0]
P[16] + R_0[0]
C[0] + L_12[0]
C[16] + R_12[0]
P[1] + L_0[1]
P[17] + R_0[1]
C[1] + L_12[1]
C[17] + R_12[1]
P[2] + L_0[2]
P[18] + R_0[2]
C[2] + L_12[2]
C[18] + R_12[2]
P[3] + L_0[3]
P[19] + R_0[3]
C[3] + L_12[3]
C[19] + R_12[3]
P[4] + L_0[4]
P[20] + R_0[4]
C[4] + L_12[4]
C[20] + R_12[4]
P[5] + L_0[5]
P[21] + R_0[5]
C[5] + L_12[5]
C[21] + R_12[5]
P[6] + L_0[6]
P[22] + R_0[6]
C[6] + L_12[6]
C[22] + R_12[6]
P[7] + L_0[7]
P[23] + R_0[7]
C[7] + L_12[7]
C[23] + R_12[7]
P[8] + L_0[8]
P[24] + R_0[8]
C[8] + L_12[8]
C[24] + R_12[8]
P[9] + L_0[9]
P[25] + R_0[9]
C[9] + L_12[9]
C[25] + R_12[9]
P[10] + L_0[10]
P[26] + R_0[10]
C[10] + L_12[10]
C[26] + R_12[10]
P[11] + L_0[11]
P[27] + R_0[11]
C[11] + L_12[11]
C[27] + R_12[11]
P[12] + L_0[12]
P[28] + R_0[12]
C[12] + L_12[12]
C[28] + R_12[12]
P[13] + L_0[13]
P[29] + R_0[13]
C[13] + L_12[13]
C[29] + R_12[13]
P[14] + L_0[14]
P[30] + R_0[14]
C[14] + L_12[14]
C[30] + R_12[14]
P[15] + L_0[15]
P[31] + R_0[15]
C[15] + L_12[15]
C[31] + R_12[15]
K_4[0] + K_0[0] + K_3[13] + K_3[12] + K_1[0] + K_1[15]
K_4[1] + K_0[1] + K_3[14] + K_3[13] + K_1[1] + K_1[0]
K_4[2] + K_0[2] + K_3[15] + K_3[14] + K_1[2] + K_1[1]
K_4[3] + K_0[3] + K_3[0] + K_3[15] + K_1[3] + K_1[2]
K_4[4] + K_0[4] + K_3[1] + K_3[0] + K_1[4] + K_1[3]
K_4[5] + K_0[5] + K_3[2] + K_3[1] + K_1[5] + K_1[4]
K_4[6] + K_0[6] + K_3[3] + K_3[2] + K_1[6] + K_1[5]
K_4[7] + K_0[7] + K_3[4] + K_3[3] + K_1[7] + K_1[6]
K_4[8] + K_0[8] + K_3[5] + K_3[4] + K_1[8] + K_1[7]
K_4[9] + K_0[9] + K_3[6] + K_3[5] + K_1[9] + K_1[8]
K_4[10] + K_0[10] + K_3[7] + K_3[6] + K_1[10] + K_1[9]
K_4[11] + K_0[11] + K_3[8] + K_3[7] + K_1[11] + K_1[10]
K_4[12] + K_0[12] + K_3[9] + K_3[8] + K_1[12] + K_1[11]
K_4[13] + K_0[13] + K_3[10] + K_3[9] + K_1[13] + K_1[12]
K_4[14] + K_0[14] + K_3[11] + K_3[10] + K_1[14] + K_1[13]
K_4[15] + K_0[15] + K_3[12] + K_3[11] + K_1[15] + K_1[14]
K_5[0] + K_1[0] + K_4[13] + K_4[12] + K_2[0] + K_2[15]
K_5[1] + K_1[1] + K_4[14] + K_4[13] + K_2[1] + K_2[0]
K_5[2] + K_1[2] + K_4[15] + K_4[14] + K_2[2] + K_2[1]
K_5[3] + K_1[3] + K_4[0] + K_4[15] + K_2[3] + K_2[2]
K_5[4] + K_1[4] + K_4[1] + K_4[0] + K_2[4] + K_2[3]
K_5[5] + K_1[5] + K_4[2] + K_4[1] + K_2[5] + K_2[4]
K_5[6] + K_1[6] + K_4[3] + K_4[2] + K_2[6] + K_2[5]
K_5[7] + K_1[7] + K_4[4] + K_4[3] + K_2[7] + K_2[6]
K_5[8] + K_1[8] + K_4[5] + K_4[4] + K_2[8] + K_2[7]
K_5[9] + K_1[9] + K_4[6] + K_4[5] + K_2[9] + K_2[8]
K_5[10] + K_1[10] + K_4[7] + K_4[6] + K_2[10] + K_2[9]
K_5[11] + K_1[11] + K_4[8] + K_4[7] + K_2[11] + K_2[10]
K_5[12] + K_1[12] + K_4[9] + K_4[8] + K_2[12] + K_2[11]
K_5[13] + K_1[13] + K_4[10] + K_4[9] + K_2[13] + K_2[12]
K_5[14] + K_1[14] + K_4[11] + K_4[10] + K_2[14] + K_2[13]
K_5[15] + K_1[15] + K_4[12] + K_4[11] + K_2[15] + K_2[14]
K_6[0] + K_2[0] + K_5[13] + K_5[12] + K_3[0] + K_3[15]
K_6[1] + K_2[1] + K_5[14] + K_5[13] + K_3[1] + K_3[0]
K_6[2] + K_2[2] + K_5[15] + K_5[14] + K_3[2] + K_3[1]
K_6[3] + K_2[3] + K_5[0] + K_5[15] + K_3[3] + K_3[2]
K_6[4] + K_2[4] + K_5[1] + K_5[0] + K_3[4] + K_3[3]
K_6[5] + K_2[5] + K_5[2] + K_5[1] + K_3[5] + K_3[4]
K_6[6] + K_2[6] + K_5[3] + K_5[2] + K_3[6] + K_3[5]
K_6[7] + K_2[7] + K_5[4] + K_5[3] + K_3[7] + K_3[6]
K_6[8] + K_2[8] + K_5[5] + K_5[4] + K_3[8] + K_3[7]
K_6[9] + K_2[9] + K_5[6] + K_5[5] + K_3[9] + K_3[8]
K_6[10] + K_2[10] + K_5[7] + K_5[6] + K_3[10] + K_3[9]
K_6[11] + K_2[11] + K_5[8] + K_5[7] + K_3[11] + K_3[10]
K_6[12] + K_2[12] + K_5[9] + K_5[8] + K_3[12] + K_3[11]
K_6[13] + K_2[13] + K_5[10] + K_5[9] + K_3[13] + K_3[12]
K_6[14] + K_2[14] + K_5[11] + K_5[10] + K_3[14] + K_3[13]
K_6[15] + K_2[15] + K_5[12] + K_5[11] + K_3[15] + K_3[14]
K_7[0] + K_3[0] + K_6[13] + K_6[12] + K_4[0] + K_4[15]
K_7[1] + K_3[1] + K_6[14] + K_6[13] + K_4[1] + K_4[0]
K_7[2] + K_3[2] + K_6[15] + K_6[14] + K_4[2] + K_4[1]
K_7[3] + K_3[3] + K_6[0] + K_6[15] + K_4[3] + K_4[2]
K_7[4] + K_3[4] + K_6[1] + K_6[0] + K_4[4] + K_4[3]
K_7[5] + K_3[5] + K_6[2] + K_6[1] + K_4[5] + K_4[4]
K_7[6] + K_3[6] + K_6[3] + K_6[2] + K_4[6] + K_4[5]
K_7[7] + K_3[7] + K_6[4] + K_6[3] + K_4[7] + K_4[6]
K_7[8] + K_3[8] + K_6[5] + K_6[4] + K_4[8] + K_4[7]
K_7[9] + K_3[9] + K_6[6] + K_6[5] + K_4[9] + K_4[8]
K_7[10] + K_3[10] + K_6[7] + K_6[6] + K_4[10] + K_4[9]
K_7[11] + K_3[11] + K_6[8] + K_6[7] + K_4[11] + K_4[10]
K_7[12] + K_3[12] + K_6[9] + K_6[8] + K_4[12] + K_4[11]
K_7[13] + K_3[13] + K_6[10] + K_6[9] + K_4[13] + K_4[12]
K_7[14] + K_3[14] + K_6[11] + K_6[10] + K_4[14] + K_4[13]
K_7[15] + K_3[15] + K_6[12] + K_6[11] + K_4[15] + K_4[14]
K_8[0] + K_4[0] + K_7[13] + K_7[12] + K_5[0] + K_5[15]
K_8[1] + K_4[1] + K_7[14] + K_7[13] + K_5[1] + K_5[0]
K_8[2] + K_4[2] + K_7[15] + K_7[14] + K_5[2] + K_5[1]
K_8[3] + K_4[3] + K_7[0] + K_7[15] + K_5[3] + K_5[2]
K_8[4] + K_4[4] + K_7[1] + K_7[0] + K_5[4] + K_5[3]
K_8[5] + K_4[5] + K_7[2] + K_7[1] + K_5[5] + K_5[4]
K_8[6] + K_4[6] + K_7[3] + K_7[2] + K_5[6] + K_5[5]
K_8[7] + K_4[7] + K_7[4] + K_7[3] + K_5[7] + K_5[6]
K_8[8] + K_4[8] + K_7[5] + K_7[4] + K_5[8] + K_5[7]
K_8[9] + K_4[9] + K_7[6] + K_7[5] + K_5[9] + K_5[8]
K_8[10] + K_4[10] + K_7[7] + K_7[6] + K_5[10] + K_5[9]
K_8[11] + K_4[11] + K_7[8] + K_7[7] + K_5[11] + K_5[10]
K_8[12] + K_4[12] + K_7[9] + K_7[8] + K_5[12] + K_5[11]
K_8[13] + K_4[13] + K_7[10] + K_7[9] + K_5[13] + K_5[12]
K_8[14] + K_4[14] + K_7[11] + K_7[10] + K_5[14] + K_5[13]
K_8[15] + K_4[15] + K_7[12] + K_7[11] + K_5[15] + K_5[14]
K_9[0] + K_5[0] + K_8[13] + K_8[12] + K_6[0] + K_6[15]
K_9[1] + K_5[1] + K_8[14] + K_8[13] + K_6[1] + K_6[0]
K_9[2] + K_5[2] + K_8[15] + K_8[14] + K_6[2] + K_6[1]
K_9[3] + K_5[3] + K_8[0] + K_8[15] + K_6[3] + K_6[2]
K_9[4] + K_5[4] + K_8[1] + K_8[0] + K_6[4] + K_6[3]
K_9[5] + K_5[5] + K_8[2] + K_8[1] + K_6[5] + K_6[4]
K_9[6] + K_5[6] + K_8[3] + K_8[2] + K_6[6] + K_6[5]
K_9[7] + K_5[7] + K_8[4] + K_8[3] + K_6[7] + K_6[6]
K_9[8] + K_5[8] + K_8[5] + K_8[4] + K_6[8] + K_6[7]
K_9[9] + K_5[9] + K_8[6] + K_8[5] + K_6[9] + K_6[8]
K_9[10] + K_5[10] + K_8[7] + K_8[6] + K_6[10] + K_6[9]
K_9[11] + K_5[11] + K_8[8] + K_8[7] + K_6[11] + K_6[10]
K_9[12] + K_5[12] + K_8[9] + K_8[8] + K_6[12] + K_6[11]
K_9[13] + K_5[13] + K_8[10] + K_8[9] + K_6[13] + K_6[12]
K_9[14] + K_5[14] + K_8[11] + K_8[10] + K_6[14] + K_6[13]
K_9[15] + K_5[15] + K_8[12] + K_8[11] + K_6[15] + K_6[14]
K_10[0] + K_6[0] + K_9[13] + K_9[12] + K_7[0] + K_7[15]
K_10[1] + K_6[1] + K_9[14] + K_9[13] + K_7[1] + K_7[0]
K_10[2] + K_6[2] + K_9[15] + K_9[14] + K_7[2] + K_7[1]
K_10[3] + K_6[3] + K_9[0] + K_9[15] + K_7[3] + K_7[2]
K_10[4] + K_6[4] + K_9[1] + K_9[0] + K_7[4] + K_7[3]
K_10[5] + K_6[5] + K_9[2] + K_9[1] + K_7[5] + K_7[4]
K_10[6] + K_6[6] + K_9[3] + K_9[2] + K_7[6] + K_7[5]
K_10[7] + K_6[7] + K_9[4] + K_9[3] + K_7[7] + K_7[6]
K_10[8] + K_6[8] + K_9[5] + K_9[4] + K_7[8] + K_7[7]
K_10[9] + K_6[9] + K_9[6] + K_9[5] + K_7[9] + K_7[8]
K_10[10] + K_6[10] + K_9[7] + K_9[6] + K_7[10] + K_7[9]
K_10[11] + K_6[11] + K_9[8] + K_9[7] + K_7[11] + K_7[10]
K_10[12] + K_6[12] + K_9[9] + K_9[8] + K_7[12] + K_7[11]
K_10[13] + K_6[13] + K_9[10] + K_9[9] + K_7[13] + K_7[12]
K_10[14] + K_6[14] + K_9[11] + K_9[10] + K_7[14] + K_7[13]
K_10[15] + K_6[15] + K_9[12] + K_9[11] + K_7[15] + K_7[14]
K_11[0] + K_7[0] + K_10[13] + K_10[12] + K_8[0] + K_8[15]
K_11[1] + K_7[1] + K_10[14] + K_10[13] + K_8[1] + K_8[0]
K_11[2] + K_7[2] + K_10[15] + K_10[14] + K_8[2] + K_8[1]
K_11[3] + K_7[3] + K_10[0] + K_10[15] + K_8[3] + K_8[2]
K_11[4] + K_7[4] + K_10[1] + K_10[0] + K_8[4] + K_8[3]
K_11[5] + K_7[5] + K_10[2] + K_10[1] + K_8[5] + K_8[4]
K_11[6] + K_7[6] + K_10[3] + K_10[2] + K_8[6] + K_8[5]
K_11[7] + K_7[7] + K_10[4] + K_10[3] + K_8[7] + K_8[6]
K_11[8] + K_7[8] + K_10[5] + K_10[4] + K_8[8] + K_8[7]
K_11[9] + K_7[9] + K_10[6] + K_10[5] + K_8[9] + K_8[8]
K_11[10] + K_7[10] + K_10[7] + K_10[6] + K_8[10] + K_8[9]
K_11[11] + K_7[11] + K_10[8] + K_10[7] + K_8[11] + K_8[10]
K_11[12] + K_7[12] + K_10[9] + K_10[8] + K_8[12] + K_8[11]
K_11[13] + K_7[13] + K_10[10] + K_10[9] + K_8[13] + K_8[12]
K_11[14] + K_7[14] + K_10[11] + K_10[10] + K_8[14] + K_8[13]
K_11[15] + K_7[15] + K_10[12] + K_10[11] + K_8[15] + K_8[14]
