--system:
R_1[0] + L_0[0]
R_1[1] + L_0[1]
R_1[2] + L_0[2]
R_1[3] + L_0[3]
R_1[4] + L_0[4]
R_1[5] + L_0[5]
R_1[6] + L_0[6]
R_1[7] + L_0[7]
R_1[8] + L_0[8]
R_1[9] + L_0[9]
R_1[10] + L_0[10]
R_1[11] + L_0[11]
R_1[12] + L_0[12]
R_1[13] + L_0[13]
R_1[14] + L_0[14]
R_1[15] + L_0[15]
R_1[16] + L_0[16]
R_1[17] + L_0[17]
R_1[18] + L_0[18]
R_1[19] + L_0[19]
R_1[20] + L_0[20]
R_1[21] + L_0[21]
R_1[22] + L_0[22]
R_1[23] + L_0[23]
R_1[24] + L_0[24]
R_1[25] + L_0[25]
R_1[26] + L_0[26]
R_1[27] + L_0[27]
R_1[28] + L_0[28]
R_1[29] + L_0[29]
R_1[30] + L_0[30]
R_1[31] + L_0[31]
L_1[0] + R_0[0] + K_0[0] + L_0[2] + AND(L_0[8],L_0[1])
L_1[1] + R_0[1] + K_0[1] + L_0[3] + AND(L_0[9],L_0[2])
L_1[2] + R_0[2] + K_0[2] + L_0[4] + AND(L_0[10],L_0[3])
L_1[3] + R_0[3] + K_0[3] + L_0[5] + AND(L_0[11],L_0[4])
L_1[4] + R_0[4] + K_0[4] + L_0[6] + AND(L_0[12],L_0[5])
L_1[5] + R_0[5] + K_0[5] + L_0[7] + AND(L_0[13],L_0[6])
L_1[6] + R_0[6] + K_0[6] + L_0[8] + AND(L_0[14],L_0[7])
L_1[7] + R_0[7] + K_0[7] + L_0[9] + AND(L_0[15],L_0[8])
L_1[8] + R_0[8] + K_0[8] + L_0[10] + AND(L_0[16],L_0[9])
L_1[9] + R_0[9] + K_0[9] + L_0[11] + AND(L_0[17],L_0[10])
L_1[10] + R_0[10] + K_0[10] + L_0[12] + AND(L_0[18],L_0[11])
L_1[11] + R_0[11] + K_0[11] + L_0[13] + AND(L_0[19],L_0[12])
L_1[12] + R_0[12] + K_0[12] + L_0[14] + AND(L_0[20],L_0[13])
L_1[13] + R_0[13] + K_0[13] + L_0[15] + AND(L_0[21],L_0[14])
L_1[14] + R_0[14] + K_0[14] + L_0[16] + AND(L_0[22],L_0[15])
L_1[15] + R_0[15] + K_0[15] + L_0[17] + AND(L_0[23],L_0[16])
L_1[16] + R_0[16] + K_0[16] + L_0[18] + AND(L_0[24],L_0[17])
L_1[17] + R_0[17] + K_0[17] + L_0[19] + AND(L_0[25],L_0[18])
L_1[18] + R_0[18] + K_0[18] + L_0[20] + AND(L_0[26],L_0[19])
L_1[19] + R_0[19] + K_0[19] + L_0[21] + AND(L_0[27],L_0[20])
L_1[20] + R_0[20] + K_0[20] + L_0[22] + AND(L_0[28],L_0[21])
L_1[21] + R_0[21] + K_0[21] + L_0[23] + AND(L_0[29],L_0[22])
L_1[22] + R_0[22] + K_0[22] + L_0[24] + AND(L_0[30],L_0[23])
L_1[23] + R_0[23] + K_0[23] + L_0[25] + AND(L_0[31],L_0[24])
L_1[24] + R_0[24] + K_0[24] + L_0[26] + AND(L_0[0],L_0[25])
L_1[25] + R_0[25] + K_0[25] + L_0[27] + AND(L_0[1],L_0[26])
L_1[26] + R_0[26] + K_0[26] + L_0[28] + AND(L_0[2],L_0[27])
L_1[27] + R_0[27] + K_0[27] + L_0[29] + AND(L_0[3],L_0[28])
L_1[28] + R_0[28] + K_0[28] + L_0[30] + AND(L_0[4],L_0[29])
L_1[29] + R_0[29] + K_0[29] + L_0[31] + AND(L_0[5],L_0[30])
L_1[30] + R_0[30] + K_0[30] + L_0[0] + AND(L_0[6],L_0[31])
L_1[31] + R_0[31] + K_0[31] + L_0[1] + AND(L_0[7],L_0[0])
R_2[0] + L_1[0]
R_2[1] + L_1[1]
R_2[2] + L_1[2]
R_2[3] + L_1[3]
R_2[4] + L_1[4]
R_2[5] + L_1[5]
R_2[6] + L_1[6]
R_2[7] + L_1[7]
R_2[8] + L_1[8]
R_2[9] + L_1[9]
R_2[10] + L_1[10]
R_2[11] + L_1[11]
R_2[12] + L_1[12]
R_2[13] + L_1[13]
R_2[14] + L_1[14]
R_2[15] + L_1[15]
R_2[16] + L_1[16]
R_2[17] + L_1[17]
R_2[18] + L_1[18]
R_2[19] + L_1[19]
R_2[20] + L_1[20]
R_2[21] + L_1[21]
R_2[22] + L_1[22]
R_2[23] + L_1[23]
R_2[24] + L_1[24]
R_2[25] + L_1[25]
R_2[26] + L_1[26]
R_2[27] + L_1[27]
R_2[28] + L_1[28]
R_2[29] + L_1[29]
R_2[30] + L_1[30]
R_2[31] + L_1[31]
L_2[0] + R_1[0] + K_1[0] + L_1[2] + AND(L_1[8],L_1[1])
L_2[1] + R_1[1] + K_1[1] + L_1[3] + AND(L_1[9],L_1[2])
L_2[2] + R_1[2] + K_1[2] + L_1[4] + AND(L_1[10],L_1[3])
L_2[3] + R_1[3] + K_1[3] + L_1[5] + AND(L_1[11],L_1[4])
L_2[4] + R_1[4] + K_1[4] + L_1[6] + AND(L_1[12],L_1[5])
L_2[5] + R_1[5] + K_1[5] + L_1[7] + AND(L_1[13],L_1[6])
L_2[6] + R_1[6] + K_1[6] + L_1[8] + AND(L_1[14],L_1[7])
L_2[7] + R_1[7] + K_1[7] + L_1[9] + AND(L_1[15],L_1[8])
L_2[8] + R_1[8] + K_1[8] + L_1[10] + AND(L_1[16],L_1[9])
L_2[9] + R_1[9] + K_1[9] + L_1[11] + AND(L_1[17],L_1[10])
L_2[10] + R_1[10] + K_1[10] + L_1[12] + AND(L_1[18],L_1[11])
L_2[11] + R_1[11] + K_1[11] + L_1[13] + AND(L_1[19],L_1[12])
L_2[12] + R_1[12] + K_1[12] + L_1[14] + AND(L_1[20],L_1[13])
L_2[13] + R_1[13] + K_1[13] + L_1[15] + AND(L_1[21],L_1[14])
L_2[14] + R_1[14] + K_1[14] + L_1[16] + AND(L_1[22],L_1[15])
L_2[15] + R_1[15] + K_1[15] + L_1[17] + AND(L_1[23],L_1[16])
L_2[16] + R_1[16] + K_1[16] + L_1[18] + AND(L_1[24],L_1[17])
L_2[17] + R_1[17] + K_1[17] + L_1[19] + AND(L_1[25],L_1[18])
L_2[18] + R_1[18] + K_1[18] + L_1[20] + AND(L_1[26],L_1[19])
L_2[19] + R_1[19] + K_1[19] + L_1[21] + AND(L_1[27],L_1[20])
L_2[20] + R_1[20] + K_1[20] + L_1[22] + AND(L_1[28],L_1[21])
L_2[21] + R_1[21] + K_1[21] + L_1[23] + AND(L_1[29],L_1[22])
L_2[22] + R_1[22] + K_1[22] + L_1[24] + AND(L_1[30],L_1[23])
L_2[23] + R_1[23] + K_1[23] + L_1[25] + AND(L_1[31],L_1[24])
L_2[24] + R_1[24] + K_1[24] + L_1[26] + AND(L_1[0],L_1[25])
L_2[25] + R_1[25] + K_1[25] + L_1[27] + AND(L_1[1],L_1[26])
L_2[26] + R_1[26] + K_1[26] + L_1[28] + AND(L_1[2],L_1[27])
L_2[27] + R_1[27] + K_1[27] + L_1[29] + AND(L_1[3],L_1[28])
L_2[28] + R_1[28] + K_1[28] + L_1[30] + AND(L_1[4],L_1[29])
L_2[29] + R_1[29] + K_1[29] + L_1[31] + AND(L_1[5],L_1[30])
L_2[30] + R_1[30] + K_1[30] + L_1[0] + AND(L_1[6],L_1[31])
L_2[31] + R_1[31] + K_1[31] + L_1[1] + AND(L_1[7],L_1[0])
R_3[0] + L_2[0]
R_3[1] + L_2[1]
R_3[2] + L_2[2]
R_3[3] + L_2[3]
R_3[4] + L_2[4]
R_3[5] + L_2[5]
R_3[6] + L_2[6]
R_3[7] + L_2[7]
R_3[8] + L_2[8]
R_3[9] + L_2[9]
R_3[10] + L_2[10]
R_3[11] + L_2[11]
R_3[12] + L_2[12]
R_3[13] + L_2[13]
R_3[14] + L_2[14]
R_3[15] + L_2[15]
R_3[16] + L_2[16]
R_3[17] + L_2[17]
R_3[18] + L_2[18]
R_3[19] + L_2[19]
R_3[20] + L_2[20]
R_3[21] + L_2[21]
R_3[22] + L_2[22]
R_3[23] + L_2[23]
R_3[24] + L_2[24]
R_3[25] + L_2[25]
R_3[26] + L_2[26]
R_3[27] + L_2[27]
R_3[28] + L_2[28]
R_3[29] + L_2[29]
R_3[30] + L_2[30]
R_3[31] + L_2[31]
L_3[0] + R_2[0] + K_2[0] + L_2[2] + AND(L_2[8],L_2[1])
L_3[1] + R_2[1] + K_2[1] + L_2[3] + AND(L_2[9],L_2[2])
L_3[2] + R_2[2] + K_2[2] + L_2[4] + AND(L_2[10],L_2[3])
L_3[3] + R_2[3] + K_2[3] + L_2[5] + AND(L_2[11],L_2[4])
L_3[4] + R_2[4] + K_2[4] + L_2[6] + AND(L_2[12],L_2[5])
L_3[5] + R_2[5] + K_2[5] + L_2[7] + AND(L_2[13],L_2[6])
L_3[6] + R_2[6] + K_2[6] + L_2[8] + AND(L_2[14],L_2[7])
L_3[7] + R_2[7] + K_2[7] + L_2[9] + AND(L_2[15],L_2[8])
L_3[8] + R_2[8] + K_2[8] + L_2[10] + AND(L_2[16],L_2[9])
L_3[9] + R_2[9] + K_2[9] + L_2[11] + AND(L_2[17],L_2[10])
L_3[10] + R_2[10] + K_2[10] + L_2[12] + AND(L_2[18],L_2[11])
L_3[11] + R_2[11] + K_2[11] + L_2[13] + AND(L_2[19],L_2[12])
L_3[12] + R_2[12] + K_2[12] + L_2[14] + AND(L_2[20],L_2[13])
L_3[13] + R_2[13] + K_2[13] + L_2[15] + AND(L_2[21],L_2[14])
L_3[14] + R_2[14] + K_2[14] + L_2[16] + AND(L_2[22],L_2[15])
L_3[15] + R_2[15] + K_2[15] + L_2[17] + AND(L_2[23],L_2[16])
L_3[16] + R_2[16] + K_2[16] + L_2[18] + AND(L_2[24],L_2[17])
L_3[17] + R_2[17] + K_2[17] + L_2[19] + AND(L_2[25],L_2[18])
L_3[18] + R_2[18] + K_2[18] + L_2[20] + AND(L_2[26],L_2[19])
L_3[19] + R_2[19] + K_2[19] + L_2[21] + AND(L_2[27],L_2[20])
L_3[20] + R_2[20] + K_2[20] + L_2[22] + AND(L_2[28],L_2[21])
L_3[21] + R_2[21] + K_2[21] + L_2[23] + AND(L_2[29],L_2[22])
L_3[22] + R_2[22] + K_2[22] + L_2[24] + AND(L_2[30],L_2[23])
L_3[23] + R_2[23] + K_2[23] + L_2[25] + AND(L_2[31],L_2[24])
L_3[24] + R_2[24] + K_2[24] + L_2[26] + AND(L_2[0],L_2[25])
L_3[25] + R_2[25] + K_2[25] + L_2[27] + AND(L_2[1],L_2[26])
L_3[26] + R_2[26] + K_2[26] + L_2[28] + AND(L_2[2],L_2[27])
L_3[27] + R_2[27] + K_2[27] + L_2[29] + AND(L_2[3],L_2[28])
L_3[28] + R_2[28] + K_2[28] + L_2[30] + AND(L_2[4],L_2[29])
L_3[29] + R_2[29] + K_2[29] + L_2[31] + AND(L_2[5],L_2[30])
L_3[30] + R_2[30] + K_2[30] + L_2[0] + AND(L_2[6],L_2[31])
L_3[31] + R_2[31] + K_2[31] + L_2[1] + AND(L_2[7],L_2[0])
R_4[0] + L_3[0]
R_4[1] + L_3[1]
R_4[2] + L_3[2]
R_4[3] + L_3[3]
R_4[4] + L_3[4]
R_4[5] + L_3[5]
R_4[6] + L_3[6]
R_4[7] + L_3[7]
R_4[8] + L_3[8]
R_4[9] + L_3[9]
R_4[10] + L_3[10]
R_4[11] + L_3[11]
R_4[12] + L_3[12]
R_4[13] + L_3[13]
R_4[14] + L_3[14]
R_4[15] + L_3[15]
R_4[16] + L_3[16]
R_4[17] + L_3[17]
R_4[18] + L_3[18]
R_4[19] + L_3[19]
R_4[20] + L_3[20]
R_4[21] + L_3[21]
R_4[22] + L_3[22]
R_4[23] + L_3[23]
R_4[24] + L_3[24]
R_4[25] + L_3[25]
R_4[26] + L_3[26]
R_4[27] + L_3[27]
R_4[28] + L_3[28]
R_4[29] + L_3[29]
R_4[30] + L_3[30]
R_4[31] + L_3[31]
L_4[0] + R_3[0] + K_3[0] + L_3[2] + AND(L_3[8],L_3[1])
L_4[1] + R_3[1] + K_3[1] + L_3[3] + AND(L_3[9],L_3[2])
L_4[2] + R_3[2] + K_3[2] + L_3[4] + AND(L_3[10],L_3[3])
L_4[3] + R_3[3] + K_3[3] + L_3[5] + AND(L_3[11],L_3[4])
L_4[4] + R_3[4] + K_3[4] + L_3[6] + AND(L_3[12],L_3[5])
L_4[5] + R_3[5] + K_3[5] + L_3[7] + AND(L_3[13],L_3[6])
L_4[6] + R_3[6] + K_3[6] + L_3[8] + AND(L_3[14],L_3[7])
L_4[7] + R_3[7] + K_3[7] + L_3[9] + AND(L_3[15],L_3[8])
L_4[8] + R_3[8] + K_3[8] + L_3[10] + AND(L_3[16],L_3[9])
L_4[9] + R_3[9] + K_3[9] + L_3[11] + AND(L_3[17],L_3[10])
L_4[10] + R_3[10] + K_3[10] + L_3[12] + AND(L_3[18],L_3[11])
L_4[11] + R_3[11] + K_3[11] + L_3[13] + AND(L_3[19],L_3[12])
L_4[12] + R_3[12] + K_3[12] + L_3[14] + AND(L_3[20],L_3[13])
L_4[13] + R_3[13] + K_3[13] + L_3[15] + AND(L_3[21],L_3[14])
L_4[14] + R_3[14] + K_3[14] + L_3[16] + AND(L_3[22],L_3[15])
L_4[15] + R_3[15] + K_3[15] + L_3[17] + AND(L_3[23],L_3[16])
L_4[16] + R_3[16] + K_3[16] + L_3[18] + AND(L_3[24],L_3[17])
L_4[17] + R_3[17] + K_3[17] + L_3[19] + AND(L_3[25],L_3[18])
L_4[18] + R_3[18] + K_3[18] + L_3[20] + AND(L_3[26],L_3[19])
L_4[19] + R_3[19] + K_3[19] + L_3[21] + AND(L_3[27],L_3[20])
L_4[20] + R_3[20] + K_3[20] + L_3[22] + AND(L_3[28],L_3[21])
L_4[21] + R_3[21] + K_3[21] + L_3[23] + AND(L_3[29],L_3[22])
L_4[22] + R_3[22] + K_3[22] + L_3[24] + AND(L_3[30],L_3[23])
L_4[23] + R_3[23] + K_3[23] + L_3[25] + AND(L_3[31],L_3[24])
L_4[24] + R_3[24] + K_3[24] + L_3[26] + AND(L_3[0],L_3[25])
L_4[25] + R_3[25] + K_3[25] + L_3[27] + AND(L_3[1],L_3[26])
L_4[26] + R_3[26] + K_3[26] + L_3[28] + AND(L_3[2],L_3[27])
L_4[27] + R_3[27] + K_3[27] + L_3[29] + AND(L_3[3],L_3[28])
L_4[28] + R_3[28] + K_3[28] + L_3[30] + AND(L_3[4],L_3[29])
L_4[29] + R_3[29] + K_3[29] + L_3[31] + AND(L_3[5],L_3[30])
L_4[30] + R_3[30] + K_3[30] + L_3[0] + AND(L_3[6],L_3[31])
L_4[31] + R_3[31] + K_3[31] + L_3[1] + AND(L_3[7],L_3[0])
R_5[0] + L_4[0]
R_5[1] + L_4[1]
R_5[2] + L_4[2]
R_5[3] + L_4[3]
R_5[4] + L_4[4]
R_5[5] + L_4[5]
R_5[6] + L_4[6]
R_5[7] + L_4[7]
R_5[8] + L_4[8]
R_5[9] + L_4[9]
R_5[10] + L_4[10]
R_5[11] + L_4[11]
R_5[12] + L_4[12]
R_5[13] + L_4[13]
R_5[14] + L_4[14]
R_5[15] + L_4[15]
R_5[16] + L_4[16]
R_5[17] + L_4[17]
R_5[18] + L_4[18]
R_5[19] + L_4[19]
R_5[20] + L_4[20]
R_5[21] + L_4[21]
R_5[22] + L_4[22]
R_5[23] + L_4[23]
R_5[24] + L_4[24]
R_5[25] + L_4[25]
R_5[26] + L_4[26]
R_5[27] + L_4[27]
R_5[28] + L_4[28]
R_5[29] + L_4[29]
R_5[30] + L_4[30]
R_5[31] + L_4[31]
L_5[0] + R_4[0] + K_4[0] + L_4[2] + AND(L_4[8],L_4[1])
L_5[1] + R_4[1] + K_4[1] + L_4[3] + AND(L_4[9],L_4[2])
L_5[2] + R_4[2] + K_4[2] + L_4[4] + AND(L_4[10],L_4[3])
L_5[3] + R_4[3] + K_4[3] + L_4[5] + AND(L_4[11],L_4[4])
L_5[4] + R_4[4] + K_4[4] + L_4[6] + AND(L_4[12],L_4[5])
L_5[5] + R_4[5] + K_4[5] + L_4[7] + AND(L_4[13],L_4[6])
L_5[6] + R_4[6] + K_4[6] + L_4[8] + AND(L_4[14],L_4[7])
L_5[7] + R_4[7] + K_4[7] + L_4[9] + AND(L_4[15],L_4[8])
L_5[8] + R_4[8] + K_4[8] + L_4[10] + AND(L_4[16],L_4[9])
L_5[9] + R_4[9] + K_4[9] + L_4[11] + AND(L_4[17],L_4[10])
L_5[10] + R_4[10] + K_4[10] + L_4[12] + AND(L_4[18],L_4[11])
L_5[11] + R_4[11] + K_4[11] + L_4[13] + AND(L_4[19],L_4[12])
L_5[12] + R_4[12] + K_4[12] + L_4[14] + AND(L_4[20],L_4[13])
L_5[13] + R_4[13] + K_4[13] + L_4[15] + AND(L_4[21],L_4[14])
L_5[14] + R_4[14] + K_4[14] + L_4[16] + AND(L_4[22],L_4[15])
L_5[15] + R_4[15] + K_4[15] + L_4[17] + AND(L_4[23],L_4[16])
L_5[16] + R_4[16] + K_4[16] + L_4[18] + AND(L_4[24],L_4[17])
L_5[17] + R_4[17] + K_4[17] + L_4[19] + AND(L_4[25],L_4[18])
L_5[18] + R_4[18] + K_4[18] + L_4[20] + AND(L_4[26],L_4[19])
L_5[19] + R_4[19] + K_4[19] + L_4[21] + AND(L_4[27],L_4[20])
L_5[20] + R_4[20] + K_4[20] + L_4[22] + AND(L_4[28],L_4[21])
L_5[21] + R_4[21] + K_4[21] + L_4[23] + AND(L_4[29],L_4[22])
L_5[22] + R_4[22] + K_4[22] + L_4[24] + AND(L_4[30],L_4[23])
L_5[23] + R_4[23] + K_4[23] + L_4[25] + AND(L_4[31],L_4[24])
L_5[24] + R_4[24] + K_4[24] + L_4[26] + AND(L_4[0],L_4[25])
L_5[25] + R_4[25] + K_4[25] + L_4[27] + AND(L_4[1],L_4[26])
L_5[26] + R_4[26] + K_4[26] + L_4[28] + AND(L_4[2],L_4[27])
L_5[27] + R_4[27] + K_4[27] + L_4[29] + AND(L_4[3],L_4[28])
L_5[28] + R_4[28] + K_4[28] + L_4[30] + AND(L_4[4],L_4[29])
L_5[29] + R_4[29] + K_4[29] + L_4[31] + AND(L_4[5],L_4[30])
L_5[30] + R_4[30] + K_4[30] + L_4[0] + AND(L_4[6],L_4[31])
L_5[31] + R_4[31] + K_4[31] + L_4[1] + AND(L_4[7],L_4[0])
R_6[0] + L_5[0]
R_6[1] + L_5[1]
R_6[2] + L_5[2]
R_6[3] + L_5[3]
R_6[4] + L_5[4]
R_6[5] + L_5[5]
R_6[6] + L_5[6]
R_6[7] + L_5[7]
R_6[8] + L_5[8]
R_6[9] + L_5[9]
R_6[10] + L_5[10]
R_6[11] + L_5[11]
R_6[12] + L_5[12]
R_6[13] + L_5[13]
R_6[14] + L_5[14]
R_6[15] + L_5[15]
R_6[16] + L_5[16]
R_6[17] + L_5[17]
R_6[18] + L_5[18]
R_6[19] + L_5[19]
R_6[20] + L_5[20]
R_6[21] + L_5[21]
R_6[22] + L_5[22]
R_6[23] + L_5[23]
R_6[24] + L_5[24]
R_6[25] + L_5[25]
R_6[26] + L_5[26]
R_6[27] + L_5[27]
R_6[28] + L_5[28]
R_6[29] + L_5[29]
R_6[30] + L_5[30]
R_6[31] + L_5[31]
L_6[0] + R_5[0] + K_5[0] + L_5[2] + AND(L_5[8],L_5[1])
L_6[1] + R_5[1] + K_5[1] + L_5[3] + AND(L_5[9],L_5[2])
L_6[2] + R_5[2] + K_5[2] + L_5[4] + AND(L_5[10],L_5[3])
L_6[3] + R_5[3] + K_5[3] + L_5[5] + AND(L_5[11],L_5[4])
L_6[4] + R_5[4] + K_5[4] + L_5[6] + AND(L_5[12],L_5[5])
L_6[5] + R_5[5] + K_5[5] + L_5[7] + AND(L_5[13],L_5[6])
L_6[6] + R_5[6] + K_5[6] + L_5[8] + AND(L_5[14],L_5[7])
L_6[7] + R_5[7] + K_5[7] + L_5[9] + AND(L_5[15],L_5[8])
L_6[8] + R_5[8] + K_5[8] + L_5[10] + AND(L_5[16],L_5[9])
L_6[9] + R_5[9] + K_5[9] + L_5[11] + AND(L_5[17],L_5[10])
L_6[10] + R_5[10] + K_5[10] + L_5[12] + AND(L_5[18],L_5[11])
L_6[11] + R_5[11] + K_5[11] + L_5[13] + AND(L_5[19],L_5[12])
L_6[12] + R_5[12] + K_5[12] + L_5[14] + AND(L_5[20],L_5[13])
L_6[13] + R_5[13] + K_5[13] + L_5[15] + AND(L_5[21],L_5[14])
L_6[14] + R_5[14] + K_5[14] + L_5[16] + AND(L_5[22],L_5[15])
L_6[15] + R_5[15] + K_5[15] + L_5[17] + AND(L_5[23],L_5[16])
L_6[16] + R_5[16] + K_5[16] + L_5[18] + AND(L_5[24],L_5[17])
L_6[17] + R_5[17] + K_5[17] + L_5[19] + AND(L_5[25],L_5[18])
L_6[18] + R_5[18] + K_5[18] + L_5[20] + AND(L_5[26],L_5[19])
L_6[19] + R_5[19] + K_5[19] + L_5[21] + AND(L_5[27],L_5[20])
L_6[20] + R_5[20] + K_5[20] + L_5[22] + AND(L_5[28],L_5[21])
L_6[21] + R_5[21] + K_5[21] + L_5[23] + AND(L_5[29],L_5[22])
L_6[22] + R_5[22] + K_5[22] + L_5[24] + AND(L_5[30],L_5[23])
L_6[23] + R_5[23] + K_5[23] + L_5[25] + AND(L_5[31],L_5[24])
L_6[24] + R_5[24] + K_5[24] + L_5[26] + AND(L_5[0],L_5[25])
L_6[25] + R_5[25] + K_5[25] + L_5[27] + AND(L_5[1],L_5[26])
L_6[26] + R_5[26] + K_5[26] + L_5[28] + AND(L_5[2],L_5[27])
L_6[27] + R_5[27] + K_5[27] + L_5[29] + AND(L_5[3],L_5[28])
L_6[28] + R_5[28] + K_5[28] + L_5[30] + AND(L_5[4],L_5[29])
L_6[29] + R_5[29] + K_5[29] + L_5[31] + AND(L_5[5],L_5[30])
L_6[30] + R_5[30] + K_5[30] + L_5[0] + AND(L_5[6],L_5[31])
L_6[31] + R_5[31] + K_5[31] + L_5[1] + AND(L_5[7],L_5[0])
R_7[0] + L_6[0]
R_7[1] + L_6[1]
R_7[2] + L_6[2]
R_7[3] + L_6[3]
R_7[4] + L_6[4]
R_7[5] + L_6[5]
R_7[6] + L_6[6]
R_7[7] + L_6[7]
R_7[8] + L_6[8]
R_7[9] + L_6[9]
R_7[10] + L_6[10]
R_7[11] + L_6[11]
R_7[12] + L_6[12]
R_7[13] + L_6[13]
R_7[14] + L_6[14]
R_7[15] + L_6[15]
R_7[16] + L_6[16]
R_7[17] + L_6[17]
R_7[18] + L_6[18]
R_7[19] + L_6[19]
R_7[20] + L_6[20]
R_7[21] + L_6[21]
R_7[22] + L_6[22]
R_7[23] + L_6[23]
R_7[24] + L_6[24]
R_7[25] + L_6[25]
R_7[26] + L_6[26]
R_7[27] + L_6[27]
R_7[28] + L_6[28]
R_7[29] + L_6[29]
R_7[30] + L_6[30]
R_7[31] + L_6[31]
L_7[0] + R_6[0] + K_6[0] + L_6[2] + AND(L_6[8],L_6[1])
L_7[1] + R_6[1] + K_6[1] + L_6[3] + AND(L_6[9],L_6[2])
L_7[2] + R_6[2] + K_6[2] + L_6[4] + AND(L_6[10],L_6[3])
L_7[3] + R_6[3] + K_6[3] + L_6[5] + AND(L_6[11],L_6[4])
L_7[4] + R_6[4] + K_6[4] + L_6[6] + AND(L_6[12],L_6[5])
L_7[5] + R_6[5] + K_6[5] + L_6[7] + AND(L_6[13],L_6[6])
L_7[6] + R_6[6] + K_6[6] + L_6[8] + AND(L_6[14],L_6[7])
L_7[7] + R_6[7] + K_6[7] + L_6[9] + AND(L_6[15],L_6[8])
L_7[8] + R_6[8] + K_6[8] + L_6[10] + AND(L_6[16],L_6[9])
L_7[9] + R_6[9] + K_6[9] + L_6[11] + AND(L_6[17],L_6[10])
L_7[10] + R_6[10] + K_6[10] + L_6[12] + AND(L_6[18],L_6[11])
L_7[11] + R_6[11] + K_6[11] + L_6[13] + AND(L_6[19],L_6[12])
L_7[12] + R_6[12] + K_6[12] + L_6[14] + AND(L_6[20],L_6[13])
L_7[13] + R_6[13] + K_6[13] + L_6[15] + AND(L_6[21],L_6[14])
L_7[14] + R_6[14] + K_6[14] + L_6[16] + AND(L_6[22],L_6[15])
L_7[15] + R_6[15] + K_6[15] + L_6[17] + AND(L_6[23],L_6[16])
L_7[16] + R_6[16] + K_6[16] + L_6[18] + AND(L_6[24],L_6[17])
L_7[17] + R_6[17] + K_6[17] + L_6[19] + AND(L_6[25],L_6[18])
L_7[18] + R_6[18] + K_6[18] + L_6[20] + AND(L_6[26],L_6[19])
L_7[19] + R_6[19] + K_6[19] + L_6[21] + AND(L_6[27],L_6[20])
L_7[20] + R_6[20] + K_6[20] + L_6[22] + AND(L_6[28],L_6[21])
L_7[21] + R_6[21] + K_6[21] + L_6[23] + AND(L_6[29],L_6[22])
L_7[22] + R_6[22] + K_6[22] + L_6[24] + AND(L_6[30],L_6[23])
L_7[23] + R_6[23] + K_6[23] + L_6[25] + AND(L_6[31],L_6[24])
L_7[24] + R_6[24] + K_6[24] + L_6[26] + AND(L_6[0],L_6[25])
L_7[25] + R_6[25] + K_6[25] + L_6[27] + AND(L_6[1],L_6[26])
L_7[26] + R_6[26] + K_6[26] + L_6[28] + AND(L_6[2],L_6[27])
L_7[27] + R_6[27] + K_6[27] + L_6[29] + AND(L_6[3],L_6[28])
L_7[28] + R_6[28] + K_6[28] + L_6[30] + AND(L_6[4],L_6[29])
L_7[29] + R_6[29] + K_6[29] + L_6[31] + AND(L_6[5],L_6[30])
L_7[30] + R_6[30] + K_6[30] + L_6[0] + AND(L_6[6],L_6[31])
L_7[31] + R_6[31] + K_6[31] + L_6[1] + AND(L_6[7],L_6[0])
R_8[0] + L_7[0]
R_8[1] + L_7[1]
R_8[2] + L_7[2]
R_8[3] + L_7[3]
R_8[4] + L_7[4]
R_8[5] + L_7[5]
R_8[6] + L_7[6]
R_8[7] + L_7[7]
R_8[8] + L_7[8]
R_8[9] + L_7[9]
R_8[10] + L_7[10]
R_8[11] + L_7[11]
R_8[12] + L_7[12]
R_8[13] + L_7[13]
R_8[14] + L_7[14]
R_8[15] + L_7[15]
R_8[16] + L_7[16]
R_8[17] + L_7[17]
R_8[18] + L_7[18]
R_8[19] + L_7[19]
R_8[20] + L_7[20]
R_8[21] + L_7[21]
R_8[22] + L_7[22]
R_8[23] + L_7[23]
R_8[24] + L_7[24]
R_8[25] + L_7[25]
R_8[26] + L_7[26]
R_8[27] + L_7[27]
R_8[28] + L_7[28]
R_8[29] + L_7[29]
R_8[30] + L_7[30]
R_8[31] + L_7[31]
L_8[0] + R_7[0] + K_7[0] + L_7[2] + AND(L_7[8],L_7[1])
L_8[1] + R_7[1] + K_7[1] + L_7[3] + AND(L_7[9],L_7[2])
L_8[2] + R_7[2] + K_7[2] + L_7[4] + AND(L_7[10],L_7[3])
L_8[3] + R_7[3] + K_7[3] + L_7[5] + AND(L_7[11],L_7[4])
L_8[4] + R_7[4] + K_7[4] + L_7[6] + AND(L_7[12],L_7[5])
L_8[5] + R_7[5] + K_7[5] + L_7[7] + AND(L_7[13],L_7[6])
L_8[6] + R_7[6] + K_7[6] + L_7[8] + AND(L_7[14],L_7[7])
L_8[7] + R_7[7] + K_7[7] + L_7[9] + AND(L_7[15],L_7[8])
L_8[8] + R_7[8] + K_7[8] + L_7[10] + AND(L_7[16],L_7[9])
L_8[9] + R_7[9] + K_7[9] + L_7[11] + AND(L_7[17],L_7[10])
L_8[10] + R_7[10] + K_7[10] + L_7[12] + AND(L_7[18],L_7[11])
L_8[11] + R_7[11] + K_7[11] + L_7[13] + AND(L_7[19],L_7[12])
L_8[12] + R_7[12] + K_7[12] + L_7[14] + AND(L_7[20],L_7[13])
L_8[13] + R_7[13] + K_7[13] + L_7[15] + AND(L_7[21],L_7[14])
L_8[14] + R_7[14] + K_7[14] + L_7[16] + AND(L_7[22],L_7[15])
L_8[15] + R_7[15] + K_7[15] + L_7[17] + AND(L_7[23],L_7[16])
L_8[16] + R_7[16] + K_7[16] + L_7[18] + AND(L_7[24],L_7[17])
L_8[17] + R_7[17] + K_7[17] + L_7[19] + AND(L_7[25],L_7[18])
L_8[18] + R_7[18] + K_7[18] + L_7[20] + AND(L_7[26],L_7[19])
L_8[19] + R_7[19] + K_7[19] + L_7[21] + AND(L_7[27],L_7[20])
L_8[20] + R_7[20] + K_7[20] + L_7[22] + AND(L_7[28],L_7[21])
L_8[21] + R_7[21] + K_7[21] + L_7[23] + AND(L_7[29],L_7[22])
L_8[22] + R_7[22] + K_7[22] + L_7[24] + AND(L_7[30],L_7[23])
L_8[23] + R_7[23] + K_7[23] + L_7[25] + AND(L_7[31],L_7[24])
L_8[24] + R_7[24] + K_7[24] + L_7[26] + AND(L_7[0],L_7[25])
L_8[25] + R_7[25] + K_7[25] + L_7[27] + AND(L_7[1],L_7[26])
L_8[26] + R_7[26] + K_7[26] + L_7[28] + AND(L_7[2],L_7[27])
L_8[27] + R_7[27] + K_7[27] + L_7[29] + AND(L_7[3],L_7[28])
L_8[28] + R_7[28] + K_7[28] + L_7[30] + AND(L_7[4],L_7[29])
L_8[29] + R_7[29] + K_7[29] + L_7[31] + AND(L_7[5],L_7[30])
L_8[30] + R_7[30] + K_7[30] + L_7[0] + AND(L_7[6],L_7[31])
L_8[31] + R_7[31] + K_7[31] + L_7[1] + AND(L_7[7],L_7[0])
R_9[0] + L_8[0]
R_9[1] + L_8[1]
R_9[2] + L_8[2]
R_9[3] + L_8[3]
R_9[4] + L_8[4]
R_9[5] + L_8[5]
R_9[6] + L_8[6]
R_9[7] + L_8[7]
R_9[8] + L_8[8]
R_9[9] + L_8[9]
R_9[10] + L_8[10]
R_9[11] + L_8[11]
R_9[12] + L_8[12]
R_9[13] + L_8[13]
R_9[14] + L_8[14]
R_9[15] + L_8[15]
R_9[16] + L_8[16]
R_9[17] + L_8[17]
R_9[18] + L_8[18]
R_9[19] + L_8[19]
R_9[20] + L_8[20]
R_9[21] + L_8[21]
R_9[22] + L_8[22]
R_9[23] + L_8[23]
R_9[24] + L_8[24]
R_9[25] + L_8[25]
R_9[26] + L_8[26]
R_9[27] + L_8[27]
R_9[28] + L_8[28]
R_9[29] + L_8[29]
R_9[30] + L_8[30]
R_9[31] + L_8[31]
L_9[0] + R_8[0] + K_8[0] + L_8[2] + AND(L_8[8],L_8[1])
L_9[1] + R_8[1] + K_8[1] + L_8[3] + AND(L_8[9],L_8[2])
L_9[2] + R_8[2] + K_8[2] + L_8[4] + AND(L_8[10],L_8[3])
L_9[3] + R_8[3] + K_8[3] + L_8[5] + AND(L_8[11],L_8[4])
L_9[4] + R_8[4] + K_8[4] + L_8[6] + AND(L_8[12],L_8[5])
L_9[5] + R_8[5] + K_8[5] + L_8[7] + AND(L_8[13],L_8[6])
L_9[6] + R_8[6] + K_8[6] + L_8[8] + AND(L_8[14],L_8[7])
L_9[7] + R_8[7] + K_8[7] + L_8[9] + AND(L_8[15],L_8[8])
L_9[8] + R_8[8] + K_8[8] + L_8[10] + AND(L_8[16],L_8[9])
L_9[9] + R_8[9] + K_8[9] + L_8[11] + AND(L_8[17],L_8[10])
L_9[10] + R_8[10] + K_8[10] + L_8[12] + AND(L_8[18],L_8[11])
L_9[11] + R_8[11] + K_8[11] + L_8[13] + AND(L_8[19],L_8[12])
L_9[12] + R_8[12] + K_8[12] + L_8[14] + AND(L_8[20],L_8[13])
L_9[13] + R_8[13] + K_8[13] + L_8[15] + AND(L_8[21],L_8[14])
L_9[14] + R_8[14] + K_8[14] + L_8[16] + AND(L_8[22],L_8[15])
L_9[15] + R_8[15] + K_8[15] + L_8[17] + AND(L_8[23],L_8[16])
L_9[16] + R_8[16] + K_8[16] + L_8[18] + AND(L_8[24],L_8[17])
L_9[17] + R_8[17] + K_8[17] + L_8[19] + AND(L_8[25],L_8[18])
L_9[18] + R_8[18] + K_8[18] + L_8[20] + AND(L_8[26],L_8[19])
L_9[19] + R_8[19] + K_8[19] + L_8[21] + AND(L_8[27],L_8[20])
L_9[20] + R_8[20] + K_8[20] + L_8[22] + AND(L_8[28],L_8[21])
L_9[21] + R_8[21] + K_8[21] + L_8[23] + AND(L_8[29],L_8[22])
L_9[22] + R_8[22] + K_8[22] + L_8[24] + AND(L_8[30],L_8[23])
L_9[23] + R_8[23] + K_8[23] + L_8[25] + AND(L_8[31],L_8[24])
L_9[24] + R_8[24] + K_8[24] + L_8[26] + AND(L_8[0],L_8[25])
L_9[25] + R_8[25] + K_8[25] + L_8[27] + AND(L_8[1],L_8[26])
L_9[26] + R_8[26] + K_8[26] + L_8[28] + AND(L_8[2],L_8[27])
L_9[27] + R_8[27] + K_8[27] + L_8[29] + AND(L_8[3],L_8[28])
L_9[28] + R_8[28] + K_8[28] + L_8[30] + AND(L_8[4],L_8[29])
L_9[29] + R_8[29] + K_8[29] + L_8[31] + AND(L_8[5],L_8[30])
L_9[30] + R_8[30] + K_8[30] + L_8[0] + AND(L_8[6],L_8[31])
L_9[31] + R_8[31] + K_8[31] + L_8[1] + AND(L_8[7],L_8[0])
R_10[0] + L_9[0]
R_10[1] + L_9[1]
R_10[2] + L_9[2]
R_10[3] + L_9[3]
R_10[4] + L_9[4]
R_10[5] + L_9[5]
R_10[6] + L_9[6]
R_10[7] + L_9[7]
R_10[8] + L_9[8]
R_10[9] + L_9[9]
R_10[10] + L_9[10]
R_10[11] + L_9[11]
R_10[12] + L_9[12]
R_10[13] + L_9[13]
R_10[14] + L_9[14]
R_10[15] + L_9[15]
R_10[16] + L_9[16]
R_10[17] + L_9[17]
R_10[18] + L_9[18]
R_10[19] + L_9[19]
R_10[20] + L_9[20]
R_10[21] + L_9[21]
R_10[22] + L_9[22]
R_10[23] + L_9[23]
R_10[24] + L_9[24]
R_10[25] + L_9[25]
R_10[26] + L_9[26]
R_10[27] + L_9[27]
R_10[28] + L_9[28]
R_10[29] + L_9[29]
R_10[30] + L_9[30]
R_10[31] + L_9[31]
L_10[0] + R_9[0] + K_9[0] + L_9[2] + AND(L_9[8],L_9[1])
L_10[1] + R_9[1] + K_9[1] + L_9[3] + AND(L_9[9],L_9[2])
L_10[2] + R_9[2] + K_9[2] + L_9[4] + AND(L_9[10],L_9[3])
L_10[3] + R_9[3] + K_9[3] + L_9[5] + AND(L_9[11],L_9[4])
L_10[4] + R_9[4] + K_9[4] + L_9[6] + AND(L_9[12],L_9[5])
L_10[5] + R_9[5] + K_9[5] + L_9[7] + AND(L_9[13],L_9[6])
L_10[6] + R_9[6] + K_9[6] + L_9[8] + AND(L_9[14],L_9[7])
L_10[7] + R_9[7] + K_9[7] + L_9[9] + AND(L_9[15],L_9[8])
L_10[8] + R_9[8] + K_9[8] + L_9[10] + AND(L_9[16],L_9[9])
L_10[9] + R_9[9] + K_9[9] + L_9[11] + AND(L_9[17],L_9[10])
L_10[10] + R_9[10] + K_9[10] + L_9[12] + AND(L_9[18],L_9[11])
L_10[11] + R_9[11] + K_9[11] + L_9[13] + AND(L_9[19],L_9[12])
L_10[12] + R_9[12] + K_9[12] + L_9[14] + AND(L_9[20],L_9[13])
L_10[13] + R_9[13] + K_9[13] + L_9[15] + AND(L_9[21],L_9[14])
L_10[14] + R_9[14] + K_9[14] + L_9[16] + AND(L_9[22],L_9[15])
L_10[15] + R_9[15] + K_9[15] + L_9[17] + AND(L_9[23],L_9[16])
L_10[16] + R_9[16] + K_9[16] + L_9[18] + AND(L_9[24],L_9[17])
L_10[17] + R_9[17] + K_9[17] + L_9[19] + AND(L_9[25],L_9[18])
L_10[18] + R_9[18] + K_9[18] + L_9[20] + AND(L_9[26],L_9[19])
L_10[19] + R_9[19] + K_9[19] + L_9[21] + AND(L_9[27],L_9[20])
L_10[20] + R_9[20] + K_9[20] + L_9[22] + AND(L_9[28],L_9[21])
L_10[21] + R_9[21] + K_9[21] + L_9[23] + AND(L_9[29],L_9[22])
L_10[22] + R_9[22] + K_9[22] + L_9[24] + AND(L_9[30],L_9[23])
L_10[23] + R_9[23] + K_9[23] + L_9[25] + AND(L_9[31],L_9[24])
L_10[24] + R_9[24] + K_9[24] + L_9[26] + AND(L_9[0],L_9[25])
L_10[25] + R_9[25] + K_9[25] + L_9[27] + AND(L_9[1],L_9[26])
L_10[26] + R_9[26] + K_9[26] + L_9[28] + AND(L_9[2],L_9[27])
L_10[27] + R_9[27] + K_9[27] + L_9[29] + AND(L_9[3],L_9[28])
L_10[28] + R_9[28] + K_9[28] + L_9[30] + AND(L_9[4],L_9[29])
L_10[29] + R_9[29] + K_9[29] + L_9[31] + AND(L_9[5],L_9[30])
L_10[30] + R_9[30] + K_9[30] + L_9[0] + AND(L_9[6],L_9[31])
L_10[31] + R_9[31] + K_9[31] + L_9[1] + AND(L_9[7],L_9[0])
R_11[0] + L_10[0]
R_11[1] + L_10[1]
R_11[2] + L_10[2]
R_11[3] + L_10[3]
R_11[4] + L_10[4]
R_11[5] + L_10[5]
R_11[6] + L_10[6]
R_11[7] + L_10[7]
R_11[8] + L_10[8]
R_11[9] + L_10[9]
R_11[10] + L_10[10]
R_11[11] + L_10[11]
R_11[12] + L_10[12]
R_11[13] + L_10[13]
R_11[14] + L_10[14]
R_11[15] + L_10[15]
R_11[16] + L_10[16]
R_11[17] + L_10[17]
R_11[18] + L_10[18]
R_11[19] + L_10[19]
R_11[20] + L_10[20]
R_11[21] + L_10[21]
R_11[22] + L_10[22]
R_11[23] + L_10[23]
R_11[24] + L_10[24]
R_11[25] + L_10[25]
R_11[26] + L_10[26]
R_11[27] + L_10[27]
R_11[28] + L_10[28]
R_11[29] + L_10[29]
R_11[30] + L_10[30]
R_11[31] + L_10[31]
L_11[0] + R_10[0] + K_10[0] + L_10[2] + AND(L_10[8],L_10[1])
L_11[1] + R_10[1] + K_10[1] + L_10[3] + AND(L_10[9],L_10[2])
L_11[2] + R_10[2] + K_10[2] + L_10[4] + AND(L_10[10],L_10[3])
L_11[3] + R_10[3] + K_10[3] + L_10[5] + AND(L_10[11],L_10[4])
L_11[4] + R_10[4] + K_10[4] + L_10[6] + AND(L_10[12],L_10[5])
L_11[5] + R_10[5] + K_10[5] + L_10[7] + AND(L_10[13],L_10[6])
L_11[6] + R_10[6] + K_10[6] + L_10[8] + AND(L_10[14],L_10[7])
L_11[7] + R_10[7] + K_10[7] + L_10[9] + AND(L_10[15],L_10[8])
L_11[8] + R_10[8] + K_10[8] + L_10[10] + AND(L_10[16],L_10[9])
L_11[9] + R_10[9] + K_10[9] + L_10[11] + AND(L_10[17],L_10[10])
L_11[10] + R_10[10] + K_10[10] + L_10[12] + AND(L_10[18],L_10[11])
L_11[11] + R_10[11] + K_10[11] + L_10[13] + AND(L_10[19],L_10[12])
L_11[12] + R_10[12] + K_10[12] + L_10[14] + AND(L_10[20],L_10[13])
L_11[13] + R_10[13] + K_10[13] + L_10[15] + AND(L_10[21],L_10[14])
L_11[14] + R_10[14] + K_10[14] + L_10[16] + AND(L_10[22],L_10[15])
L_11[15] + R_10[15] + K_10[15] + L_10[17] + AND(L_10[23],L_10[16])
L_11[16] + R_10[16] + K_10[16] + L_10[18] + AND(L_10[24],L_10[17])
L_11[17] + R_10[17] + K_10[17] + L_10[19] + AND(L_10[25],L_10[18])
L_11[18] + R_10[18] + K_10[18] + L_10[20] + AND(L_10[26],L_10[19])
L_11[19] + R_10[19] + K_10[19] + L_10[21] + AND(L_10[27],L_10[20])
L_11[20] + R_10[20] + K_10[20] + L_10[22] + AND(L_10[28],L_10[21])
L_11[21] + R_10[21] + K_10[21] + L_10[23] + AND(L_10[29],L_10[22])
L_11[22] + R_10[22] + K_10[22] + L_10[24] + AND(L_10[30],L_10[23])
L_11[23] + R_10[23] + K_10[23] + L_10[25] + AND(L_10[31],L_10[24])
L_11[24] + R_10[24] + K_10[24] + L_10[26] + AND(L_10[0],L_10[25])
L_11[25] + R_10[25] + K_10[25] + L_10[27] + AND(L_10[1],L_10[26])
L_11[26] + R_10[26] + K_10[26] + L_10[28] + AND(L_10[2],L_10[27])
L_11[27] + R_10[27] + K_10[27] + L_10[29] + AND(L_10[3],L_10[28])
L_11[28] + R_10[28] + K_10[28] + L_10[30] + AND(L_10[4],L_10[29])
L_11[29] + R_10[29] + K_10[29] + L_10[31] + AND(L_10[5],L_10[30])
L_11[30] + R_10[30] + K_10[30] + L_10[0] + AND(L_10[6],L_10[31])
L_11[31] + R_10[31] + K_10[31] + L_10[1] + AND(L_10[7],L_10[0])
R_12[0] + L_11[0]
R_12[1] + L_11[1]
R_12[2] + L_11[2]
R_12[3] + L_11[3]
R_12[4] + L_11[4]
R_12[5] + L_11[5]
R_12[6] + L_11[6]
R_12[7] + L_11[7]
R_12[8] + L_11[8]
R_12[9] + L_11[9]
R_12[10] + L_11[10]
R_12[11] + L_11[11]
R_12[12] + L_11[12]
R_12[13] + L_11[13]
R_12[14] + L_11[14]
R_12[15] + L_11[15]
R_12[16] + L_11[16]
R_12[17] + L_11[17]
R_12[18] + L_11[18]
R_12[19] + L_11[19]
R_12[20] + L_11[20]
R_12[21] + L_11[21]
R_12[22] + L_11[22]
R_12[23] + L_11[23]
R_12[24] + L_11[24]
R_12[25] + L_11[25]
R_12[26] + L_11[26]
R_12[27] + L_11[27]
R_12[28] + L_11[28]
R_12[29] + L_11[29]
R_12[30] + L_11[30]
R_12[31] + L_11[31]
L_12[0] + R_11[0] + K_11[0] + L_11[2] + AND(L_11[8],L_11[1])
L_12[1] + R_11[1] + K_11[1] + L_11[3] + AND(L_11[9],L_11[2])
L_12[2] + R_11[2] + K_11[2] + L_11[4] + AND(L_11[10],L_11[3])
L_12[3] + R_11[3] + K_11[3] + L_11[5] + AND(L_11[11],L_11[4])
L_12[4] + R_11[4] + K_11[4] + L_11[6] + AND(L_11[12],L_11[5])
L_12[5] + R_11[5] + K_11[5] + L_11[7] + AND(L_11[13],L_11[6])
L_12[6] + R_11[6] + K_11[6] + L_11[8] + AND(L_11[14],L_11[7])
L_12[7] + R_11[7] + K_11[7] + L_11[9] + AND(L_11[15],L_11[8])
L_12[8] + R_11[8] + K_11[8] + L_11[10] + AND(L_11[16],L_11[9])
L_12[9] + R_11[9] + K_11[9] + L_11[11] + AND(L_11[17],L_11[10])
L_12[10] + R_11[10] + K_11[10] + L_11[12] + AND(L_11[18],L_11[11])
L_12[11] + R_11[11] + K_11[11] + L_11[13] + AND(L_11[19],L_11[12])
L_12[12] + R_11[12] + K_11[12] + L_11[14] + AND(L_11[20],L_11[13])
L_12[13] + R_11[13] + K_11[13] + L_11[15] + AND(L_11[21],L_11[14])
L_12[14] + R_11[14] + K_11[14] + L_11[16] + AND(L_11[22],L_11[15])
L_12[15] + R_11[15] + K_11[15] + L_11[17] + AND(L_11[23],L_11[16])
L_12[16] + R_11[16] + K_11[16] + L_11[18] + AND(L_11[24],L_11[17])
L_12[17] + R_11[17] + K_11[17] + L_11[19] + AND(L_11[25],L_11[18])
L_12[18] + R_11[18] + K_11[18] + L_11[20] + AND(L_11[26],L_11[19])
L_12[19] + R_11[19] + K_11[19] + L_11[21] + AND(L_11[27],L_11[20])
L_12[20] + R_11[20] + K_11[20] + L_11[22] + AND(L_11[28],L_11[21])
L_12[21] + R_11[21] + K_11[21] + L_11[23] + AND(L_11[29],L_11[22])
L_12[22] + R_11[22] + K_11[22] + L_11[24] + AND(L_11[30],L_11[23])
L_12[23] + R_11[23] + K_11[23] + L_11[25] + AND(L_11[31],L_11[24])
L_12[24] + R_11[24] + K_11[24] + L_11[26] + AND(L_11[0],L_11[25])
L_12[25] + R_11[25] + K_11[25] + L_11[27] + AND(L_11[1],L_11[26])
L_12[26] + R_11[26] + K_11[26] + L_11[28] + AND(L_11[2],L_11[27])
L_12[27] + R_11[27] + K_11[27] + L_11[29] + AND(L_11[3],L_11[28])
L_12[28] + R_11[28] + K_11[28] + L_11[30] + AND(L_11[4],L_11[29])
L_12[29] + R_11[29] + K_11[29] + L_11[31] + AND(L_11[5],L_11[30])
L_12[30] + R_11[30] + K_11[30] + L_11[0] + AND(L_11[6],L_11[31])
L_12[31] + R_11[31] + K_11[31] + L_11[1] + AND(L_11[7],L_11[0])
R_13[0] + L_12[0]
R_13[1] + L_12[1]
R_13[2] + L_12[2]
R_13[3] + L_12[3]
R_13[4] + L_12[4]
R_13[5] + L_12[5]
R_13[6] + L_12[6]
R_13[7] + L_12[7]
R_13[8] + L_12[8]
R_13[9] + L_12[9]
R_13[10] + L_12[10]
R_13[11] + L_12[11]
R_13[12] + L_12[12]
R_13[13] + L_12[13]
R_13[14] + L_12[14]
R_13[15] + L_12[15]
R_13[16] + L_12[16]
R_13[17] + L_12[17]
R_13[18] + L_12[18]
R_13[19] + L_12[19]
R_13[20] + L_12[20]
R_13[21] + L_12[21]
R_13[22] + L_12[22]
R_13[23] + L_12[23]
R_13[24] + L_12[24]
R_13[25] + L_12[25]
R_13[26] + L_12[26]
R_13[27] + L_12[27]
R_13[28] + L_12[28]
R_13[29] + L_12[29]
R_13[30] + L_12[30]
R_13[31] + L_12[31]
L_13[0] + R_12[0] + K_12[0] + L_12[2] + AND(L_12[8],L_12[1])
L_13[1] + R_12[1] + K_12[1] + L_12[3] + AND(L_12[9],L_12[2])
L_13[2] + R_12[2] + K_12[2] + L_12[4] + AND(L_12[10],L_12[3])
L_13[3] + R_12[3] + K_12[3] + L_12[5] + AND(L_12[11],L_12[4])
L_13[4] + R_12[4] + K_12[4] + L_12[6] + AND(L_12[12],L_12[5])
L_13[5] + R_12[5] + K_12[5] + L_12[7] + AND(L_12[13],L_12[6])
L_13[6] + R_12[6] + K_12[6] + L_12[8] + AND(L_12[14],L_12[7])
L_13[7] + R_12[7] + K_12[7] + L_12[9] + AND(L_12[15],L_12[8])
L_13[8] + R_12[8] + K_12[8] + L_12[10] + AND(L_12[16],L_12[9])
L_13[9] + R_12[9] + K_12[9] + L_12[11] + AND(L_12[17],L_12[10])
L_13[10] + R_12[10] + K_12[10] + L_12[12] + AND(L_12[18],L_12[11])
L_13[11] + R_12[11] + K_12[11] + L_12[13] + AND(L_12[19],L_12[12])
L_13[12] + R_12[12] + K_12[12] + L_12[14] + AND(L_12[20],L_12[13])
L_13[13] + R_12[13] + K_12[13] + L_12[15] + AND(L_12[21],L_12[14])
L_13[14] + R_12[14] + K_12[14] + L_12[16] + AND(L_12[22],L_12[15])
L_13[15] + R_12[15] + K_12[15] + L_12[17] + AND(L_12[23],L_12[16])
L_13[16] + R_12[16] + K_12[16] + L_12[18] + AND(L_12[24],L_12[17])
L_13[17] + R_12[17] + K_12[17] + L_12[19] + AND(L_12[25],L_12[18])
L_13[18] + R_12[18] + K_12[18] + L_12[20] + AND(L_12[26],L_12[19])
L_13[19] + R_12[19] + K_12[19] + L_12[21] + AND(L_12[27],L_12[20])
L_13[20] + R_12[20] + K_12[20] + L_12[22] + AND(L_12[28],L_12[21])
L_13[21] + R_12[21] + K_12[21] + L_12[23] + AND(L_12[29],L_12[22])
L_13[22] + R_12[22] + K_12[22] + L_12[24] + AND(L_12[30],L_12[23])
L_13[23] + R_12[23] + K_12[23] + L_12[25] + AND(L_12[31],L_12[24])
L_13[24] + R_12[24] + K_12[24] + L_12[26] + AND(L_12[0],L_12[25])
L_13[25] + R_12[25] + K_12[25] + L_12[27] + AND(L_12[1],L_12[26])
L_13[26] + R_12[26] + K_12[26] + L_12[28] + AND(L_12[2],L_12[27])
L_13[27] + R_12[27] + K_12[27] + L_12[29] + AND(L_12[3],L_12[28])
L_13[28] + R_12[28] + K_12[28] + L_12[30] + AND(L_12[4],L_12[29])
L_13[29] + R_12[29] + K_12[29] + L_12[31] + AND(L_12[5],L_12[30])
L_13[30] + R_12[30] + K_12[30] + L_12[0] + AND(L_12[6],L_12[31])
L_13[31] + R_12[31] + K_12[31] + L_12[1] + AND(L_12[7],L_12[0])
R_14[0] + L_13[0]
R_14[1] + L_13[1]
R_14[2] + L_13[2]
R_14[3] + L_13[3]
R_14[4] + L_13[4]
R_14[5] + L_13[5]
R_14[6] + L_13[6]
R_14[7] + L_13[7]
R_14[8] + L_13[8]
R_14[9] + L_13[9]
R_14[10] + L_13[10]
R_14[11] + L_13[11]
R_14[12] + L_13[12]
R_14[13] + L_13[13]
R_14[14] + L_13[14]
R_14[15] + L_13[15]
R_14[16] + L_13[16]
R_14[17] + L_13[17]
R_14[18] + L_13[18]
R_14[19] + L_13[19]
R_14[20] + L_13[20]
R_14[21] + L_13[21]
R_14[22] + L_13[22]
R_14[23] + L_13[23]
R_14[24] + L_13[24]
R_14[25] + L_13[25]
R_14[26] + L_13[26]
R_14[27] + L_13[27]
R_14[28] + L_13[28]
R_14[29] + L_13[29]
R_14[30] + L_13[30]
R_14[31] + L_13[31]
L_14[0] + R_13[0] + K_13[0] + L_13[2] + AND(L_13[8],L_13[1])
L_14[1] + R_13[1] + K_13[1] + L_13[3] + AND(L_13[9],L_13[2])
L_14[2] + R_13[2] + K_13[2] + L_13[4] + AND(L_13[10],L_13[3])
L_14[3] + R_13[3] + K_13[3] + L_13[5] + AND(L_13[11],L_13[4])
L_14[4] + R_13[4] + K_13[4] + L_13[6] + AND(L_13[12],L_13[5])
L_14[5] + R_13[5] + K_13[5] + L_13[7] + AND(L_13[13],L_13[6])
L_14[6] + R_13[6] + K_13[6] + L_13[8] + AND(L_13[14],L_13[7])
L_14[7] + R_13[7] + K_13[7] + L_13[9] + AND(L_13[15],L_13[8])
L_14[8] + R_13[8] + K_13[8] + L_13[10] + AND(L_13[16],L_13[9])
L_14[9] + R_13[9] + K_13[9] + L_13[11] + AND(L_13[17],L_13[10])
L_14[10] + R_13[10] + K_13[10] + L_13[12] + AND(L_13[18],L_13[11])
L_14[11] + R_13[11] + K_13[11] + L_13[13] + AND(L_13[19],L_13[12])
L_14[12] + R_13[12] + K_13[12] + L_13[14] + AND(L_13[20],L_13[13])
L_14[13] + R_13[13] + K_13[13] + L_13[15] + AND(L_13[21],L_13[14])
L_14[14] + R_13[14] + K_13[14] + L_13[16] + AND(L_13[22],L_13[15])
L_14[15] + R_13[15] + K_13[15] + L_13[17] + AND(L_13[23],L_13[16])
L_14[16] + R_13[16] + K_13[16] + L_13[18] + AND(L_13[24],L_13[17])
L_14[17] + R_13[17] + K_13[17] + L_13[19] + AND(L_13[25],L_13[18])
L_14[18] + R_13[18] + K_13[18] + L_13[20] + AND(L_13[26],L_13[19])
L_14[19] + R_13[19] + K_13[19] + L_13[21] + AND(L_13[27],L_13[20])
L_14[20] + R_13[20] + K_13[20] + L_13[22] + AND(L_13[28],L_13[21])
L_14[21] + R_13[21] + K_13[21] + L_13[23] + AND(L_13[29],L_13[22])
L_14[22] + R_13[22] + K_13[22] + L_13[24] + AND(L_13[30],L_13[23])
L_14[23] + R_13[23] + K_13[23] + L_13[25] + AND(L_13[31],L_13[24])
L_14[24] + R_13[24] + K_13[24] + L_13[26] + AND(L_13[0],L_13[25])
L_14[25] + R_13[25] + K_13[25] + L_13[27] + AND(L_13[1],L_13[26])
L_14[26] + R_13[26] + K_13[26] + L_13[28] + AND(L_13[2],L_13[27])
L_14[27] + R_13[27] + K_13[27] + L_13[29] + AND(L_13[3],L_13[28])
L_14[28] + R_13[28] + K_13[28] + L_13[30] + AND(L_13[4],L_13[29])
L_14[29] + R_13[29] + K_13[29] + L_13[31] + AND(L_13[5],L_13[30])
L_14[30] + R_13[30] + K_13[30] + L_13[0] + AND(L_13[6],L_13[31])
L_14[31] + R_13[31] + K_13[31] + L_13[1] + AND(L_13[7],L_13[0])
R_15[0] + L_14[0]
R_15[1] + L_14[1]
R_15[2] + L_14[2]
R_15[3] + L_14[3]
R_15[4] + L_14[4]
R_15[5] + L_14[5]
R_15[6] + L_14[6]
R_15[7] + L_14[7]
R_15[8] + L_14[8]
R_15[9] + L_14[9]
R_15[10] + L_14[10]
R_15[11] + L_14[11]
R_15[12] + L_14[12]
R_15[13] + L_14[13]
R_15[14] + L_14[14]
R_15[15] + L_14[15]
R_15[16] + L_14[16]
R_15[17] + L_14[17]
R_15[18] + L_14[18]
R_15[19] + L_14[19]
R_15[20] + L_14[20]
R_15[21] + L_14[21]
R_15[22] + L_14[22]
R_15[23] + L_14[23]
R_15[24] + L_14[24]
R_15[25] + L_14[25]
R_15[26] + L_14[26]
R_15[27] + L_14[27]
R_15[28] + L_14[28]
R_15[29] + L_14[29]
R_15[30] + L_14[30]
R_15[31] + L_14[31]
L_15[0] + R_14[0] + K_14[0] + L_14[2] + AND(L_14[8],L_14[1])
L_15[1] + R_14[1] + K_14[1] + L_14[3] + AND(L_14[9],L_14[2])
L_15[2] + R_14[2] + K_14[2] + L_14[4] + AND(L_14[10],L_14[3])
L_15[3] + R_14[3] + K_14[3] + L_14[5] + AND(L_14[11],L_14[4])
L_15[4] + R_14[4] + K_14[4] + L_14[6] + AND(L_14[12],L_14[5])
L_15[5] + R_14[5] + K_14[5] + L_14[7] + AND(L_14[13],L_14[6])
L_15[6] + R_14[6] + K_14[6] + L_14[8] + AND(L_14[14],L_14[7])
L_15[7] + R_14[7] + K_14[7] + L_14[9] + AND(L_14[15],L_14[8])
L_15[8] + R_14[8] + K_14[8] + L_14[10] + AND(L_14[16],L_14[9])
L_15[9] + R_14[9] + K_14[9] + L_14[11] + AND(L_14[17],L_14[10])
L_15[10] + R_14[10] + K_14[10] + L_14[12] + AND(L_14[18],L_14[11])
L_15[11] + R_14[11] + K_14[11] + L_14[13] + AND(L_14[19],L_14[12])
L_15[12] + R_14[12] + K_14[12] + L_14[14] + AND(L_14[20],L_14[13])
L_15[13] + R_14[13] + K_14[13] + L_14[15] + AND(L_14[21],L_14[14])
L_15[14] + R_14[14] + K_14[14] + L_14[16] + AND(L_14[22],L_14[15])
L_15[15] + R_14[15] + K_14[15] + L_14[17] + AND(L_14[23],L_14[16])
L_15[16] + R_14[16] + K_14[16] + L_14[18] + AND(L_14[24],L_14[17])
L_15[17] + R_14[17] + K_14[17] + L_14[19] + AND(L_14[25],L_14[18])
L_15[18] + R_14[18] + K_14[18] + L_14[20] + AND(L_14[26],L_14[19])
L_15[19] + R_14[19] + K_14[19] + L_14[21] + AND(L_14[27],L_14[20])
L_15[20] + R_14[20] + K_14[20] + L_14[22] + AND(L_14[28],L_14[21])
L_15[21] + R_14[21] + K_14[21] + L_14[23] + AND(L_14[29],L_14[22])
L_15[22] + R_14[22] + K_14[22] + L_14[24] + AND(L_14[30],L_14[23])
L_15[23] + R_14[23] + K_14[23] + L_14[25] + AND(L_14[31],L_14[24])
L_15[24] + R_14[24] + K_14[24] + L_14[26] + AND(L_14[0],L_14[25])
L_15[25] + R_14[25] + K_14[25] + L_14[27] + AND(L_14[1],L_14[26])
L_15[26] + R_14[26] + K_14[26] + L_14[28] + AND(L_14[2],L_14[27])
L_15[27] + R_14[27] + K_14[27] + L_14[29] + AND(L_14[3],L_14[28])
L_15[28] + R_14[28] + K_14[28] + L_14[30] + AND(L_14[4],L_14[29])
L_15[29] + R_14[29] + K_14[29] + L_14[31] + AND(L_14[5],L_14[30])
L_15[30] + R_14[30] + K_14[30] + L_14[0] + AND(L_14[6],L_14[31])
L_15[31] + R_14[31] + K_14[31] + L_14[1] + AND(L_14[7],L_14[0])
R_16[0] + L_15[0]
R_16[1] + L_15[1]
R_16[2] + L_15[2]
R_16[3] + L_15[3]
R_16[4] + L_15[4]
R_16[5] + L_15[5]
R_16[6] + L_15[6]
R_16[7] + L_15[7]
R_16[8] + L_15[8]
R_16[9] + L_15[9]
R_16[10] + L_15[10]
R_16[11] + L_15[11]
R_16[12] + L_15[12]
R_16[13] + L_15[13]
R_16[14] + L_15[14]
R_16[15] + L_15[15]
R_16[16] + L_15[16]
R_16[17] + L_15[17]
R_16[18] + L_15[18]
R_16[19] + L_15[19]
R_16[20] + L_15[20]
R_16[21] + L_15[21]
R_16[22] + L_15[22]
R_16[23] + L_15[23]
R_16[24] + L_15[24]
R_16[25] + L_15[25]
R_16[26] + L_15[26]
R_16[27] + L_15[27]
R_16[28] + L_15[28]
R_16[29] + L_15[29]
R_16[30] + L_15[30]
R_16[31] + L_15[31]
L_16[0] + R_15[0] + K_15[0] + L_15[2] + AND(L_15[8],L_15[1])
L_16[1] + R_15[1] + K_15[1] + L_15[3] + AND(L_15[9],L_15[2])
L_16[2] + R_15[2] + K_15[2] + L_15[4] + AND(L_15[10],L_15[3])
L_16[3] + R_15[3] + K_15[3] + L_15[5] + AND(L_15[11],L_15[4])
L_16[4] + R_15[4] + K_15[4] + L_15[6] + AND(L_15[12],L_15[5])
L_16[5] + R_15[5] + K_15[5] + L_15[7] + AND(L_15[13],L_15[6])
L_16[6] + R_15[6] + K_15[6] + L_15[8] + AND(L_15[14],L_15[7])
L_16[7] + R_15[7] + K_15[7] + L_15[9] + AND(L_15[15],L_15[8])
L_16[8] + R_15[8] + K_15[8] + L_15[10] + AND(L_15[16],L_15[9])
L_16[9] + R_15[9] + K_15[9] + L_15[11] + AND(L_15[17],L_15[10])
L_16[10] + R_15[10] + K_15[10] + L_15[12] + AND(L_15[18],L_15[11])
L_16[11] + R_15[11] + K_15[11] + L_15[13] + AND(L_15[19],L_15[12])
L_16[12] + R_15[12] + K_15[12] + L_15[14] + AND(L_15[20],L_15[13])
L_16[13] + R_15[13] + K_15[13] + L_15[15] + AND(L_15[21],L_15[14])
L_16[14] + R_15[14] + K_15[14] + L_15[16] + AND(L_15[22],L_15[15])
L_16[15] + R_15[15] + K_15[15] + L_15[17] + AND(L_15[23],L_15[16])
L_16[16] + R_15[16] + K_15[16] + L_15[18] + AND(L_15[24],L_15[17])
L_16[17] + R_15[17] + K_15[17] + L_15[19] + AND(L_15[25],L_15[18])
L_16[18] + R_15[18] + K_15[18] + L_15[20] + AND(L_15[26],L_15[19])
L_16[19] + R_15[19] + K_15[19] + L_15[21] + AND(L_15[27],L_15[20])
L_16[20] + R_15[20] + K_15[20] + L_15[22] + AND(L_15[28],L_15[21])
L_16[21] + R_15[21] + K_15[21] + L_15[23] + AND(L_15[29],L_15[22])
L_16[22] + R_15[22] + K_15[22] + L_15[24] + AND(L_15[30],L_15[23])
L_16[23] + R_15[23] + K_15[23] + L_15[25] + AND(L_15[31],L_15[24])
L_16[24] + R_15[24] + K_15[24] + L_15[26] + AND(L_15[0],L_15[25])
L_16[25] + R_15[25] + K_15[25] + L_15[27] + AND(L_15[1],L_15[26])
L_16[26] + R_15[26] + K_15[26] + L_15[28] + AND(L_15[2],L_15[27])
L_16[27] + R_15[27] + K_15[27] + L_15[29] + AND(L_15[3],L_15[28])
L_16[28] + R_15[28] + K_15[28] + L_15[30] + AND(L_15[4],L_15[29])
L_16[29] + R_15[29] + K_15[29] + L_15[31] + AND(L_15[5],L_15[30])
L_16[30] + R_15[30] + K_15[30] + L_15[0] + AND(L_15[6],L_15[31])
L_16[31] + R_15[31] + K_15[31] + L_15[1] + AND(L_15[7],L_15[0])
R_17[0] + L_16[0]
R_17[1] + L_16[1]
R_17[2] + L_16[2]
R_17[3] + L_16[3]
R_17[4] + L_16[4]
R_17[5] + L_16[5]
R_17[6] + L_16[6]
R_17[7] + L_16[7]
R_17[8] + L_16[8]
R_17[9] + L_16[9]
R_17[10] + L_16[10]
R_17[11] + L_16[11]
R_17[12] + L_16[12]
R_17[13] + L_16[13]
R_17[14] + L_16[14]
R_17[15] + L_16[15]
R_17[16] + L_16[16]
R_17[17] + L_16[17]
R_17[18] + L_16[18]
R_17[19] + L_16[19]
R_17[20] + L_16[20]
R_17[21] + L_16[21]
R_17[22] + L_16[22]
R_17[23] + L_16[23]
R_17[24] + L_16[24]
R_17[25] + L_16[25]
R_17[26] + L_16[26]
R_17[27] + L_16[27]
R_17[28] + L_16[28]
R_17[29] + L_16[29]
R_17[30] + L_16[30]
R_17[31] + L_16[31]
L_17[0] + R_16[0] + K_16[0] + L_16[2] + AND(L_16[8],L_16[1])
L_17[1] + R_16[1] + K_16[1] + L_16[3] + AND(L_16[9],L_16[2])
L_17[2] + R_16[2] + K_16[2] + L_16[4] + AND(L_16[10],L_16[3])
L_17[3] + R_16[3] + K_16[3] + L_16[5] + AND(L_16[11],L_16[4])
L_17[4] + R_16[4] + K_16[4] + L_16[6] + AND(L_16[12],L_16[5])
L_17[5] + R_16[5] + K_16[5] + L_16[7] + AND(L_16[13],L_16[6])
L_17[6] + R_16[6] + K_16[6] + L_16[8] + AND(L_16[14],L_16[7])
L_17[7] + R_16[7] + K_16[7] + L_16[9] + AND(L_16[15],L_16[8])
L_17[8] + R_16[8] + K_16[8] + L_16[10] + AND(L_16[16],L_16[9])
L_17[9] + R_16[9] + K_16[9] + L_16[11] + AND(L_16[17],L_16[10])
L_17[10] + R_16[10] + K_16[10] + L_16[12] + AND(L_16[18],L_16[11])
L_17[11] + R_16[11] + K_16[11] + L_16[13] + AND(L_16[19],L_16[12])
L_17[12] + R_16[12] + K_16[12] + L_16[14] + AND(L_16[20],L_16[13])
L_17[13] + R_16[13] + K_16[13] + L_16[15] + AND(L_16[21],L_16[14])
L_17[14] + R_16[14] + K_16[14] + L_16[16] + AND(L_16[22],L_16[15])
L_17[15] + R_16[15] + K_16[15] + L_16[17] + AND(L_16[23],L_16[16])
L_17[16] + R_16[16] + K_16[16] + L_16[18] + AND(L_16[24],L_16[17])
L_17[17] + R_16[17] + K_16[17] + L_16[19] + AND(L_16[25],L_16[18])
L_17[18] + R_16[18] + K_16[18] + L_16[20] + AND(L_16[26],L_16[19])
L_17[19] + R_16[19] + K_16[19] + L_16[21] + AND(L_16[27],L_16[20])
L_17[20] + R_16[20] + K_16[20] + L_16[22] + AND(L_16[28],L_16[21])
L_17[21] + R_16[21] + K_16[21] + L_16[23] + AND(L_16[29],L_16[22])
L_17[22] + R_16[22] + K_16[22] + L_16[24] + AND(L_16[30],L_16[23])
L_17[23] + R_16[23] + K_16[23] + L_16[25] + AND(L_16[31],L_16[24])
L_17[24] + R_16[24] + K_16[24] + L_16[26] + AND(L_16[0],L_16[25])
L_17[25] + R_16[25] + K_16[25] + L_16[27] + AND(L_16[1],L_16[26])
L_17[26] + R_16[26] + K_16[26] + L_16[28] + AND(L_16[2],L_16[27])
L_17[27] + R_16[27] + K_16[27] + L_16[29] + AND(L_16[3],L_16[28])
L_17[28] + R_16[28] + K_16[28] + L_16[30] + AND(L_16[4],L_16[29])
L_17[29] + R_16[29] + K_16[29] + L_16[31] + AND(L_16[5],L_16[30])
L_17[30] + R_16[30] + K_16[30] + L_16[0] + AND(L_16[6],L_16[31])
L_17[31] + R_16[31] + K_16[31] + L_16[1] + AND(L_16[7],L_16[0])
R_18[0] + L_17[0]
R_18[1] + L_17[1]
R_18[2] + L_17[2]
R_18[3] + L_17[3]
R_18[4] + L_17[4]
R_18[5] + L_17[5]
R_18[6] + L_17[6]
R_18[7] + L_17[7]
R_18[8] + L_17[8]
R_18[9] + L_17[9]
R_18[10] + L_17[10]
R_18[11] + L_17[11]
R_18[12] + L_17[12]
R_18[13] + L_17[13]
R_18[14] + L_17[14]
R_18[15] + L_17[15]
R_18[16] + L_17[16]
R_18[17] + L_17[17]
R_18[18] + L_17[18]
R_18[19] + L_17[19]
R_18[20] + L_17[20]
R_18[21] + L_17[21]
R_18[22] + L_17[22]
R_18[23] + L_17[23]
R_18[24] + L_17[24]
R_18[25] + L_17[25]
R_18[26] + L_17[26]
R_18[27] + L_17[27]
R_18[28] + L_17[28]
R_18[29] + L_17[29]
R_18[30] + L_17[30]
R_18[31] + L_17[31]
L_18[0] + R_17[0] + K_17[0] + L_17[2] + AND(L_17[8],L_17[1])
L_18[1] + R_17[1] + K_17[1] + L_17[3] + AND(L_17[9],L_17[2])
L_18[2] + R_17[2] + K_17[2] + L_17[4] + AND(L_17[10],L_17[3])
L_18[3] + R_17[3] + K_17[3] + L_17[5] + AND(L_17[11],L_17[4])
L_18[4] + R_17[4] + K_17[4] + L_17[6] + AND(L_17[12],L_17[5])
L_18[5] + R_17[5] + K_17[5] + L_17[7] + AND(L_17[13],L_17[6])
L_18[6] + R_17[6] + K_17[6] + L_17[8] + AND(L_17[14],L_17[7])
L_18[7] + R_17[7] + K_17[7] + L_17[9] + AND(L_17[15],L_17[8])
L_18[8] + R_17[8] + K_17[8] + L_17[10] + AND(L_17[16],L_17[9])
L_18[9] + R_17[9] + K_17[9] + L_17[11] + AND(L_17[17],L_17[10])
L_18[10] + R_17[10] + K_17[10] + L_17[12] + AND(L_17[18],L_17[11])
L_18[11] + R_17[11] + K_17[11] + L_17[13] + AND(L_17[19],L_17[12])
L_18[12] + R_17[12] + K_17[12] + L_17[14] + AND(L_17[20],L_17[13])
L_18[13] + R_17[13] + K_17[13] + L_17[15] + AND(L_17[21],L_17[14])
L_18[14] + R_17[14] + K_17[14] + L_17[16] + AND(L_17[22],L_17[15])
L_18[15] + R_17[15] + K_17[15] + L_17[17] + AND(L_17[23],L_17[16])
L_18[16] + R_17[16] + K_17[16] + L_17[18] + AND(L_17[24],L_17[17])
L_18[17] + R_17[17] + K_17[17] + L_17[19] + AND(L_17[25],L_17[18])
L_18[18] + R_17[18] + K_17[18] + L_17[20] + AND(L_17[26],L_17[19])
L_18[19] + R_17[19] + K_17[19] + L_17[21] + AND(L_17[27],L_17[20])
L_18[20] + R_17[20] + K_17[20] + L_17[22] + AND(L_17[28],L_17[21])
L_18[21] + R_17[21] + K_17[21] + L_17[23] + AND(L_17[29],L_17[22])
L_18[22] + R_17[22] + K_17[22] + L_17[24] + AND(L_17[30],L_17[23])
L_18[23] + R_17[23] + K_17[23] + L_17[25] + AND(L_17[31],L_17[24])
L_18[24] + R_17[24] + K_17[24] + L_17[26] + AND(L_17[0],L_17[25])
L_18[25] + R_17[25] + K_17[25] + L_17[27] + AND(L_17[1],L_17[26])
L_18[26] + R_17[26] + K_17[26] + L_17[28] + AND(L_17[2],L_17[27])
L_18[27] + R_17[27] + K_17[27] + L_17[29] + AND(L_17[3],L_17[28])
L_18[28] + R_17[28] + K_17[28] + L_17[30] + AND(L_17[4],L_17[29])
L_18[29] + R_17[29] + K_17[29] + L_17[31] + AND(L_17[5],L_17[30])
L_18[30] + R_17[30] + K_17[30] + L_17[0] + AND(L_17[6],L_17[31])
L_18[31] + R_17[31] + K_17[31] + L_17[1] + AND(L_17[7],L_17[0])
R_19[0] + L_18[0]
R_19[1] + L_18[1]
R_19[2] + L_18[2]
R_19[3] + L_18[3]
R_19[4] + L_18[4]
R_19[5] + L_18[5]
R_19[6] + L_18[6]
R_19[7] + L_18[7]
R_19[8] + L_18[8]
R_19[9] + L_18[9]
R_19[10] + L_18[10]
R_19[11] + L_18[11]
R_19[12] + L_18[12]
R_19[13] + L_18[13]
R_19[14] + L_18[14]
R_19[15] + L_18[15]
R_19[16] + L_18[16]
R_19[17] + L_18[17]
R_19[18] + L_18[18]
R_19[19] + L_18[19]
R_19[20] + L_18[20]
R_19[21] + L_18[21]
R_19[22] + L_18[22]
R_19[23] + L_18[23]
R_19[24] + L_18[24]
R_19[25] + L_18[25]
R_19[26] + L_18[26]
R_19[27] + L_18[27]
R_19[28] + L_18[28]
R_19[29] + L_18[29]
R_19[30] + L_18[30]
R_19[31] + L_18[31]
L_19[0] + R_18[0] + K_18[0] + L_18[2] + AND(L_18[8],L_18[1])
L_19[1] + R_18[1] + K_18[1] + L_18[3] + AND(L_18[9],L_18[2])
L_19[2] + R_18[2] + K_18[2] + L_18[4] + AND(L_18[10],L_18[3])
L_19[3] + R_18[3] + K_18[3] + L_18[5] + AND(L_18[11],L_18[4])
L_19[4] + R_18[4] + K_18[4] + L_18[6] + AND(L_18[12],L_18[5])
L_19[5] + R_18[5] + K_18[5] + L_18[7] + AND(L_18[13],L_18[6])
L_19[6] + R_18[6] + K_18[6] + L_18[8] + AND(L_18[14],L_18[7])
L_19[7] + R_18[7] + K_18[7] + L_18[9] + AND(L_18[15],L_18[8])
L_19[8] + R_18[8] + K_18[8] + L_18[10] + AND(L_18[16],L_18[9])
L_19[9] + R_18[9] + K_18[9] + L_18[11] + AND(L_18[17],L_18[10])
L_19[10] + R_18[10] + K_18[10] + L_18[12] + AND(L_18[18],L_18[11])
L_19[11] + R_18[11] + K_18[11] + L_18[13] + AND(L_18[19],L_18[12])
L_19[12] + R_18[12] + K_18[12] + L_18[14] + AND(L_18[20],L_18[13])
L_19[13] + R_18[13] + K_18[13] + L_18[15] + AND(L_18[21],L_18[14])
L_19[14] + R_18[14] + K_18[14] + L_18[16] + AND(L_18[22],L_18[15])
L_19[15] + R_18[15] + K_18[15] + L_18[17] + AND(L_18[23],L_18[16])
L_19[16] + R_18[16] + K_18[16] + L_18[18] + AND(L_18[24],L_18[17])
L_19[17] + R_18[17] + K_18[17] + L_18[19] + AND(L_18[25],L_18[18])
L_19[18] + R_18[18] + K_18[18] + L_18[20] + AND(L_18[26],L_18[19])
L_19[19] + R_18[19] + K_18[19] + L_18[21] + AND(L_18[27],L_18[20])
L_19[20] + R_18[20] + K_18[20] + L_18[22] + AND(L_18[28],L_18[21])
L_19[21] + R_18[21] + K_18[21] + L_18[23] + AND(L_18[29],L_18[22])
L_19[22] + R_18[22] + K_18[22] + L_18[24] + AND(L_18[30],L_18[23])
L_19[23] + R_18[23] + K_18[23] + L_18[25] + AND(L_18[31],L_18[24])
L_19[24] + R_18[24] + K_18[24] + L_18[26] + AND(L_18[0],L_18[25])
L_19[25] + R_18[25] + K_18[25] + L_18[27] + AND(L_18[1],L_18[26])
L_19[26] + R_18[26] + K_18[26] + L_18[28] + AND(L_18[2],L_18[27])
L_19[27] + R_18[27] + K_18[27] + L_18[29] + AND(L_18[3],L_18[28])
L_19[28] + R_18[28] + K_18[28] + L_18[30] + AND(L_18[4],L_18[29])
L_19[29] + R_18[29] + K_18[29] + L_18[31] + AND(L_18[5],L_18[30])
L_19[30] + R_18[30] + K_18[30] + L_18[0] + AND(L_18[6],L_18[31])
L_19[31] + R_18[31] + K_18[31] + L_18[1] + AND(L_18[7],L_18[0])
R_20[0] + L_19[0]
R_20[1] + L_19[1]
R_20[2] + L_19[2]
R_20[3] + L_19[3]
R_20[4] + L_19[4]
R_20[5] + L_19[5]
R_20[6] + L_19[6]
R_20[7] + L_19[7]
R_20[8] + L_19[8]
R_20[9] + L_19[9]
R_20[10] + L_19[10]
R_20[11] + L_19[11]
R_20[12] + L_19[12]
R_20[13] + L_19[13]
R_20[14] + L_19[14]
R_20[15] + L_19[15]
R_20[16] + L_19[16]
R_20[17] + L_19[17]
R_20[18] + L_19[18]
R_20[19] + L_19[19]
R_20[20] + L_19[20]
R_20[21] + L_19[21]
R_20[22] + L_19[22]
R_20[23] + L_19[23]
R_20[24] + L_19[24]
R_20[25] + L_19[25]
R_20[26] + L_19[26]
R_20[27] + L_19[27]
R_20[28] + L_19[28]
R_20[29] + L_19[29]
R_20[30] + L_19[30]
R_20[31] + L_19[31]
L_20[0] + R_19[0] + K_19[0] + L_19[2] + AND(L_19[8],L_19[1])
L_20[1] + R_19[1] + K_19[1] + L_19[3] + AND(L_19[9],L_19[2])
L_20[2] + R_19[2] + K_19[2] + L_19[4] + AND(L_19[10],L_19[3])
L_20[3] + R_19[3] + K_19[3] + L_19[5] + AND(L_19[11],L_19[4])
L_20[4] + R_19[4] + K_19[4] + L_19[6] + AND(L_19[12],L_19[5])
L_20[5] + R_19[5] + K_19[5] + L_19[7] + AND(L_19[13],L_19[6])
L_20[6] + R_19[6] + K_19[6] + L_19[8] + AND(L_19[14],L_19[7])
L_20[7] + R_19[7] + K_19[7] + L_19[9] + AND(L_19[15],L_19[8])
L_20[8] + R_19[8] + K_19[8] + L_19[10] + AND(L_19[16],L_19[9])
L_20[9] + R_19[9] + K_19[9] + L_19[11] + AND(L_19[17],L_19[10])
L_20[10] + R_19[10] + K_19[10] + L_19[12] + AND(L_19[18],L_19[11])
L_20[11] + R_19[11] + K_19[11] + L_19[13] + AND(L_19[19],L_19[12])
L_20[12] + R_19[12] + K_19[12] + L_19[14] + AND(L_19[20],L_19[13])
L_20[13] + R_19[13] + K_19[13] + L_19[15] + AND(L_19[21],L_19[14])
L_20[14] + R_19[14] + K_19[14] + L_19[16] + AND(L_19[22],L_19[15])
L_20[15] + R_19[15] + K_19[15] + L_19[17] + AND(L_19[23],L_19[16])
L_20[16] + R_19[16] + K_19[16] + L_19[18] + AND(L_19[24],L_19[17])
L_20[17] + R_19[17] + K_19[17] + L_19[19] + AND(L_19[25],L_19[18])
L_20[18] + R_19[18] + K_19[18] + L_19[20] + AND(L_19[26],L_19[19])
L_20[19] + R_19[19] + K_19[19] + L_19[21] + AND(L_19[27],L_19[20])
L_20[20] + R_19[20] + K_19[20] + L_19[22] + AND(L_19[28],L_19[21])
L_20[21] + R_19[21] + K_19[21] + L_19[23] + AND(L_19[29],L_19[22])
L_20[22] + R_19[22] + K_19[22] + L_19[24] + AND(L_19[30],L_19[23])
L_20[23] + R_19[23] + K_19[23] + L_19[25] + AND(L_19[31],L_19[24])
L_20[24] + R_19[24] + K_19[24] + L_19[26] + AND(L_19[0],L_19[25])
L_20[25] + R_19[25] + K_19[25] + L_19[27] + AND(L_19[1],L_19[26])
L_20[26] + R_19[26] + K_19[26] + L_19[28] + AND(L_19[2],L_19[27])
L_20[27] + R_19[27] + K_19[27] + L_19[29] + AND(L_19[3],L_19[28])
L_20[28] + R_19[28] + K_19[28] + L_19[30] + AND(L_19[4],L_19[29])
L_20[29] + R_19[29] + K_19[29] + L_19[31] + AND(L_19[5],L_19[30])
L_20[30] + R_19[30] + K_19[30] + L_19[0] + AND(L_19[6],L_19[31])
L_20[31] + R_19[31] + K_19[31] + L_19[1] + AND(L_19[7],L_19[0])
R_21[0] + L_20[0]
R_21[1] + L_20[1]
R_21[2] + L_20[2]
R_21[3] + L_20[3]
R_21[4] + L_20[4]
R_21[5] + L_20[5]
R_21[6] + L_20[6]
R_21[7] + L_20[7]
R_21[8] + L_20[8]
R_21[9] + L_20[9]
R_21[10] + L_20[10]
R_21[11] + L_20[11]
R_21[12] + L_20[12]
R_21[13] + L_20[13]
R_21[14] + L_20[14]
R_21[15] + L_20[15]
R_21[16] + L_20[16]
R_21[17] + L_20[17]
R_21[18] + L_20[18]
R_21[19] + L_20[19]
R_21[20] + L_20[20]
R_21[21] + L_20[21]
R_21[22] + L_20[22]
R_21[23] + L_20[23]
R_21[24] + L_20[24]
R_21[25] + L_20[25]
R_21[26] + L_20[26]
R_21[27] + L_20[27]
R_21[28] + L_20[28]
R_21[29] + L_20[29]
R_21[30] + L_20[30]
R_21[31] + L_20[31]
L_21[0] + R_20[0] + K_20[0] + L_20[2] + AND(L_20[8],L_20[1])
L_21[1] + R_20[1] + K_20[1] + L_20[3] + AND(L_20[9],L_20[2])
L_21[2] + R_20[2] + K_20[2] + L_20[4] + AND(L_20[10],L_20[3])
L_21[3] + R_20[3] + K_20[3] + L_20[5] + AND(L_20[11],L_20[4])
L_21[4] + R_20[4] + K_20[4] + L_20[6] + AND(L_20[12],L_20[5])
L_21[5] + R_20[5] + K_20[5] + L_20[7] + AND(L_20[13],L_20[6])
L_21[6] + R_20[6] + K_20[6] + L_20[8] + AND(L_20[14],L_20[7])
L_21[7] + R_20[7] + K_20[7] + L_20[9] + AND(L_20[15],L_20[8])
L_21[8] + R_20[8] + K_20[8] + L_20[10] + AND(L_20[16],L_20[9])
L_21[9] + R_20[9] + K_20[9] + L_20[11] + AND(L_20[17],L_20[10])
L_21[10] + R_20[10] + K_20[10] + L_20[12] + AND(L_20[18],L_20[11])
L_21[11] + R_20[11] + K_20[11] + L_20[13] + AND(L_20[19],L_20[12])
L_21[12] + R_20[12] + K_20[12] + L_20[14] + AND(L_20[20],L_20[13])
L_21[13] + R_20[13] + K_20[13] + L_20[15] + AND(L_20[21],L_20[14])
L_21[14] + R_20[14] + K_20[14] + L_20[16] + AND(L_20[22],L_20[15])
L_21[15] + R_20[15] + K_20[15] + L_20[17] + AND(L_20[23],L_20[16])
L_21[16] + R_20[16] + K_20[16] + L_20[18] + AND(L_20[24],L_20[17])
L_21[17] + R_20[17] + K_20[17] + L_20[19] + AND(L_20[25],L_20[18])
L_21[18] + R_20[18] + K_20[18] + L_20[20] + AND(L_20[26],L_20[19])
L_21[19] + R_20[19] + K_20[19] + L_20[21] + AND(L_20[27],L_20[20])
L_21[20] + R_20[20] + K_20[20] + L_20[22] + AND(L_20[28],L_20[21])
L_21[21] + R_20[21] + K_20[21] + L_20[23] + AND(L_20[29],L_20[22])
L_21[22] + R_20[22] + K_20[22] + L_20[24] + AND(L_20[30],L_20[23])
L_21[23] + R_20[23] + K_20[23] + L_20[25] + AND(L_20[31],L_20[24])
L_21[24] + R_20[24] + K_20[24] + L_20[26] + AND(L_20[0],L_20[25])
L_21[25] + R_20[25] + K_20[25] + L_20[27] + AND(L_20[1],L_20[26])
L_21[26] + R_20[26] + K_20[26] + L_20[28] + AND(L_20[2],L_20[27])
L_21[27] + R_20[27] + K_20[27] + L_20[29] + AND(L_20[3],L_20[28])
L_21[28] + R_20[28] + K_20[28] + L_20[30] + AND(L_20[4],L_20[29])
L_21[29] + R_20[29] + K_20[29] + L_20[31] + AND(L_20[5],L_20[30])
L_21[30] + R_20[30] + K_20[30] + L_20[0] + AND(L_20[6],L_20[31])
L_21[31] + R_20[31] + K_20[31] + L_20[1] + AND(L_20[7],L_20[0])
R_22[0] + L_21[0]
R_22[1] + L_21[1]
R_22[2] + L_21[2]
R_22[3] + L_21[3]
R_22[4] + L_21[4]
R_22[5] + L_21[5]
R_22[6] + L_21[6]
R_22[7] + L_21[7]
R_22[8] + L_21[8]
R_22[9] + L_21[9]
R_22[10] + L_21[10]
R_22[11] + L_21[11]
R_22[12] + L_21[12]
R_22[13] + L_21[13]
R_22[14] + L_21[14]
R_22[15] + L_21[15]
R_22[16] + L_21[16]
R_22[17] + L_21[17]
R_22[18] + L_21[18]
R_22[19] + L_21[19]
R_22[20] + L_21[20]
R_22[21] + L_21[21]
R_22[22] + L_21[22]
R_22[23] + L_21[23]
R_22[24] + L_21[24]
R_22[25] + L_21[25]
R_22[26] + L_21[26]
R_22[27] + L_21[27]
R_22[28] + L_21[28]
R_22[29] + L_21[29]
R_22[30] + L_21[30]
R_22[31] + L_21[31]
L_22[0] + R_21[0] + K_21[0] + L_21[2] + AND(L_21[8],L_21[1])
L_22[1] + R_21[1] + K_21[1] + L_21[3] + AND(L_21[9],L_21[2])
L_22[2] + R_21[2] + K_21[2] + L_21[4] + AND(L_21[10],L_21[3])
L_22[3] + R_21[3] + K_21[3] + L_21[5] + AND(L_21[11],L_21[4])
L_22[4] + R_21[4] + K_21[4] + L_21[6] + AND(L_21[12],L_21[5])
L_22[5] + R_21[5] + K_21[5] + L_21[7] + AND(L_21[13],L_21[6])
L_22[6] + R_21[6] + K_21[6] + L_21[8] + AND(L_21[14],L_21[7])
L_22[7] + R_21[7] + K_21[7] + L_21[9] + AND(L_21[15],L_21[8])
L_22[8] + R_21[8] + K_21[8] + L_21[10] + AND(L_21[16],L_21[9])
L_22[9] + R_21[9] + K_21[9] + L_21[11] + AND(L_21[17],L_21[10])
L_22[10] + R_21[10] + K_21[10] + L_21[12] + AND(L_21[18],L_21[11])
L_22[11] + R_21[11] + K_21[11] + L_21[13] + AND(L_21[19],L_21[12])
L_22[12] + R_21[12] + K_21[12] + L_21[14] + AND(L_21[20],L_21[13])
L_22[13] + R_21[13] + K_21[13] + L_21[15] + AND(L_21[21],L_21[14])
L_22[14] + R_21[14] + K_21[14] + L_21[16] + AND(L_21[22],L_21[15])
L_22[15] + R_21[15] + K_21[15] + L_21[17] + AND(L_21[23],L_21[16])
L_22[16] + R_21[16] + K_21[16] + L_21[18] + AND(L_21[24],L_21[17])
L_22[17] + R_21[17] + K_21[17] + L_21[19] + AND(L_21[25],L_21[18])
L_22[18] + R_21[18] + K_21[18] + L_21[20] + AND(L_21[26],L_21[19])
L_22[19] + R_21[19] + K_21[19] + L_21[21] + AND(L_21[27],L_21[20])
L_22[20] + R_21[20] + K_21[20] + L_21[22] + AND(L_21[28],L_21[21])
L_22[21] + R_21[21] + K_21[21] + L_21[23] + AND(L_21[29],L_21[22])
L_22[22] + R_21[22] + K_21[22] + L_21[24] + AND(L_21[30],L_21[23])
L_22[23] + R_21[23] + K_21[23] + L_21[25] + AND(L_21[31],L_21[24])
L_22[24] + R_21[24] + K_21[24] + L_21[26] + AND(L_21[0],L_21[25])
L_22[25] + R_21[25] + K_21[25] + L_21[27] + AND(L_21[1],L_21[26])
L_22[26] + R_21[26] + K_21[26] + L_21[28] + AND(L_21[2],L_21[27])
L_22[27] + R_21[27] + K_21[27] + L_21[29] + AND(L_21[3],L_21[28])
L_22[28] + R_21[28] + K_21[28] + L_21[30] + AND(L_21[4],L_21[29])
L_22[29] + R_21[29] + K_21[29] + L_21[31] + AND(L_21[5],L_21[30])
L_22[30] + R_21[30] + K_21[30] + L_21[0] + AND(L_21[6],L_21[31])
L_22[31] + R_21[31] + K_21[31] + L_21[1] + AND(L_21[7],L_21[0])
P[0] + L_0[0]
P[32] + R_0[0]
C[0] + L_22[0]
C[32] + R_22[0]
P[1] + L_0[1]
P[33] + R_0[1]
C[1] + L_22[1]
C[33] + R_22[1]
P[2] + L_0[2]
P[34] + R_0[2]
C[2] + L_22[2]
C[34] + R_22[2]
P[3] + L_0[3]
P[35] + R_0[3]
C[3] + L_22[3]
C[35] + R_22[3]
P[4] + L_0[4]
P[36] + R_0[4]
C[4] + L_22[4]
C[36] + R_22[4]
P[5] + L_0[5]
P[37] + R_0[5]
C[5] + L_22[5]
C[37] + R_22[5]
P[6] + L_0[6]
P[38] + R_0[6]
C[6] + L_22[6]
C[38] + R_22[6]
P[7] + L_0[7]
P[39] + R_0[7]
C[7] + L_22[7]
C[39] + R_22[7]
P[8] + L_0[8]
P[40] + R_0[8]
C[8] + L_22[8]
C[40] + R_22[8]
P[9] + L_0[9]
P[41] + R_0[9]
C[9] + L_22[9]
C[41] + R_22[9]
P[10] + L_0[10]
P[42] + R_0[10]
C[10] + L_22[10]
C[42] + R_22[10]
P[11] + L_0[11]
P[43] + R_0[11]
C[11] + L_22[11]
C[43] + R_22[11]
P[12] + L_0[12]
P[44] + R_0[12]
C[12] + L_22[12]
C[44] + R_22[12]
P[13] + L_0[13]
P[45] + R_0[13]
C[13] + L_22[13]
C[45] + R_22[13]
P[14] + L_0[14]
P[46] + R_0[14]
C[14] + L_22[14]
C[46] + R_22[14]
P[15] + L_0[15]
P[47] + R_0[15]
C[15] + L_22[15]
C[47] + R_22[15]
P[16] + L_0[16]
P[48] + R_0[16]
C[16] + L_22[16]
C[48] + R_22[16]
P[17] + L_0[17]
P[49] + R_0[17]
C[17] + L_22[17]
C[49] + R_22[17]
P[18] + L_0[18]
P[50] + R_0[18]
C[18] + L_22[18]
C[50] + R_22[18]
P[19] + L_0[19]
P[51] + R_0[19]
C[19] + L_22[19]
C[51] + R_22[19]
P[20] + L_0[20]
P[52] + R_0[20]
C[20] + L_22[20]
C[52] + R_22[20]
P[21] + L_0[21]
P[53] + R_0[21]
C[21] + L_22[21]
C[53] + R_22[21]
P[22] + L_0[22]
P[54] + R_0[22]
C[22] + L_22[22]
C[54] + R_22[22]
P[23] + L_0[23]
P[55] + R_0[23]
C[23] + L_22[23]
C[55] + R_22[23]
P[24] + L_0[24]
P[56] + R_0[24]
C[24] + L_22[24]
C[56] + R_22[24]
P[25] + L_0[25]
P[57] + R_0[25]
C[25] + L_22[25]
C[57] + R_22[25]
P[26] + L_0[26]
P[58] + R_0[26]
C[26] + L_22[26]
C[58] + R_22[26]
P[27] + L_0[27]
P[59] + R_0[27]
C[27] + L_22[27]
C[59] + R_22[27]
P[28] + L_0[28]
P[60] + R_0[28]
C[28] + L_22[28]
C[60] + R_22[28]
P[29] + L_0[29]
P[61] + R_0[29]
C[29] + L_22[29]
C[61] + R_22[29]
P[30] + L_0[30]
P[62] + R_0[30]
C[30] + L_22[30]
C[62] + R_22[30]
P[31] + L_0[31]
P[63] + R_0[31]
C[31] + L_22[31]
C[63] + R_22[31]
K_3[0] + K_0[0] + K_2[29] + K_2[28]
K_3[1] + K_0[1] + K_2[30] + K_2[29]
K_3[2] + K_0[2] + K_2[31] + K_2[30]
K_3[3] + K_0[3] + K_2[0] + K_2[31]
K_3[4] + K_0[4] + K_2[1] + K_2[0]
K_3[5] + K_0[5] + K_2[2] + K_2[1]
K_3[6] + K_0[6] + K_2[3] + K_2[2]
K_3[7] + K_0[7] + K_2[4] + K_2[3]
K_3[8] + K_0[8] + K_2[5] + K_2[4]
K_3[9] + K_0[9] + K_2[6] + K_2[5]
K_3[10] + K_0[10] + K_2[7] + K_2[6]
K_3[11] + K_0[11] + K_2[8] + K_2[7]
K_3[12] + K_0[12] + K_2[9] + K_2[8]
K_3[13] + K_0[13] + K_2[10] + K_2[9]
K_3[14] + K_0[14] + K_2[11] + K_2[10]
K_3[15] + K_0[15] + K_2[12] + K_2[11]
K_3[16] + K_0[16] + K_2[13] + K_2[12]
K_3[17] + K_0[17] + K_2[14] + K_2[13]
K_3[18] + K_0[18] + K_2[15] + K_2[14]
K_3[19] + K_0[19] + K_2[16] + K_2[15]
K_3[20] + K_0[20] + K_2[17] + K_2[16]
K_3[21] + K_0[21] + K_2[18] + K_2[17]
K_3[22] + K_0[22] + K_2[19] + K_2[18]
K_3[23] + K_0[23] + K_2[20] + K_2[19]
K_3[24] + K_0[24] + K_2[21] + K_2[20]
K_3[25] + K_0[25] + K_2[22] + K_2[21]
K_3[26] + K_0[26] + K_2[23] + K_2[22]
K_3[27] + K_0[27] + K_2[24] + K_2[23]
K_3[28] + K_0[28] + K_2[25] + K_2[24]
K_3[29] + K_0[29] + K_2[26] + K_2[25]
K_3[30] + K_0[30] + K_2[27] + K_2[26]
K_3[31] + K_0[31] + K_2[28] + K_2[27]
K_4[0] + K_1[0] + K_3[29] + K_3[28]
K_4[1] + K_1[1] + K_3[30] + K_3[29]
K_4[2] + K_1[2] + K_3[31] + K_3[30]
K_4[3] + K_1[3] + K_3[0] + K_3[31]
K_4[4] + K_1[4] + K_3[1] + K_3[0]
K_4[5] + K_1[5] + K_3[2] + K_3[1]
K_4[6] + K_1[6] + K_3[3] + K_3[2]
K_4[7] + K_1[7] + K_3[4] + K_3[3]
K_4[8] + K_1[8] + K_3[5] + K_3[4]
K_4[9] + K_1[9] + K_3[6] + K_3[5]
K_4[10] + K_1[10] + K_3[7] + K_3[6]
K_4[11] + K_1[11] + K_3[8] + K_3[7]
K_4[12] + K_1[12] + K_3[9] + K_3[8]
K_4[13] + K_1[13] + K_3[10] + K_3[9]
K_4[14] + K_1[14] + K_3[11] + K_3[10]
K_4[15] + K_1[15] + K_3[12] + K_3[11]
K_4[16] + K_1[16] + K_3[13] + K_3[12]
K_4[17] + K_1[17] + K_3[14] + K_3[13]
K_4[18] + K_1[18] + K_3[15] + K_3[14]
K_4[19] + K_1[19] + K_3[16] + K_3[15]
K_4[20] + K_1[20] + K_3[17] + K_3[16]
K_4[21] + K_1[21] + K_3[18] + K_3[17]
K_4[22] + K_1[22] + K_3[19] + K_3[18]
K_4[23] + K_1[23] + K_3[20] + K_3[19]
K_4[24] + K_1[24] + K_3[21] + K_3[20]
K_4[25] + K_1[25] + K_3[22] + K_3[21]
K_4[26] + K_1[26] + K_3[23] + K_3[22]
K_4[27] + K_1[27] + K_3[24] + K_3[23]
K_4[28] + K_1[28] + K_3[25] + K_3[24]
K_4[29] + K_1[29] + K_3[26] + K_3[25]
K_4[30] + K_1[30] + K_3[27] + K_3[26]
K_4[31] + K_1[31] + K_3[28] + K_3[27]
K_5[0] + K_2[0] + K_4[29] + K_4[28]
K_5[1] + K_2[1] + K_4[30] + K_4[29]
K_5[2] + K_2[2] + K_4[31] + K_4[30]
K_5[3] + K_2[3] + K_4[0] + K_4[31]
K_5[4] + K_2[4] + K_4[1] + K_4[0]
K_5[5] + K_2[5] + K_4[2] + K_4[1]
K_5[6] + K_2[6] + K_4[3] + K_4[2]
K_5[7] + K_2[7] + K_4[4] + K_4[3]
K_5[8] + K_2[8] + K_4[5] + K_4[4]
K_5[9] + K_2[9] + K_4[6] + K_4[5]
K_5[10] + K_2[10] + K_4[7] + K_4[6]
K_5[11] + K_2[11] + K_4[8] + K_4[7]
K_5[12] + K_2[12] + K_4[9] + K_4[8]
K_5[13] + K_2[13] + K_4[10] + K_4[9]
K_5[14] + K_2[14] + K_4[11] + K_4[10]
K_5[15] + K_2[15] + K_4[12] + K_4[11]
K_5[16] + K_2[16] + K_4[13] + K_4[12]
K_5[17] + K_2[17] + K_4[14] + K_4[13]
K_5[18] + K_2[18] + K_4[15] + K_4[14]
K_5[19] + K_2[19] + K_4[16] + K_4[15]
K_5[20] + K_2[20] + K_4[17] + K_4[16]
K_5[21] + K_2[21] + K_4[18] + K_4[17]
K_5[22] + K_2[22] + K_4[19] + K_4[18]
K_5[23] + K_2[23] + K_4[20] + K_4[19]
K_5[24] + K_2[24] + K_4[21] + K_4[20]
K_5[25] + K_2[25] + K_4[22] + K_4[21]
K_5[26] + K_2[26] + K_4[23] + K_4[22]
K_5[27] + K_2[27] + K_4[24] + K_4[23]
K_5[28] + K_2[28] + K_4[25] + K_4[24]
K_5[29] + K_2[29] + K_4[26] + K_4[25]
K_5[30] + K_2[30] + K_4[27] + K_4[26]
K_5[31] + K_2[31] + K_4[28] + K_4[27]
K_6[0] + K_3[0] + K_5[29] + K_5[28]
K_6[1] + K_3[1] + K_5[30] + K_5[29]
K_6[2] + K_3[2] + K_5[31] + K_5[30]
K_6[3] + K_3[3] + K_5[0] + K_5[31]
K_6[4] + K_3[4] + K_5[1] + K_5[0]
K_6[5] + K_3[5] + K_5[2] + K_5[1]
K_6[6] + K_3[6] + K_5[3] + K_5[2]
K_6[7] + K_3[7] + K_5[4] + K_5[3]
K_6[8] + K_3[8] + K_5[5] + K_5[4]
K_6[9] + K_3[9] + K_5[6] + K_5[5]
K_6[10] + K_3[10] + K_5[7] + K_5[6]
K_6[11] + K_3[11] + K_5[8] + K_5[7]
K_6[12] + K_3[12] + K_5[9] + K_5[8]
K_6[13] + K_3[13] + K_5[10] + K_5[9]
K_6[14] + K_3[14] + K_5[11] + K_5[10]
K_6[15] + K_3[15] + K_5[12] + K_5[11]
K_6[16] + K_3[16] + K_5[13] + K_5[12]
K_6[17] + K_3[17] + K_5[14] + K_5[13]
K_6[18] + K_3[18] + K_5[15] + K_5[14]
K_6[19] + K_3[19] + K_5[16] + K_5[15]
K_6[20] + K_3[20] + K_5[17] + K_5[16]
K_6[21] + K_3[21] + K_5[18] + K_5[17]
K_6[22] + K_3[22] + K_5[19] + K_5[18]
K_6[23] + K_3[23] + K_5[20] + K_5[19]
K_6[24] + K_3[24] + K_5[21] + K_5[20]
K_6[25] + K_3[25] + K_5[22] + K_5[21]
K_6[26] + K_3[26] + K_5[23] + K_5[22]
K_6[27] + K_3[27] + K_5[24] + K_5[23]
K_6[28] + K_3[28] + K_5[25] + K_5[24]
K_6[29] + K_3[29] + K_5[26] + K_5[25]
K_6[30] + K_3[30] + K_5[27] + K_5[26]
K_6[31] + K_3[31] + K_5[28] + K_5[27]
K_7[0] + K_4[0] + K_6[29] + K_6[28]
K_7[1] + K_4[1] + K_6[30] + K_6[29]
K_7[2] + K_4[2] + K_6[31] + K_6[30]
K_7[3] + K_4[3] + K_6[0] + K_6[31]
K_7[4] + K_4[4] + K_6[1] + K_6[0]
K_7[5] + K_4[5] + K_6[2] + K_6[1]
K_7[6] + K_4[6] + K_6[3] + K_6[2]
K_7[7] + K_4[7] + K_6[4] + K_6[3]
K_7[8] + K_4[8] + K_6[5] + K_6[4]
K_7[9] + K_4[9] + K_6[6] + K_6[5]
K_7[10] + K_4[10] + K_6[7] + K_6[6]
K_7[11] + K_4[11] + K_6[8] + K_6[7]
K_7[12] + K_4[12] + K_6[9] + K_6[8]
K_7[13] + K_4[13] + K_6[10] + K_6[9]
K_7[14] + K_4[14] + K_6[11] + K_6[10]
K_7[15] + K_4[15] + K_6[12] + K_6[11]
K_7[16] + K_4[16] + K_6[13] + K_6[12]
K_7[17] + K_4[17] + K_6[14] + K_6[13]
K_7[18] + K_4[18] + K_6[15] + K_6[14]
K_7[19] + K_4[19] + K_6[16] + K_6[15]
K_7[20] + K_4[20] + K_6[17] + K_6[16]
K_7[21] + K_4[21] + K_6[18] + K_6[17]
K_7[22] + K_4[22] + K_6[19] + K_6[18]
K_7[23] + K_4[23] + K_6[20] + K_6[19]
K_7[24] + K_4[24] + K_6[21] + K_6[20]
K_7[25] + K_4[25] + K_6[22] + K_6[21]
K_7[26] + K_4[26] + K_6[23] + K_6[22]
K_7[27] + K_4[27] + K_6[24] + K_6[23]
K_7[28] + K_4[28] + K_6[25] + K_6[24]
K_7[29] + K_4[29] + K_6[26] + K_6[25]
K_7[30] + K_4[30] + K_6[27] + K_6[26]
K_7[31] + K_4[31] + K_6[28] + K_6[27]
K_8[0] + K_5[0] + K_7[29] + K_7[28]
K_8[1] + K_5[1] + K_7[30] + K_7[29]
K_8[2] + K_5[2] + K_7[31] + K_7[30]
K_8[3] + K_5[3] + K_7[0] + K_7[31]
K_8[4] + K_5[4] + K_7[1] + K_7[0]
K_8[5] + K_5[5] + K_7[2] + K_7[1]
K_8[6] + K_5[6] + K_7[3] + K_7[2]
K_8[7] + K_5[7] + K_7[4] + K_7[3]
K_8[8] + K_5[8] + K_7[5] + K_7[4]
K_8[9] + K_5[9] + K_7[6] + K_7[5]
K_8[10] + K_5[10] + K_7[7] + K_7[6]
K_8[11] + K_5[11] + K_7[8] + K_7[7]
K_8[12] + K_5[12] + K_7[9] + K_7[8]
K_8[13] + K_5[13] + K_7[10] + K_7[9]
K_8[14] + K_5[14] + K_7[11] + K_7[10]
K_8[15] + K_5[15] + K_7[12] + K_7[11]
K_8[16] + K_5[16] + K_7[13] + K_7[12]
K_8[17] + K_5[17] + K_7[14] + K_7[13]
K_8[18] + K_5[18] + K_7[15] + K_7[14]
K_8[19] + K_5[19] + K_7[16] + K_7[15]
K_8[20] + K_5[20] + K_7[17] + K_7[16]
K_8[21] + K_5[21] + K_7[18] + K_7[17]
K_8[22] + K_5[22] + K_7[19] + K_7[18]
K_8[23] + K_5[23] + K_7[20] + K_7[19]
K_8[24] + K_5[24] + K_7[21] + K_7[20]
K_8[25] + K_5[25] + K_7[22] + K_7[21]
K_8[26] + K_5[26] + K_7[23] + K_7[22]
K_8[27] + K_5[27] + K_7[24] + K_7[23]
K_8[28] + K_5[28] + K_7[25] + K_7[24]
K_8[29] + K_5[29] + K_7[26] + K_7[25]
K_8[30] + K_5[30] + K_7[27] + K_7[26]
K_8[31] + K_5[31] + K_7[28] + K_7[27]
K_9[0] + K_6[0] + K_8[29] + K_8[28]
K_9[1] + K_6[1] + K_8[30] + K_8[29]
K_9[2] + K_6[2] + K_8[31] + K_8[30]
K_9[3] + K_6[3] + K_8[0] + K_8[31]
K_9[4] + K_6[4] + K_8[1] + K_8[0]
K_9[5] + K_6[5] + K_8[2] + K_8[1]
K_9[6] + K_6[6] + K_8[3] + K_8[2]
K_9[7] + K_6[7] + K_8[4] + K_8[3]
K_9[8] + K_6[8] + K_8[5] + K_8[4]
K_9[9] + K_6[9] + K_8[6] + K_8[5]
K_9[10] + K_6[10] + K_8[7] + K_8[6]
K_9[11] + K_6[11] + K_8[8] + K_8[7]
K_9[12] + K_6[12] + K_8[9] + K_8[8]
K_9[13] + K_6[13] + K_8[10] + K_8[9]
K_9[14] + K_6[14] + K_8[11] + K_8[10]
K_9[15] + K_6[15] + K_8[12] + K_8[11]
K_9[16] + K_6[16] + K_8[13] + K_8[12]
K_9[17] + K_6[17] + K_8[14] + K_8[13]
K_9[18] + K_6[18] + K_8[15] + K_8[14]
K_9[19] + K_6[19] + K_8[16] + K_8[15]
K_9[20] + K_6[20] + K_8[17] + K_8[16]
K_9[21] + K_6[21] + K_8[18] + K_8[17]
K_9[22] + K_6[22] + K_8[19] + K_8[18]
K_9[23] + K_6[23] + K_8[20] + K_8[19]
K_9[24] + K_6[24] + K_8[21] + K_8[20]
K_9[25] + K_6[25] + K_8[22] + K_8[21]
K_9[26] + K_6[26] + K_8[23] + K_8[22]
K_9[27] + K_6[27] + K_8[24] + K_8[23]
K_9[28] + K_6[28] + K_8[25] + K_8[24]
K_9[29] + K_6[29] + K_8[26] + K_8[25]
K_9[30] + K_6[30] + K_8[27] + K_8[26]
K_9[31] + K_6[31] + K_8[28] + K_8[27]
K_10[0] + K_7[0] + K_9[29] + K_9[28]
K_10[1] + K_7[1] + K_9[30] + K_9[29]
K_10[2] + K_7[2] + K_9[31] + K_9[30]
K_10[3] + K_7[3] + K_9[0] + K_9[31]
K_10[4] + K_7[4] + K_9[1] + K_9[0]
K_10[5] + K_7[5] + K_9[2] + K_9[1]
K_10[6] + K_7[6] + K_9[3] + K_9[2]
K_10[7] + K_7[7] + K_9[4] + K_9[3]
K_10[8] + K_7[8] + K_9[5] + K_9[4]
K_10[9] + K_7[9] + K_9[6] + K_9[5]
K_10[10] + K_7[10] + K_9[7] + K_9[6]
K_10[11] + K_7[11] + K_9[8] + K_9[7]
K_10[12] + K_7[12] + K_9[9] + K_9[8]
K_10[13] + K_7[13] + K_9[10] + K_9[9]
K_10[14] + K_7[14] + K_9[11] + K_9[10]
K_10[15] + K_7[15] + K_9[12] + K_9[11]
K_10[16] + K_7[16] + K_9[13] + K_9[12]
K_10[17] + K_7[17] + K_9[14] + K_9[13]
K_10[18] + K_7[18] + K_9[15] + K_9[14]
K_10[19] + K_7[19] + K_9[16] + K_9[15]
K_10[20] + K_7[20] + K_9[17] + K_9[16]
K_10[21] + K_7[21] + K_9[18] + K_9[17]
K_10[22] + K_7[22] + K_9[19] + K_9[18]
K_10[23] + K_7[23] + K_9[20] + K_9[19]
K_10[24] + K_7[24] + K_9[21] + K_9[20]
K_10[25] + K_7[25] + K_9[22] + K_9[21]
K_10[26] + K_7[26] + K_9[23] + K_9[22]
K_10[27] + K_7[27] + K_9[24] + K_9[23]
K_10[28] + K_7[28] + K_9[25] + K_9[24]
K_10[29] + K_7[29] + K_9[26] + K_9[25]
K_10[30] + K_7[30] + K_9[27] + K_9[26]
K_10[31] + K_7[31] + K_9[28] + K_9[27]
K_11[0] + K_8[0] + K_10[29] + K_10[28]
K_11[1] + K_8[1] + K_10[30] + K_10[29]
K_11[2] + K_8[2] + K_10[31] + K_10[30]
K_11[3] + K_8[3] + K_10[0] + K_10[31]
K_11[4] + K_8[4] + K_10[1] + K_10[0]
K_11[5] + K_8[5] + K_10[2] + K_10[1]
K_11[6] + K_8[6] + K_10[3] + K_10[2]
K_11[7] + K_8[7] + K_10[4] + K_10[3]
K_11[8] + K_8[8] + K_10[5] + K_10[4]
K_11[9] + K_8[9] + K_10[6] + K_10[5]
K_11[10] + K_8[10] + K_10[7] + K_10[6]
K_11[11] + K_8[11] + K_10[8] + K_10[7]
K_11[12] + K_8[12] + K_10[9] + K_10[8]
K_11[13] + K_8[13] + K_10[10] + K_10[9]
K_11[14] + K_8[14] + K_10[11] + K_10[10]
K_11[15] + K_8[15] + K_10[12] + K_10[11]
K_11[16] + K_8[16] + K_10[13] + K_10[12]
K_11[17] + K_8[17] + K_10[14] + K_10[13]
K_11[18] + K_8[18] + K_10[15] + K_10[14]
K_11[19] + K_8[19] + K_10[16] + K_10[15]
K_11[20] + K_8[20] + K_10[17] + K_10[16]
K_11[21] + K_8[21] + K_10[18] + K_10[17]
K_11[22] + K_8[22] + K_10[19] + K_10[18]
K_11[23] + K_8[23] + K_10[20] + K_10[19]
K_11[24] + K_8[24] + K_10[21] + K_10[20]
K_11[25] + K_8[25] + K_10[22] + K_10[21]
K_11[26] + K_8[26] + K_10[23] + K_10[22]
K_11[27] + K_8[27] + K_10[24] + K_10[23]
K_11[28] + K_8[28] + K_10[25] + K_10[24]
K_11[29] + K_8[29] + K_10[26] + K_10[25]
K_11[30] + K_8[30] + K_10[27] + K_10[26]
K_11[31] + K_8[31] + K_10[28] + K_10[27]
K_12[0] + K_9[0] + K_11[29] + K_11[28]
K_12[1] + K_9[1] + K_11[30] + K_11[29]
K_12[2] + K_9[2] + K_11[31] + K_11[30]
K_12[3] + K_9[3] + K_11[0] + K_11[31]
K_12[4] + K_9[4] + K_11[1] + K_11[0]
K_12[5] + K_9[5] + K_11[2] + K_11[1]
K_12[6] + K_9[6] + K_11[3] + K_11[2]
K_12[7] + K_9[7] + K_11[4] + K_11[3]
K_12[8] + K_9[8] + K_11[5] + K_11[4]
K_12[9] + K_9[9] + K_11[6] + K_11[5]
K_12[10] + K_9[10] + K_11[7] + K_11[6]
K_12[11] + K_9[11] + K_11[8] + K_11[7]
K_12[12] + K_9[12] + K_11[9] + K_11[8]
K_12[13] + K_9[13] + K_11[10] + K_11[9]
K_12[14] + K_9[14] + K_11[11] + K_11[10]
K_12[15] + K_9[15] + K_11[12] + K_11[11]
K_12[16] + K_9[16] + K_11[13] + K_11[12]
K_12[17] + K_9[17] + K_11[14] + K_11[13]
K_12[18] + K_9[18] + K_11[15] + K_11[14]
K_12[19] + K_9[19] + K_11[16] + K_11[15]
K_12[20] + K_9[20] + K_11[17] + K_11[16]
K_12[21] + K_9[21] + K_11[18] + K_11[17]
K_12[22] + K_9[22] + K_11[19] + K_11[18]
K_12[23] + K_9[23] + K_11[20] + K_11[19]
K_12[24] + K_9[24] + K_11[21] + K_11[20]
K_12[25] + K_9[25] + K_11[22] + K_11[21]
K_12[26] + K_9[26] + K_11[23] + K_11[22]
K_12[27] + K_9[27] + K_11[24] + K_11[23]
K_12[28] + K_9[28] + K_11[25] + K_11[24]
K_12[29] + K_9[29] + K_11[26] + K_11[25]
K_12[30] + K_9[30] + K_11[27] + K_11[26]
K_12[31] + K_9[31] + K_11[28] + K_11[27]
K_13[0] + K_10[0] + K_12[29] + K_12[28]
K_13[1] + K_10[1] + K_12[30] + K_12[29]
K_13[2] + K_10[2] + K_12[31] + K_12[30]
K_13[3] + K_10[3] + K_12[0] + K_12[31]
K_13[4] + K_10[4] + K_12[1] + K_12[0]
K_13[5] + K_10[5] + K_12[2] + K_12[1]
K_13[6] + K_10[6] + K_12[3] + K_12[2]
K_13[7] + K_10[7] + K_12[4] + K_12[3]
K_13[8] + K_10[8] + K_12[5] + K_12[4]
K_13[9] + K_10[9] + K_12[6] + K_12[5]
K_13[10] + K_10[10] + K_12[7] + K_12[6]
K_13[11] + K_10[11] + K_12[8] + K_12[7]
K_13[12] + K_10[12] + K_12[9] + K_12[8]
K_13[13] + K_10[13] + K_12[10] + K_12[9]
K_13[14] + K_10[14] + K_12[11] + K_12[10]
K_13[15] + K_10[15] + K_12[12] + K_12[11]
K_13[16] + K_10[16] + K_12[13] + K_12[12]
K_13[17] + K_10[17] + K_12[14] + K_12[13]
K_13[18] + K_10[18] + K_12[15] + K_12[14]
K_13[19] + K_10[19] + K_12[16] + K_12[15]
K_13[20] + K_10[20] + K_12[17] + K_12[16]
K_13[21] + K_10[21] + K_12[18] + K_12[17]
K_13[22] + K_10[22] + K_12[19] + K_12[18]
K_13[23] + K_10[23] + K_12[20] + K_12[19]
K_13[24] + K_10[24] + K_12[21] + K_12[20]
K_13[25] + K_10[25] + K_12[22] + K_12[21]
K_13[26] + K_10[26] + K_12[23] + K_12[22]
K_13[27] + K_10[27] + K_12[24] + K_12[23]
K_13[28] + K_10[28] + K_12[25] + K_12[24]
K_13[29] + K_10[29] + K_12[26] + K_12[25]
K_13[30] + K_10[30] + K_12[27] + K_12[26]
K_13[31] + K_10[31] + K_12[28] + K_12[27]
K_14[0] + K_11[0] + K_13[29] + K_13[28]
K_14[1] + K_11[1] + K_13[30] + K_13[29]
K_14[2] + K_11[2] + K_13[31] + K_13[30]
K_14[3] + K_11[3] + K_13[0] + K_13[31]
K_14[4] + K_11[4] + K_13[1] + K_13[0]
K_14[5] + K_11[5] + K_13[2] + K_13[1]
K_14[6] + K_11[6] + K_13[3] + K_13[2]
K_14[7] + K_11[7] + K_13[4] + K_13[3]
K_14[8] + K_11[8] + K_13[5] + K_13[4]
K_14[9] + K_11[9] + K_13[6] + K_13[5]
K_14[10] + K_11[10] + K_13[7] + K_13[6]
K_14[11] + K_11[11] + K_13[8] + K_13[7]
K_14[12] + K_11[12] + K_13[9] + K_13[8]
K_14[13] + K_11[13] + K_13[10] + K_13[9]
K_14[14] + K_11[14] + K_13[11] + K_13[10]
K_14[15] + K_11[15] + K_13[12] + K_13[11]
K_14[16] + K_11[16] + K_13[13] + K_13[12]
K_14[17] + K_11[17] + K_13[14] + K_13[13]
K_14[18] + K_11[18] + K_13[15] + K_13[14]
K_14[19] + K_11[19] + K_13[16] + K_13[15]
K_14[20] + K_11[20] + K_13[17] + K_13[16]
K_14[21] + K_11[21] + K_13[18] + K_13[17]
K_14[22] + K_11[22] + K_13[19] + K_13[18]
K_14[23] + K_11[23] + K_13[20] + K_13[19]
K_14[24] + K_11[24] + K_13[21] + K_13[20]
K_14[25] + K_11[25] + K_13[22] + K_13[21]
K_14[26] + K_11[26] + K_13[23] + K_13[22]
K_14[27] + K_11[27] + K_13[24] + K_13[23]
K_14[28] + K_11[28] + K_13[25] + K_13[24]
K_14[29] + K_11[29] + K_13[26] + K_13[25]
K_14[30] + K_11[30] + K_13[27] + K_13[26]
K_14[31] + K_11[31] + K_13[28] + K_13[27]
K_15[0] + K_12[0] + K_14[29] + K_14[28]
K_15[1] + K_12[1] + K_14[30] + K_14[29]
K_15[2] + K_12[2] + K_14[31] + K_14[30]
K_15[3] + K_12[3] + K_14[0] + K_14[31]
K_15[4] + K_12[4] + K_14[1] + K_14[0]
K_15[5] + K_12[5] + K_14[2] + K_14[1]
K_15[6] + K_12[6] + K_14[3] + K_14[2]
K_15[7] + K_12[7] + K_14[4] + K_14[3]
K_15[8] + K_12[8] + K_14[5] + K_14[4]
K_15[9] + K_12[9] + K_14[6] + K_14[5]
K_15[10] + K_12[10] + K_14[7] + K_14[6]
K_15[11] + K_12[11] + K_14[8] + K_14[7]
K_15[12] + K_12[12] + K_14[9] + K_14[8]
K_15[13] + K_12[13] + K_14[10] + K_14[9]
K_15[14] + K_12[14] + K_14[11] + K_14[10]
K_15[15] + K_12[15] + K_14[12] + K_14[11]
K_15[16] + K_12[16] + K_14[13] + K_14[12]
K_15[17] + K_12[17] + K_14[14] + K_14[13]
K_15[18] + K_12[18] + K_14[15] + K_14[14]
K_15[19] + K_12[19] + K_14[16] + K_14[15]
K_15[20] + K_12[20] + K_14[17] + K_14[16]
K_15[21] + K_12[21] + K_14[18] + K_14[17]
K_15[22] + K_12[22] + K_14[19] + K_14[18]
K_15[23] + K_12[23] + K_14[20] + K_14[19]
K_15[24] + K_12[24] + K_14[21] + K_14[20]
K_15[25] + K_12[25] + K_14[22] + K_14[21]
K_15[26] + K_12[26] + K_14[23] + K_14[22]
K_15[27] + K_12[27] + K_14[24] + K_14[23]
K_15[28] + K_12[28] + K_14[25] + K_14[24]
K_15[29] + K_12[29] + K_14[26] + K_14[25]
K_15[30] + K_12[30] + K_14[27] + K_14[26]
K_15[31] + K_12[31] + K_14[28] + K_14[27]
K_16[0] + K_13[0] + K_15[29] + K_15[28]
K_16[1] + K_13[1] + K_15[30] + K_15[29]
K_16[2] + K_13[2] + K_15[31] + K_15[30]
K_16[3] + K_13[3] + K_15[0] + K_15[31]
K_16[4] + K_13[4] + K_15[1] + K_15[0]
K_16[5] + K_13[5] + K_15[2] + K_15[1]
K_16[6] + K_13[6] + K_15[3] + K_15[2]
K_16[7] + K_13[7] + K_15[4] + K_15[3]
K_16[8] + K_13[8] + K_15[5] + K_15[4]
K_16[9] + K_13[9] + K_15[6] + K_15[5]
K_16[10] + K_13[10] + K_15[7] + K_15[6]
K_16[11] + K_13[11] + K_15[8] + K_15[7]
K_16[12] + K_13[12] + K_15[9] + K_15[8]
K_16[13] + K_13[13] + K_15[10] + K_15[9]
K_16[14] + K_13[14] + K_15[11] + K_15[10]
K_16[15] + K_13[15] + K_15[12] + K_15[11]
K_16[16] + K_13[16] + K_15[13] + K_15[12]
K_16[17] + K_13[17] + K_15[14] + K_15[13]
K_16[18] + K_13[18] + K_15[15] + K_15[14]
K_16[19] + K_13[19] + K_15[16] + K_15[15]
K_16[20] + K_13[20] + K_15[17] + K_15[16]
K_16[21] + K_13[21] + K_15[18] + K_15[17]
K_16[22] + K_13[22] + K_15[19] + K_15[18]
K_16[23] + K_13[23] + K_15[20] + K_15[19]
K_16[24] + K_13[24] + K_15[21] + K_15[20]
K_16[25] + K_13[25] + K_15[22] + K_15[21]
K_16[26] + K_13[26] + K_15[23] + K_15[22]
K_16[27] + K_13[27] + K_15[24] + K_15[23]
K_16[28] + K_13[28] + K_15[25] + K_15[24]
K_16[29] + K_13[29] + K_15[26] + K_15[25]
K_16[30] + K_13[30] + K_15[27] + K_15[26]
K_16[31] + K_13[31] + K_15[28] + K_15[27]
K_17[0] + K_14[0] + K_16[29] + K_16[28]
K_17[1] + K_14[1] + K_16[30] + K_16[29]
K_17[2] + K_14[2] + K_16[31] + K_16[30]
K_17[3] + K_14[3] + K_16[0] + K_16[31]
K_17[4] + K_14[4] + K_16[1] + K_16[0]
K_17[5] + K_14[5] + K_16[2] + K_16[1]
K_17[6] + K_14[6] + K_16[3] + K_16[2]
K_17[7] + K_14[7] + K_16[4] + K_16[3]
K_17[8] + K_14[8] + K_16[5] + K_16[4]
K_17[9] + K_14[9] + K_16[6] + K_16[5]
K_17[10] + K_14[10] + K_16[7] + K_16[6]
K_17[11] + K_14[11] + K_16[8] + K_16[7]
K_17[12] + K_14[12] + K_16[9] + K_16[8]
K_17[13] + K_14[13] + K_16[10] + K_16[9]
K_17[14] + K_14[14] + K_16[11] + K_16[10]
K_17[15] + K_14[15] + K_16[12] + K_16[11]
K_17[16] + K_14[16] + K_16[13] + K_16[12]
K_17[17] + K_14[17] + K_16[14] + K_16[13]
K_17[18] + K_14[18] + K_16[15] + K_16[14]
K_17[19] + K_14[19] + K_16[16] + K_16[15]
K_17[20] + K_14[20] + K_16[17] + K_16[16]
K_17[21] + K_14[21] + K_16[18] + K_16[17]
K_17[22] + K_14[22] + K_16[19] + K_16[18]
K_17[23] + K_14[23] + K_16[20] + K_16[19]
K_17[24] + K_14[24] + K_16[21] + K_16[20]
K_17[25] + K_14[25] + K_16[22] + K_16[21]
K_17[26] + K_14[26] + K_16[23] + K_16[22]
K_17[27] + K_14[27] + K_16[24] + K_16[23]
K_17[28] + K_14[28] + K_16[25] + K_16[24]
K_17[29] + K_14[29] + K_16[26] + K_16[25]
K_17[30] + K_14[30] + K_16[27] + K_16[26]
K_17[31] + K_14[31] + K_16[28] + K_16[27]
K_18[0] + K_15[0] + K_17[29] + K_17[28]
K_18[1] + K_15[1] + K_17[30] + K_17[29]
K_18[2] + K_15[2] + K_17[31] + K_17[30]
K_18[3] + K_15[3] + K_17[0] + K_17[31]
K_18[4] + K_15[4] + K_17[1] + K_17[0]
K_18[5] + K_15[5] + K_17[2] + K_17[1]
K_18[6] + K_15[6] + K_17[3] + K_17[2]
K_18[7] + K_15[7] + K_17[4] + K_17[3]
K_18[8] + K_15[8] + K_17[5] + K_17[4]
K_18[9] + K_15[9] + K_17[6] + K_17[5]
K_18[10] + K_15[10] + K_17[7] + K_17[6]
K_18[11] + K_15[11] + K_17[8] + K_17[7]
K_18[12] + K_15[12] + K_17[9] + K_17[8]
K_18[13] + K_15[13] + K_17[10] + K_17[9]
K_18[14] + K_15[14] + K_17[11] + K_17[10]
K_18[15] + K_15[15] + K_17[12] + K_17[11]
K_18[16] + K_15[16] + K_17[13] + K_17[12]
K_18[17] + K_15[17] + K_17[14] + K_17[13]
K_18[18] + K_15[18] + K_17[15] + K_17[14]
K_18[19] + K_15[19] + K_17[16] + K_17[15]
K_18[20] + K_15[20] + K_17[17] + K_17[16]
K_18[21] + K_15[21] + K_17[18] + K_17[17]
K_18[22] + K_15[22] + K_17[19] + K_17[18]
K_18[23] + K_15[23] + K_17[20] + K_17[19]
K_18[24] + K_15[24] + K_17[21] + K_17[20]
K_18[25] + K_15[25] + K_17[22] + K_17[21]
K_18[26] + K_15[26] + K_17[23] + K_17[22]
K_18[27] + K_15[27] + K_17[24] + K_17[23]
K_18[28] + K_15[28] + K_17[25] + K_17[24]
K_18[29] + K_15[29] + K_17[26] + K_17[25]
K_18[30] + K_15[30] + K_17[27] + K_17[26]
K_18[31] + K_15[31] + K_17[28] + K_17[27]
K_19[0] + K_16[0] + K_18[29] + K_18[28]
K_19[1] + K_16[1] + K_18[30] + K_18[29]
K_19[2] + K_16[2] + K_18[31] + K_18[30]
K_19[3] + K_16[3] + K_18[0] + K_18[31]
K_19[4] + K_16[4] + K_18[1] + K_18[0]
K_19[5] + K_16[5] + K_18[2] + K_18[1]
K_19[6] + K_16[6] + K_18[3] + K_18[2]
K_19[7] + K_16[7] + K_18[4] + K_18[3]
K_19[8] + K_16[8] + K_18[5] + K_18[4]
K_19[9] + K_16[9] + K_18[6] + K_18[5]
K_19[10] + K_16[10] + K_18[7] + K_18[6]
K_19[11] + K_16[11] + K_18[8] + K_18[7]
K_19[12] + K_16[12] + K_18[9] + K_18[8]
K_19[13] + K_16[13] + K_18[10] + K_18[9]
K_19[14] + K_16[14] + K_18[11] + K_18[10]
K_19[15] + K_16[15] + K_18[12] + K_18[11]
K_19[16] + K_16[16] + K_18[13] + K_18[12]
K_19[17] + K_16[17] + K_18[14] + K_18[13]
K_19[18] + K_16[18] + K_18[15] + K_18[14]
K_19[19] + K_16[19] + K_18[16] + K_18[15]
K_19[20] + K_16[20] + K_18[17] + K_18[16]
K_19[21] + K_16[21] + K_18[18] + K_18[17]
K_19[22] + K_16[22] + K_18[19] + K_18[18]
K_19[23] + K_16[23] + K_18[20] + K_18[19]
K_19[24] + K_16[24] + K_18[21] + K_18[20]
K_19[25] + K_16[25] + K_18[22] + K_18[21]
K_19[26] + K_16[26] + K_18[23] + K_18[22]
K_19[27] + K_16[27] + K_18[24] + K_18[23]
K_19[28] + K_16[28] + K_18[25] + K_18[24]
K_19[29] + K_16[29] + K_18[26] + K_18[25]
K_19[30] + K_16[30] + K_18[27] + K_18[26]
K_19[31] + K_16[31] + K_18[28] + K_18[27]
K_20[0] + K_17[0] + K_19[29] + K_19[28]
K_20[1] + K_17[1] + K_19[30] + K_19[29]
K_20[2] + K_17[2] + K_19[31] + K_19[30]
K_20[3] + K_17[3] + K_19[0] + K_19[31]
K_20[4] + K_17[4] + K_19[1] + K_19[0]
K_20[5] + K_17[5] + K_19[2] + K_19[1]
K_20[6] + K_17[6] + K_19[3] + K_19[2]
K_20[7] + K_17[7] + K_19[4] + K_19[3]
K_20[8] + K_17[8] + K_19[5] + K_19[4]
K_20[9] + K_17[9] + K_19[6] + K_19[5]
K_20[10] + K_17[10] + K_19[7] + K_19[6]
K_20[11] + K_17[11] + K_19[8] + K_19[7]
K_20[12] + K_17[12] + K_19[9] + K_19[8]
K_20[13] + K_17[13] + K_19[10] + K_19[9]
K_20[14] + K_17[14] + K_19[11] + K_19[10]
K_20[15] + K_17[15] + K_19[12] + K_19[11]
K_20[16] + K_17[16] + K_19[13] + K_19[12]
K_20[17] + K_17[17] + K_19[14] + K_19[13]
K_20[18] + K_17[18] + K_19[15] + K_19[14]
K_20[19] + K_17[19] + K_19[16] + K_19[15]
K_20[20] + K_17[20] + K_19[17] + K_19[16]
K_20[21] + K_17[21] + K_19[18] + K_19[17]
K_20[22] + K_17[22] + K_19[19] + K_19[18]
K_20[23] + K_17[23] + K_19[20] + K_19[19]
K_20[24] + K_17[24] + K_19[21] + K_19[20]
K_20[25] + K_17[25] + K_19[22] + K_19[21]
K_20[26] + K_17[26] + K_19[23] + K_19[22]
K_20[27] + K_17[27] + K_19[24] + K_19[23]
K_20[28] + K_17[28] + K_19[25] + K_19[24]
K_20[29] + K_17[29] + K_19[26] + K_19[25]
K_20[30] + K_17[30] + K_19[27] + K_19[26]
K_20[31] + K_17[31] + K_19[28] + K_19[27]
K_21[0] + K_18[0] + K_20[29] + K_20[28]
K_21[1] + K_18[1] + K_20[30] + K_20[29]
K_21[2] + K_18[2] + K_20[31] + K_20[30]
K_21[3] + K_18[3] + K_20[0] + K_20[31]
K_21[4] + K_18[4] + K_20[1] + K_20[0]
K_21[5] + K_18[5] + K_20[2] + K_20[1]
K_21[6] + K_18[6] + K_20[3] + K_20[2]
K_21[7] + K_18[7] + K_20[4] + K_20[3]
K_21[8] + K_18[8] + K_20[5] + K_20[4]
K_21[9] + K_18[9] + K_20[6] + K_20[5]
K_21[10] + K_18[10] + K_20[7] + K_20[6]
K_21[11] + K_18[11] + K_20[8] + K_20[7]
K_21[12] + K_18[12] + K_20[9] + K_20[8]
K_21[13] + K_18[13] + K_20[10] + K_20[9]
K_21[14] + K_18[14] + K_20[11] + K_20[10]
K_21[15] + K_18[15] + K_20[12] + K_20[11]
K_21[16] + K_18[16] + K_20[13] + K_20[12]
K_21[17] + K_18[17] + K_20[14] + K_20[13]
K_21[18] + K_18[18] + K_20[15] + K_20[14]
K_21[19] + K_18[19] + K_20[16] + K_20[15]
K_21[20] + K_18[20] + K_20[17] + K_20[16]
K_21[21] + K_18[21] + K_20[18] + K_20[17]
K_21[22] + K_18[22] + K_20[19] + K_20[18]
K_21[23] + K_18[23] + K_20[20] + K_20[19]
K_21[24] + K_18[24] + K_20[21] + K_20[20]
K_21[25] + K_18[25] + K_20[22] + K_20[21]
K_21[26] + K_18[26] + K_20[23] + K_20[22]
K_21[27] + K_18[27] + K_20[24] + K_20[23]
K_21[28] + K_18[28] + K_20[25] + K_20[24]
K_21[29] + K_18[29] + K_20[26] + K_20[25]
K_21[30] + K_18[30] + K_20[27] + K_20[26]
K_21[31] + K_18[31] + K_20[28] + K_20[27]
