--system:

K'_0[0] + K_0[1] + K_0[63]
K'_0[1] + K_0[2]
K'_0[2] + K_0[3]
K'_0[3] + K_0[4]
K'_0[4] + K_0[5]
K'_0[5] + K_0[6]
K'_0[6] + K_0[7]
K'_0[7] + K_0[8]
K'_0[8] + K_0[9]
K'_0[9] + K_0[10]
K'_0[10] + K_0[11]
K'_0[11] + K_0[12]
K'_0[12] + K_0[13]
K'_0[13] + K_0[14]
K'_0[14] + K_0[15]
K'_0[15] + K_0[16]
K'_0[16] + K_0[17]
K'_0[17] + K_0[18]
K'_0[18] + K_0[19]
K'_0[19] + K_0[20]
K'_0[20] + K_0[21]
K'_0[21] + K_0[22]
K'_0[22] + K_0[23]
K'_0[23] + K_0[24]
K'_0[24] + K_0[25]
K'_0[25] + K_0[26]
K'_0[26] + K_0[27]
K'_0[27] + K_0[28]
K'_0[28] + K_0[29]
K'_0[29] + K_0[30]
K'_0[30] + K_0[31]
K'_0[31] + K_0[32]
K'_0[32] + K_0[33]
K'_0[33] + K_0[34]
K'_0[34] + K_0[35]
K'_0[35] + K_0[36]
K'_0[36] + K_0[37]
K'_0[37] + K_0[38]
K'_0[38] + K_0[39]
K'_0[39] + K_0[40]
K'_0[40] + K_0[41]
K'_0[41] + K_0[42]
K'_0[42] + K_0[43]
K'_0[43] + K_0[44]
K'_0[44] + K_0[45]
K'_0[45] + K_0[46]
K'_0[46] + K_0[47]
K'_0[47] + K_0[48]
K'_0[48] + K_0[49]
K'_0[49] + K_0[50]
K'_0[50] + K_0[51]
K'_0[51] + K_0[52]
K'_0[52] + K_0[53]
K'_0[53] + K_0[54]
K'_0[54] + K_0[55]
K'_0[55] + K_0[56]
K'_0[56] + K_0[57]
K'_0[57] + K_0[58]
K'_0[58] + K_0[59]
K'_0[59] + K_0[60]
K'_0[60] + K_0[61]
K'_0[61] + K_0[62]
K'_0[62] + K_0[63]
K'_0[63] + K_0[0]
P[0] + K_0[0] + K_1[0] + X_0[0]
P[1] + K_0[1] + K_1[1] + X_0[1]
P[2] + K_0[2] + K_1[2] + X_0[2]
P[3] + K_0[3] + K_1[3] + X_0[3]
P[4] + K_0[4] + K_1[4] + X_0[4]
P[5] + K_0[5] + K_1[5] + X_0[5]
P[6] + K_0[6] + K_1[6] + X_0[6]
P[7] + K_0[7] + K_1[7] + X_0[7]
P[8] + K_0[8] + K_1[8] + X_0[8]
P[9] + K_0[9] + K_1[9] + X_0[9]
P[10] + K_0[10] + K_1[10] + X_0[10]
P[11] + K_0[11] + K_1[11] + X_0[11]
P[12] + K_0[12] + K_1[12] + X_0[12]
P[13] + K_0[13] + K_1[13] + X_0[13]
P[14] + K_0[14] + K_1[14] + X_0[14]
P[15] + K_0[15] + K_1[15] + X_0[15]
P[16] + K_0[16] + K_1[16] + X_0[16]
P[17] + K_0[17] + K_1[17] + X_0[17]
P[18] + K_0[18] + K_1[18] + X_0[18]
P[19] + K_0[19] + K_1[19] + X_0[19]
P[20] + K_0[20] + K_1[20] + X_0[20]
P[21] + K_0[21] + K_1[21] + X_0[21]
P[22] + K_0[22] + K_1[22] + X_0[22]
P[23] + K_0[23] + K_1[23] + X_0[23]
P[24] + K_0[24] + K_1[24] + X_0[24]
P[25] + K_0[25] + K_1[25] + X_0[25]
P[26] + K_0[26] + K_1[26] + X_0[26]
P[27] + K_0[27] + K_1[27] + X_0[27]
P[28] + K_0[28] + K_1[28] + X_0[28]
P[29] + K_0[29] + K_1[29] + X_0[29]
P[30] + K_0[30] + K_1[30] + X_0[30]
P[31] + K_0[31] + K_1[31] + X_0[31]
P[32] + K_0[32] + K_1[32] + X_0[32]
P[33] + K_0[33] + K_1[33] + X_0[33]
P[34] + K_0[34] + K_1[34] + X_0[34]
P[35] + K_0[35] + K_1[35] + X_0[35]
P[36] + K_0[36] + K_1[36] + X_0[36]
P[37] + K_0[37] + K_1[37] + X_0[37]
P[38] + K_0[38] + K_1[38] + X_0[38]
P[39] + K_0[39] + K_1[39] + X_0[39]
P[40] + K_0[40] + K_1[40] + X_0[40]
P[41] + K_0[41] + K_1[41] + X_0[41]
P[42] + K_0[42] + K_1[42] + X_0[42]
P[43] + K_0[43] + K_1[43] + X_0[43]
P[44] + K_0[44] + K_1[44] + X_0[44]
P[45] + K_0[45] + K_1[45] + X_0[45]
P[46] + K_0[46] + K_1[46] + X_0[46]
P[47] + K_0[47] + K_1[47] + X_0[47]
P[48] + K_0[48] + K_1[48] + X_0[48]
P[49] + K_0[49] + K_1[49] + X_0[49]
P[50] + K_0[50] + K_1[50] + X_0[50]
P[51] + K_0[51] + K_1[51] + X_0[51]
P[52] + K_0[52] + K_1[52] + X_0[52]
P[53] + K_0[53] + K_1[53] + X_0[53]
P[54] + K_0[54] + K_1[54] + X_0[54]
P[55] + K_0[55] + K_1[55] + X_0[55]
P[56] + K_0[56] + K_1[56] + X_0[56]
P[57] + K_0[57] + K_1[57] + X_0[57]
P[58] + K_0[58] + K_1[58] + X_0[58]
P[59] + K_0[59] + K_1[59] + X_0[59]
P[60] + K_0[60] + K_1[60] + X_0[60]
P[61] + K_0[61] + K_1[61] + X_0[61]
P[62] + K_0[62] + K_1[62] + X_0[62]
P[63] + K_0[63] + K_1[63] + X_0[63]
C[0] + K'_0[0] + K_1[0] + W_0[0] + 1
C[1] + K'_0[1] + K_1[1] + W_0[1]
C[2] + K'_0[2] + K_1[2] + W_0[2] + 1
C[3] + K'_0[3] + K_1[3] + W_0[3] + 1
C[4] + K'_0[4] + K_1[4] + W_0[4] + 1
C[5] + K'_0[5] + K_1[5] + W_0[5]
C[6] + K'_0[6] + K_1[6] + W_0[6] + 1
C[7] + K'_0[7] + K_1[7] + W_0[7] + 1
C[8] + K'_0[8] + K_1[8] + W_0[8]
C[9] + K'_0[9] + K_1[9] + W_0[9]
C[10] + K'_0[10] + K_1[10] + W_0[10]
C[11] + K'_0[11] + K_1[11] + W_0[11]
C[12] + K'_0[12] + K_1[12] + W_0[12] + 1
C[13] + K'_0[13] + K_1[13] + W_0[13]
C[14] + K'_0[14] + K_1[14] + W_0[14] + 1
C[15] + K'_0[15] + K_1[15] + W_0[15]
C[16] + K'_0[16] + K_1[16] + W_0[16]
C[17] + K'_0[17] + K_1[17] + W_0[17]
C[18] + K'_0[18] + K_1[18] + W_0[18] + 1
C[19] + K'_0[19] + K_1[19] + W_0[19] + 1
C[20] + K'_0[20] + K_1[20] + W_0[20] + 1
C[21] + K'_0[21] + K_1[21] + W_0[21] + 1
C[22] + K'_0[22] + K_1[22] + W_0[22] + 1
C[23] + K'_0[23] + K_1[23] + W_0[23]
C[24] + K'_0[24] + K_1[24] + W_0[24] + 1
C[25] + K'_0[25] + K_1[25] + W_0[25]
C[26] + K'_0[26] + K_1[26] + W_0[26]
C[27] + K'_0[27] + K_1[27] + W_0[27] + 1
C[28] + K'_0[28] + K_1[28] + W_0[28]
C[29] + K'_0[29] + K_1[29] + W_0[29]
C[30] + K'_0[30] + K_1[30] + W_0[30] + 1
C[31] + K'_0[31] + K_1[31] + W_0[31] + 1
C[32] + K'_0[32] + K_1[32] + W_0[32] + 1
C[33] + K'_0[33] + K_1[33] + W_0[33] + 1
C[34] + K'_0[34] + K_1[34] + W_0[34] + 1
C[35] + K'_0[35] + K_1[35] + W_0[35]
C[36] + K'_0[36] + K_1[36] + W_0[36] + 1
C[37] + K'_0[37] + K_1[37] + W_0[37] + 1
C[38] + K'_0[38] + K_1[38] + W_0[38]
C[39] + K'_0[39] + K_1[39] + W_0[39] + 1
C[40] + K'_0[40] + K_1[40] + W_0[40] + 1
C[41] + K'_0[41] + K_1[41] + W_0[41]
C[42] + K'_0[42] + K_1[42] + W_0[42]
C[43] + K'_0[43] + K_1[43] + W_0[43] + 1
C[44] + K'_0[44] + K_1[44] + W_0[44]
C[45] + K'_0[45] + K_1[45] + W_0[45] + 1
C[46] + K'_0[46] + K_1[46] + W_0[46]
C[47] + K'_0[47] + K_1[47] + W_0[47]
C[48] + K'_0[48] + K_1[48] + W_0[48]
C[49] + K'_0[49] + K_1[49] + W_0[49]
C[50] + K'_0[50] + K_1[50] + W_0[50] + 1
C[51] + K'_0[51] + K_1[51] + W_0[51] + 1
C[52] + K'_0[52] + K_1[52] + W_0[52]
C[53] + K'_0[53] + K_1[53] + W_0[53] + 1
C[54] + K'_0[54] + K_1[54] + W_0[54]
C[55] + K'_0[55] + K_1[55] + W_0[55] + 1
C[56] + K'_0[56] + K_1[56] + W_0[56]
C[57] + K'_0[57] + K_1[57] + W_0[57]
C[58] + K'_0[58] + K_1[58] + W_0[58]
C[59] + K'_0[59] + K_1[59] + W_0[59]
C[60] + K'_0[60] + K_1[60] + W_0[60]
C[61] + K'_0[61] + K_1[61] + W_0[61]
C[62] + K'_0[62] + K_1[62] + W_0[62] + 1
C[63] + K'_0[63] + K_1[63] + W_0[63] + 1
Y_0[0] + S_0(X_0[0],X_0[1],X_0[2],X_0[3])
Y_0[1] + S_1(X_0[0],X_0[1],X_0[2],X_0[3])
Y_0[2] + S_2(X_0[0],X_0[1],X_0[2],X_0[3])
Y_0[3] + S_3(X_0[0],X_0[1],X_0[2],X_0[3])
Y_0[4] + S_0(X_0[4],X_0[5],X_0[6],X_0[7])
Y_0[5] + S_1(X_0[4],X_0[5],X_0[6],X_0[7])
Y_0[6] + S_2(X_0[4],X_0[5],X_0[6],X_0[7])
Y_0[7] + S_3(X_0[4],X_0[5],X_0[6],X_0[7])
Y_0[8] + S_0(X_0[8],X_0[9],X_0[10],X_0[11])
Y_0[9] + S_1(X_0[8],X_0[9],X_0[10],X_0[11])
Y_0[10] + S_2(X_0[8],X_0[9],X_0[10],X_0[11])
Y_0[11] + S_3(X_0[8],X_0[9],X_0[10],X_0[11])
Y_0[12] + S_0(X_0[12],X_0[13],X_0[14],X_0[15])
Y_0[13] + S_1(X_0[12],X_0[13],X_0[14],X_0[15])
Y_0[14] + S_2(X_0[12],X_0[13],X_0[14],X_0[15])
Y_0[15] + S_3(X_0[12],X_0[13],X_0[14],X_0[15])
Y_0[16] + S_0(X_0[16],X_0[17],X_0[18],X_0[19])
Y_0[17] + S_1(X_0[16],X_0[17],X_0[18],X_0[19])
Y_0[18] + S_2(X_0[16],X_0[17],X_0[18],X_0[19])
Y_0[19] + S_3(X_0[16],X_0[17],X_0[18],X_0[19])
Y_0[20] + S_0(X_0[20],X_0[21],X_0[22],X_0[23])
Y_0[21] + S_1(X_0[20],X_0[21],X_0[22],X_0[23])
Y_0[22] + S_2(X_0[20],X_0[21],X_0[22],X_0[23])
Y_0[23] + S_3(X_0[20],X_0[21],X_0[22],X_0[23])
Y_0[24] + S_0(X_0[24],X_0[25],X_0[26],X_0[27])
Y_0[25] + S_1(X_0[24],X_0[25],X_0[26],X_0[27])
Y_0[26] + S_2(X_0[24],X_0[25],X_0[26],X_0[27])
Y_0[27] + S_3(X_0[24],X_0[25],X_0[26],X_0[27])
Y_0[28] + S_0(X_0[28],X_0[29],X_0[30],X_0[31])
Y_0[29] + S_1(X_0[28],X_0[29],X_0[30],X_0[31])
Y_0[30] + S_2(X_0[28],X_0[29],X_0[30],X_0[31])
Y_0[31] + S_3(X_0[28],X_0[29],X_0[30],X_0[31])
Y_0[32] + S_0(X_0[32],X_0[33],X_0[34],X_0[35])
Y_0[33] + S_1(X_0[32],X_0[33],X_0[34],X_0[35])
Y_0[34] + S_2(X_0[32],X_0[33],X_0[34],X_0[35])
Y_0[35] + S_3(X_0[32],X_0[33],X_0[34],X_0[35])
Y_0[36] + S_0(X_0[36],X_0[37],X_0[38],X_0[39])
Y_0[37] + S_1(X_0[36],X_0[37],X_0[38],X_0[39])
Y_0[38] + S_2(X_0[36],X_0[37],X_0[38],X_0[39])
Y_0[39] + S_3(X_0[36],X_0[37],X_0[38],X_0[39])
Y_0[40] + S_0(X_0[40],X_0[41],X_0[42],X_0[43])
Y_0[41] + S_1(X_0[40],X_0[41],X_0[42],X_0[43])
Y_0[42] + S_2(X_0[40],X_0[41],X_0[42],X_0[43])
Y_0[43] + S_3(X_0[40],X_0[41],X_0[42],X_0[43])
Y_0[44] + S_0(X_0[44],X_0[45],X_0[46],X_0[47])
Y_0[45] + S_1(X_0[44],X_0[45],X_0[46],X_0[47])
Y_0[46] + S_2(X_0[44],X_0[45],X_0[46],X_0[47])
Y_0[47] + S_3(X_0[44],X_0[45],X_0[46],X_0[47])
Y_0[48] + S_0(X_0[48],X_0[49],X_0[50],X_0[51])
Y_0[49] + S_1(X_0[48],X_0[49],X_0[50],X_0[51])
Y_0[50] + S_2(X_0[48],X_0[49],X_0[50],X_0[51])
Y_0[51] + S_3(X_0[48],X_0[49],X_0[50],X_0[51])
Y_0[52] + S_0(X_0[52],X_0[53],X_0[54],X_0[55])
Y_0[53] + S_1(X_0[52],X_0[53],X_0[54],X_0[55])
Y_0[54] + S_2(X_0[52],X_0[53],X_0[54],X_0[55])
Y_0[55] + S_3(X_0[52],X_0[53],X_0[54],X_0[55])
Y_0[56] + S_0(X_0[56],X_0[57],X_0[58],X_0[59])
Y_0[57] + S_1(X_0[56],X_0[57],X_0[58],X_0[59])
Y_0[58] + S_2(X_0[56],X_0[57],X_0[58],X_0[59])
Y_0[59] + S_3(X_0[56],X_0[57],X_0[58],X_0[59])
Y_0[60] + S_0(X_0[60],X_0[61],X_0[62],X_0[63])
Y_0[61] + S_1(X_0[60],X_0[61],X_0[62],X_0[63])
Y_0[62] + S_2(X_0[60],X_0[61],X_0[62],X_0[63])
Y_0[63] + S_3(X_0[60],X_0[61],X_0[62],X_0[63])
X_1[0] + Y_0[28] + Y_0[24] + Y_0[20] + K_1[0]
X_1[1] + Y_0[29] + Y_0[25] + Y_0[17] + K_1[1]
X_1[2] + Y_0[30] + Y_0[22] + Y_0[18] + K_1[2] + 1
X_1[3] + Y_0[27] + Y_0[23] + Y_0[19] + K_1[3]
X_1[4] + Y_0[40] + Y_0[36] + Y_0[32] + K_1[4]
X_1[5] + Y_0[45] + Y_0[41] + Y_0[37] + K_1[5]
X_1[6] + Y_0[46] + Y_0[42] + Y_0[34] + K_1[6] + 1
X_1[7] + Y_0[47] + Y_0[39] + Y_0[35] + K_1[7]
X_1[8] + Y_0[60] + Y_0[56] + Y_0[48] + K_1[8] + 1
X_1[9] + Y_0[61] + Y_0[53] + Y_0[49] + K_1[9] + 1
X_1[10] + Y_0[58] + Y_0[54] + Y_0[50] + K_1[10]
X_1[11] + Y_0[63] + Y_0[59] + Y_0[55] + K_1[11]
X_1[12] + Y_0[12] + Y_0[8] + Y_0[4] + K_1[12] + 1
X_1[13] + Y_0[13] + Y_0[9] + Y_0[1] + K_1[13] + 1
X_1[14] + Y_0[14] + Y_0[6] + Y_0[2] + K_1[14] + 1
X_1[15] + Y_0[11] + Y_0[7] + Y_0[3] + K_1[15]
X_1[16] + Y_0[44] + Y_0[40] + Y_0[36] + K_1[16]
X_1[17] + Y_0[45] + Y_0[41] + Y_0[33] + K_1[17]
X_1[18] + Y_0[46] + Y_0[38] + Y_0[34] + K_1[18]
X_1[19] + Y_0[43] + Y_0[39] + Y_0[35] + K_1[19]
X_1[20] + Y_0[60] + Y_0[52] + Y_0[48] + K_1[20] + 1
X_1[21] + Y_0[57] + Y_0[53] + Y_0[49] + K_1[21] + 1
X_1[22] + Y_0[62] + Y_0[58] + Y_0[54] + K_1[22] + 1
X_1[23] + Y_0[63] + Y_0[59] + Y_0[51] + K_1[23]
X_1[24] + Y_0[12] + Y_0[8] + Y_0[0] + K_1[24] + 1
X_1[25] + Y_0[13] + Y_0[5] + Y_0[1] + K_1[25] + 1
X_1[26] + Y_0[10] + Y_0[6] + Y_0[2] + K_1[26]
X_1[27] + Y_0[15] + Y_0[11] + Y_0[7] + K_1[27]
X_1[28] + Y_0[28] + Y_0[24] + Y_0[16] + K_1[28]
X_1[29] + Y_0[29] + Y_0[21] + Y_0[17] + K_1[29]
X_1[30] + Y_0[26] + Y_0[22] + Y_0[18] + K_1[30]
X_1[31] + Y_0[31] + Y_0[27] + Y_0[23] + K_1[31]
X_1[32] + Y_0[56] + Y_0[52] + Y_0[48] + K_1[32]
X_1[33] + Y_0[61] + Y_0[57] + Y_0[53] + K_1[33] + 1
X_1[34] + Y_0[62] + Y_0[58] + Y_0[50] + K_1[34] + 1
X_1[35] + Y_0[63] + Y_0[55] + Y_0[51] + K_1[35] + 1
X_1[36] + Y_0[12] + Y_0[4] + Y_0[0] + K_1[36]
X_1[37] + Y_0[9] + Y_0[5] + Y_0[1] + K_1[37] + 1
X_1[38] + Y_0[14] + Y_0[10] + Y_0[6] + K_1[38]
X_1[39] + Y_0[15] + Y_0[11] + Y_0[3] + K_1[39]
X_1[40] + Y_0[28] + Y_0[20] + Y_0[16] + K_1[40]
X_1[41] + Y_0[25] + Y_0[21] + Y_0[17] + K_1[41] + 1
X_1[42] + Y_0[30] + Y_0[26] + Y_0[22] + K_1[42]
X_1[43] + Y_0[31] + Y_0[27] + Y_0[19] + K_1[43] + 1
X_1[44] + Y_0[44] + Y_0[40] + Y_0[32] + K_1[44]
X_1[45] + Y_0[45] + Y_0[37] + Y_0[33] + K_1[45]
X_1[46] + Y_0[42] + Y_0[38] + Y_0[34] + K_1[46]
X_1[47] + Y_0[47] + Y_0[43] + Y_0[39] + K_1[47] + 1
X_1[48] + Y_0[8] + Y_0[4] + Y_0[0] + K_1[48] + 1
X_1[49] + Y_0[13] + Y_0[9] + Y_0[5] + K_1[49]
X_1[50] + Y_0[14] + Y_0[10] + Y_0[2] + K_1[50]
X_1[51] + Y_0[15] + Y_0[7] + Y_0[3] + K_1[51] + 1
X_1[52] + Y_0[24] + Y_0[20] + Y_0[16] + K_1[52] + 1
X_1[53] + Y_0[29] + Y_0[25] + Y_0[21] + K_1[53]
X_1[54] + Y_0[30] + Y_0[26] + Y_0[18] + K_1[54]
X_1[55] + Y_0[31] + Y_0[23] + Y_0[19] + K_1[55]
X_1[56] + Y_0[44] + Y_0[36] + Y_0[32] + K_1[56] + 1
X_1[57] + Y_0[41] + Y_0[37] + Y_0[33] + K_1[57] + 1
X_1[58] + Y_0[46] + Y_0[42] + Y_0[38] + K_1[58]
X_1[59] + Y_0[47] + Y_0[43] + Y_0[35] + K_1[59]
X_1[60] + Y_0[60] + Y_0[56] + Y_0[52] + K_1[60] + 1
X_1[61] + Y_0[61] + Y_0[57] + Y_0[49] + K_1[61]
X_1[62] + Y_0[62] + Y_0[54] + Y_0[50] + K_1[62]
X_1[63] + Y_0[59] + Y_0[55] + Y_0[51] + K_1[63]
Z_0[0] + S_0(W_0[0],W_0[1],W_0[2],W_0[3])
Z_0[1] + S_1(W_0[0],W_0[1],W_0[2],W_0[3])
Z_0[2] + S_2(W_0[0],W_0[1],W_0[2],W_0[3])
Z_0[3] + S_3(W_0[0],W_0[1],W_0[2],W_0[3])
Z_0[4] + S_0(W_0[4],W_0[5],W_0[6],W_0[7])
Z_0[5] + S_1(W_0[4],W_0[5],W_0[6],W_0[7])
Z_0[6] + S_2(W_0[4],W_0[5],W_0[6],W_0[7])
Z_0[7] + S_3(W_0[4],W_0[5],W_0[6],W_0[7])
Z_0[8] + S_0(W_0[8],W_0[9],W_0[10],W_0[11])
Z_0[9] + S_1(W_0[8],W_0[9],W_0[10],W_0[11])
Z_0[10] + S_2(W_0[8],W_0[9],W_0[10],W_0[11])
Z_0[11] + S_3(W_0[8],W_0[9],W_0[10],W_0[11])
Z_0[12] + S_0(W_0[12],W_0[13],W_0[14],W_0[15])
Z_0[13] + S_1(W_0[12],W_0[13],W_0[14],W_0[15])
Z_0[14] + S_2(W_0[12],W_0[13],W_0[14],W_0[15])
Z_0[15] + S_3(W_0[12],W_0[13],W_0[14],W_0[15])
Z_0[16] + S_0(W_0[16],W_0[17],W_0[18],W_0[19])
Z_0[17] + S_1(W_0[16],W_0[17],W_0[18],W_0[19])
Z_0[18] + S_2(W_0[16],W_0[17],W_0[18],W_0[19])
Z_0[19] + S_3(W_0[16],W_0[17],W_0[18],W_0[19])
Z_0[20] + S_0(W_0[20],W_0[21],W_0[22],W_0[23])
Z_0[21] + S_1(W_0[20],W_0[21],W_0[22],W_0[23])
Z_0[22] + S_2(W_0[20],W_0[21],W_0[22],W_0[23])
Z_0[23] + S_3(W_0[20],W_0[21],W_0[22],W_0[23])
Z_0[24] + S_0(W_0[24],W_0[25],W_0[26],W_0[27])
Z_0[25] + S_1(W_0[24],W_0[25],W_0[26],W_0[27])
Z_0[26] + S_2(W_0[24],W_0[25],W_0[26],W_0[27])
Z_0[27] + S_3(W_0[24],W_0[25],W_0[26],W_0[27])
Z_0[28] + S_0(W_0[28],W_0[29],W_0[30],W_0[31])
Z_0[29] + S_1(W_0[28],W_0[29],W_0[30],W_0[31])
Z_0[30] + S_2(W_0[28],W_0[29],W_0[30],W_0[31])
Z_0[31] + S_3(W_0[28],W_0[29],W_0[30],W_0[31])
Z_0[32] + S_0(W_0[32],W_0[33],W_0[34],W_0[35])
Z_0[33] + S_1(W_0[32],W_0[33],W_0[34],W_0[35])
Z_0[34] + S_2(W_0[32],W_0[33],W_0[34],W_0[35])
Z_0[35] + S_3(W_0[32],W_0[33],W_0[34],W_0[35])
Z_0[36] + S_0(W_0[36],W_0[37],W_0[38],W_0[39])
Z_0[37] + S_1(W_0[36],W_0[37],W_0[38],W_0[39])
Z_0[38] + S_2(W_0[36],W_0[37],W_0[38],W_0[39])
Z_0[39] + S_3(W_0[36],W_0[37],W_0[38],W_0[39])
Z_0[40] + S_0(W_0[40],W_0[41],W_0[42],W_0[43])
Z_0[41] + S_1(W_0[40],W_0[41],W_0[42],W_0[43])
Z_0[42] + S_2(W_0[40],W_0[41],W_0[42],W_0[43])
Z_0[43] + S_3(W_0[40],W_0[41],W_0[42],W_0[43])
Z_0[44] + S_0(W_0[44],W_0[45],W_0[46],W_0[47])
Z_0[45] + S_1(W_0[44],W_0[45],W_0[46],W_0[47])
Z_0[46] + S_2(W_0[44],W_0[45],W_0[46],W_0[47])
Z_0[47] + S_3(W_0[44],W_0[45],W_0[46],W_0[47])
Z_0[48] + S_0(W_0[48],W_0[49],W_0[50],W_0[51])
Z_0[49] + S_1(W_0[48],W_0[49],W_0[50],W_0[51])
Z_0[50] + S_2(W_0[48],W_0[49],W_0[50],W_0[51])
Z_0[51] + S_3(W_0[48],W_0[49],W_0[50],W_0[51])
Z_0[52] + S_0(W_0[52],W_0[53],W_0[54],W_0[55])
Z_0[53] + S_1(W_0[52],W_0[53],W_0[54],W_0[55])
Z_0[54] + S_2(W_0[52],W_0[53],W_0[54],W_0[55])
Z_0[55] + S_3(W_0[52],W_0[53],W_0[54],W_0[55])
Z_0[56] + S_0(W_0[56],W_0[57],W_0[58],W_0[59])
Z_0[57] + S_1(W_0[56],W_0[57],W_0[58],W_0[59])
Z_0[58] + S_2(W_0[56],W_0[57],W_0[58],W_0[59])
Z_0[59] + S_3(W_0[56],W_0[57],W_0[58],W_0[59])
Z_0[60] + S_0(W_0[60],W_0[61],W_0[62],W_0[63])
Z_0[61] + S_1(W_0[60],W_0[61],W_0[62],W_0[63])
Z_0[62] + S_2(W_0[60],W_0[61],W_0[62],W_0[63])
Z_0[63] + S_3(W_0[60],W_0[61],W_0[62],W_0[63])
W_1[0] + Z_0[28] + Z_0[24] + Z_0[20] + K_1[0] + 1
W_1[1] + Z_0[29] + Z_0[25] + Z_0[17] + K_1[1]
W_1[2] + Z_0[30] + Z_0[22] + Z_0[18] + K_1[2]
W_1[3] + Z_0[27] + Z_0[23] + Z_0[19] + K_1[3] + 1
W_1[4] + Z_0[40] + Z_0[36] + Z_0[32] + K_1[4] + 1
W_1[5] + Z_0[45] + Z_0[41] + Z_0[37] + K_1[5]
W_1[6] + Z_0[46] + Z_0[42] + Z_0[34] + K_1[6]
W_1[7] + Z_0[47] + Z_0[39] + Z_0[35] + K_1[7] + 1
W_1[8] + Z_0[60] + Z_0[56] + Z_0[48] + K_1[8] + 1
W_1[9] + Z_0[61] + Z_0[53] + Z_0[49] + K_1[9] + 1
W_1[10] + Z_0[58] + Z_0[54] + Z_0[50] + K_1[10]
W_1[11] + Z_0[63] + Z_0[59] + Z_0[55] + K_1[11]
W_1[12] + Z_0[12] + Z_0[8] + Z_0[4] + K_1[12]
W_1[13] + Z_0[13] + Z_0[9] + Z_0[1] + K_1[13] + 1
W_1[14] + Z_0[14] + Z_0[6] + Z_0[2] + K_1[14]
W_1[15] + Z_0[11] + Z_0[7] + Z_0[3] + K_1[15]
W_1[16] + Z_0[44] + Z_0[40] + Z_0[36] + K_1[16]
W_1[17] + Z_0[45] + Z_0[41] + Z_0[33] + K_1[17]
W_1[18] + Z_0[46] + Z_0[38] + Z_0[34] + K_1[18] + 1
W_1[19] + Z_0[43] + Z_0[39] + Z_0[35] + K_1[19] + 1
W_1[20] + Z_0[60] + Z_0[52] + Z_0[48] + K_1[20]
W_1[21] + Z_0[57] + Z_0[53] + Z_0[49] + K_1[21]
W_1[22] + Z_0[62] + Z_0[58] + Z_0[54] + K_1[22]
W_1[23] + Z_0[63] + Z_0[59] + Z_0[51] + K_1[23]
W_1[24] + Z_0[12] + Z_0[8] + Z_0[0] + K_1[24]
W_1[25] + Z_0[13] + Z_0[5] + Z_0[1] + K_1[25] + 1
W_1[26] + Z_0[10] + Z_0[6] + Z_0[2] + K_1[26]
W_1[27] + Z_0[15] + Z_0[11] + Z_0[7] + K_1[27] + 1
W_1[28] + Z_0[28] + Z_0[24] + Z_0[16] + K_1[28]
W_1[29] + Z_0[29] + Z_0[21] + Z_0[17] + K_1[29]
W_1[30] + Z_0[26] + Z_0[22] + Z_0[18] + K_1[30] + 1
W_1[31] + Z_0[31] + Z_0[27] + Z_0[23] + K_1[31] + 1
W_1[32] + Z_0[56] + Z_0[52] + Z_0[48] + K_1[32] + 1
W_1[33] + Z_0[61] + Z_0[57] + Z_0[53] + K_1[33]
W_1[34] + Z_0[62] + Z_0[58] + Z_0[50] + K_1[34]
W_1[35] + Z_0[63] + Z_0[55] + Z_0[51] + K_1[35] + 1
W_1[36] + Z_0[12] + Z_0[4] + Z_0[0] + K_1[36] + 1
W_1[37] + Z_0[9] + Z_0[5] + Z_0[1] + K_1[37]
W_1[38] + Z_0[14] + Z_0[10] + Z_0[6] + K_1[38]
W_1[39] + Z_0[15] + Z_0[11] + Z_0[3] + K_1[39] + 1
W_1[40] + Z_0[28] + Z_0[20] + Z_0[16] + K_1[40] + 1
W_1[41] + Z_0[25] + Z_0[21] + Z_0[17] + K_1[41] + 1
W_1[42] + Z_0[30] + Z_0[26] + Z_0[22] + K_1[42]
W_1[43] + Z_0[31] + Z_0[27] + Z_0[19] + K_1[43]
W_1[44] + Z_0[44] + Z_0[40] + Z_0[32] + K_1[44]
W_1[45] + Z_0[45] + Z_0[37] + Z_0[33] + K_1[45] + 1
W_1[46] + Z_0[42] + Z_0[38] + Z_0[34] + K_1[46]
W_1[47] + Z_0[47] + Z_0[43] + Z_0[39] + K_1[47] + 1
W_1[48] + Z_0[8] + Z_0[4] + Z_0[0] + K_1[48] + 1
W_1[49] + Z_0[13] + Z_0[9] + Z_0[5] + K_1[49]
W_1[50] + Z_0[14] + Z_0[10] + Z_0[2] + K_1[50] + 1
W_1[51] + Z_0[15] + Z_0[7] + Z_0[3] + K_1[51]
W_1[52] + Z_0[24] + Z_0[20] + Z_0[16] + K_1[52] + 1
W_1[53] + Z_0[29] + Z_0[25] + Z_0[21] + K_1[53] + 1
W_1[54] + Z_0[30] + Z_0[26] + Z_0[18] + K_1[54]
W_1[55] + Z_0[31] + Z_0[23] + Z_0[19] + K_1[55] + 1
W_1[56] + Z_0[44] + Z_0[36] + Z_0[32] + K_1[56] + 1
W_1[57] + Z_0[41] + Z_0[37] + Z_0[33] + K_1[57] + 1
W_1[58] + Z_0[46] + Z_0[42] + Z_0[38] + K_1[58]
W_1[59] + Z_0[47] + Z_0[43] + Z_0[35] + K_1[59]
W_1[60] + Z_0[60] + Z_0[56] + Z_0[52] + K_1[60] + 1
W_1[61] + Z_0[61] + Z_0[57] + Z_0[49] + K_1[61]
W_1[62] + Z_0[62] + Z_0[54] + Z_0[50] + K_1[62] + 1
W_1[63] + Z_0[59] + Z_0[55] + Z_0[51] + K_1[63] + 1
Y_1[0] + S_0(X_1[0],X_1[1],X_1[2],X_1[3])
Y_1[1] + S_1(X_1[0],X_1[1],X_1[2],X_1[3])
Y_1[2] + S_2(X_1[0],X_1[1],X_1[2],X_1[3])
Y_1[3] + S_3(X_1[0],X_1[1],X_1[2],X_1[3])
Y_1[4] + S_0(X_1[4],X_1[5],X_1[6],X_1[7])
Y_1[5] + S_1(X_1[4],X_1[5],X_1[6],X_1[7])
Y_1[6] + S_2(X_1[4],X_1[5],X_1[6],X_1[7])
Y_1[7] + S_3(X_1[4],X_1[5],X_1[6],X_1[7])
Y_1[8] + S_0(X_1[8],X_1[9],X_1[10],X_1[11])
Y_1[9] + S_1(X_1[8],X_1[9],X_1[10],X_1[11])
Y_1[10] + S_2(X_1[8],X_1[9],X_1[10],X_1[11])
Y_1[11] + S_3(X_1[8],X_1[9],X_1[10],X_1[11])
Y_1[12] + S_0(X_1[12],X_1[13],X_1[14],X_1[15])
Y_1[13] + S_1(X_1[12],X_1[13],X_1[14],X_1[15])
Y_1[14] + S_2(X_1[12],X_1[13],X_1[14],X_1[15])
Y_1[15] + S_3(X_1[12],X_1[13],X_1[14],X_1[15])
Y_1[16] + S_0(X_1[16],X_1[17],X_1[18],X_1[19])
Y_1[17] + S_1(X_1[16],X_1[17],X_1[18],X_1[19])
Y_1[18] + S_2(X_1[16],X_1[17],X_1[18],X_1[19])
Y_1[19] + S_3(X_1[16],X_1[17],X_1[18],X_1[19])
Y_1[20] + S_0(X_1[20],X_1[21],X_1[22],X_1[23])
Y_1[21] + S_1(X_1[20],X_1[21],X_1[22],X_1[23])
Y_1[22] + S_2(X_1[20],X_1[21],X_1[22],X_1[23])
Y_1[23] + S_3(X_1[20],X_1[21],X_1[22],X_1[23])
Y_1[24] + S_0(X_1[24],X_1[25],X_1[26],X_1[27])
Y_1[25] + S_1(X_1[24],X_1[25],X_1[26],X_1[27])
Y_1[26] + S_2(X_1[24],X_1[25],X_1[26],X_1[27])
Y_1[27] + S_3(X_1[24],X_1[25],X_1[26],X_1[27])
Y_1[28] + S_0(X_1[28],X_1[29],X_1[30],X_1[31])
Y_1[29] + S_1(X_1[28],X_1[29],X_1[30],X_1[31])
Y_1[30] + S_2(X_1[28],X_1[29],X_1[30],X_1[31])
Y_1[31] + S_3(X_1[28],X_1[29],X_1[30],X_1[31])
Y_1[32] + S_0(X_1[32],X_1[33],X_1[34],X_1[35])
Y_1[33] + S_1(X_1[32],X_1[33],X_1[34],X_1[35])
Y_1[34] + S_2(X_1[32],X_1[33],X_1[34],X_1[35])
Y_1[35] + S_3(X_1[32],X_1[33],X_1[34],X_1[35])
Y_1[36] + S_0(X_1[36],X_1[37],X_1[38],X_1[39])
Y_1[37] + S_1(X_1[36],X_1[37],X_1[38],X_1[39])
Y_1[38] + S_2(X_1[36],X_1[37],X_1[38],X_1[39])
Y_1[39] + S_3(X_1[36],X_1[37],X_1[38],X_1[39])
Y_1[40] + S_0(X_1[40],X_1[41],X_1[42],X_1[43])
Y_1[41] + S_1(X_1[40],X_1[41],X_1[42],X_1[43])
Y_1[42] + S_2(X_1[40],X_1[41],X_1[42],X_1[43])
Y_1[43] + S_3(X_1[40],X_1[41],X_1[42],X_1[43])
Y_1[44] + S_0(X_1[44],X_1[45],X_1[46],X_1[47])
Y_1[45] + S_1(X_1[44],X_1[45],X_1[46],X_1[47])
Y_1[46] + S_2(X_1[44],X_1[45],X_1[46],X_1[47])
Y_1[47] + S_3(X_1[44],X_1[45],X_1[46],X_1[47])
Y_1[48] + S_0(X_1[48],X_1[49],X_1[50],X_1[51])
Y_1[49] + S_1(X_1[48],X_1[49],X_1[50],X_1[51])
Y_1[50] + S_2(X_1[48],X_1[49],X_1[50],X_1[51])
Y_1[51] + S_3(X_1[48],X_1[49],X_1[50],X_1[51])
Y_1[52] + S_0(X_1[52],X_1[53],X_1[54],X_1[55])
Y_1[53] + S_1(X_1[52],X_1[53],X_1[54],X_1[55])
Y_1[54] + S_2(X_1[52],X_1[53],X_1[54],X_1[55])
Y_1[55] + S_3(X_1[52],X_1[53],X_1[54],X_1[55])
Y_1[56] + S_0(X_1[56],X_1[57],X_1[58],X_1[59])
Y_1[57] + S_1(X_1[56],X_1[57],X_1[58],X_1[59])
Y_1[58] + S_2(X_1[56],X_1[57],X_1[58],X_1[59])
Y_1[59] + S_3(X_1[56],X_1[57],X_1[58],X_1[59])
Y_1[60] + S_0(X_1[60],X_1[61],X_1[62],X_1[63])
Y_1[61] + S_1(X_1[60],X_1[61],X_1[62],X_1[63])
Y_1[62] + S_2(X_1[60],X_1[61],X_1[62],X_1[63])
Y_1[63] + S_3(X_1[60],X_1[61],X_1[62],X_1[63])
X_2[0] + Y_1[28] + Y_1[24] + Y_1[20] + K_1[0]
X_2[1] + Y_1[29] + Y_1[25] + Y_1[17] + K_1[1]
X_2[2] + Y_1[30] + Y_1[22] + Y_1[18] + K_1[2]
X_2[3] + Y_1[27] + Y_1[23] + Y_1[19] + K_1[3]
X_2[4] + Y_1[40] + Y_1[36] + Y_1[32] + K_1[4] + 1
X_2[5] + Y_1[45] + Y_1[41] + Y_1[37] + K_1[5]
X_2[6] + Y_1[46] + Y_1[42] + Y_1[34] + K_1[6] + 1
X_2[7] + Y_1[47] + Y_1[39] + Y_1[35] + K_1[7] + 1
X_2[8] + Y_1[60] + Y_1[56] + Y_1[48] + K_1[8] + 1
X_2[9] + Y_1[61] + Y_1[53] + Y_1[49] + K_1[9]
X_2[10] + Y_1[58] + Y_1[54] + Y_1[50] + K_1[10]
X_2[11] + Y_1[63] + Y_1[59] + Y_1[55] + K_1[11]
X_2[12] + Y_1[12] + Y_1[8] + Y_1[4] + K_1[12] + 1
X_2[13] + Y_1[13] + Y_1[9] + Y_1[1] + K_1[13] + 1
X_2[14] + Y_1[14] + Y_1[6] + Y_1[2] + K_1[14]
X_2[15] + Y_1[11] + Y_1[7] + Y_1[3] + K_1[15]
X_2[16] + Y_1[44] + Y_1[40] + Y_1[36] + K_1[16] + 1
X_2[17] + Y_1[45] + Y_1[41] + Y_1[33] + K_1[17] + 1
X_2[18] + Y_1[46] + Y_1[38] + Y_1[34] + K_1[18] + 1
X_2[19] + Y_1[43] + Y_1[39] + Y_1[35] + K_1[19] + 1
X_2[20] + Y_1[60] + Y_1[52] + Y_1[48] + K_1[20] + 1
X_2[21] + Y_1[57] + Y_1[53] + Y_1[49] + K_1[21]
X_2[22] + Y_1[62] + Y_1[58] + Y_1[54] + K_1[22]
X_2[23] + Y_1[63] + Y_1[59] + Y_1[51] + K_1[23] + 1
X_2[24] + Y_1[12] + Y_1[8] + Y_1[0] + K_1[24] + 1
X_2[25] + Y_1[13] + Y_1[5] + Y_1[1] + K_1[25]
X_2[26] + Y_1[10] + Y_1[6] + Y_1[2] + K_1[26]
X_2[27] + Y_1[15] + Y_1[11] + Y_1[7] + K_1[27] + 1
X_2[28] + Y_1[28] + Y_1[24] + Y_1[16] + K_1[28]
X_2[29] + Y_1[29] + Y_1[21] + Y_1[17] + K_1[29] + 1
X_2[30] + Y_1[26] + Y_1[22] + Y_1[18] + K_1[30]
X_2[31] + Y_1[31] + Y_1[27] + Y_1[23] + K_1[31]
X_2[32] + Y_1[56] + Y_1[52] + Y_1[48] + K_1[32]
X_2[33] + Y_1[61] + Y_1[57] + Y_1[53] + K_1[33] + 1
X_2[34] + Y_1[62] + Y_1[58] + Y_1[50] + K_1[34]
X_2[35] + Y_1[63] + Y_1[55] + Y_1[51] + K_1[35]
X_2[36] + Y_1[12] + Y_1[4] + Y_1[0] + K_1[36]
X_2[37] + Y_1[9] + Y_1[5] + Y_1[1] + K_1[37] + 1
X_2[38] + Y_1[14] + Y_1[10] + Y_1[6] + K_1[38]
X_2[39] + Y_1[15] + Y_1[11] + Y_1[3] + K_1[39]
X_2[40] + Y_1[28] + Y_1[20] + Y_1[16] + K_1[40]
X_2[41] + Y_1[25] + Y_1[21] + Y_1[17] + K_1[41]
X_2[42] + Y_1[30] + Y_1[26] + Y_1[22] + K_1[42]
X_2[43] + Y_1[31] + Y_1[27] + Y_1[19] + K_1[43] + 1
X_2[44] + Y_1[44] + Y_1[40] + Y_1[32] + K_1[44] + 1
X_2[45] + Y_1[45] + Y_1[37] + Y_1[33] + K_1[45] + 1
X_2[46] + Y_1[42] + Y_1[38] + Y_1[34] + K_1[46]
X_2[47] + Y_1[47] + Y_1[43] + Y_1[39] + K_1[47]
X_2[48] + Y_1[8] + Y_1[4] + Y_1[0] + K_1[48] + 1
X_2[49] + Y_1[13] + Y_1[9] + Y_1[5] + K_1[49]
X_2[50] + Y_1[14] + Y_1[10] + Y_1[2] + K_1[50]
X_2[51] + Y_1[15] + Y_1[7] + Y_1[3] + K_1[51] + 1
X_2[52] + Y_1[24] + Y_1[20] + Y_1[16] + K_1[52]
X_2[53] + Y_1[29] + Y_1[25] + Y_1[21] + K_1[53]
X_2[54] + Y_1[30] + Y_1[26] + Y_1[18] + K_1[54]
X_2[55] + Y_1[31] + Y_1[23] + Y_1[19] + K_1[55]
X_2[56] + Y_1[44] + Y_1[36] + Y_1[32] + K_1[56]
X_2[57] + Y_1[41] + Y_1[37] + Y_1[33] + K_1[57]
X_2[58] + Y_1[46] + Y_1[42] + Y_1[38] + K_1[58] + 1
X_2[59] + Y_1[47] + Y_1[43] + Y_1[35] + K_1[59]
X_2[60] + Y_1[60] + Y_1[56] + Y_1[52] + K_1[60]
X_2[61] + Y_1[61] + Y_1[57] + Y_1[49] + K_1[61] + 1
X_2[62] + Y_1[62] + Y_1[54] + Y_1[50] + K_1[62]
X_2[63] + Y_1[59] + Y_1[55] + Y_1[51] + K_1[63] + 1
Z_1[0] + S_0(W_1[0],W_1[1],W_1[2],W_1[3])
Z_1[1] + S_1(W_1[0],W_1[1],W_1[2],W_1[3])
Z_1[2] + S_2(W_1[0],W_1[1],W_1[2],W_1[3])
Z_1[3] + S_3(W_1[0],W_1[1],W_1[2],W_1[3])
Z_1[4] + S_0(W_1[4],W_1[5],W_1[6],W_1[7])
Z_1[5] + S_1(W_1[4],W_1[5],W_1[6],W_1[7])
Z_1[6] + S_2(W_1[4],W_1[5],W_1[6],W_1[7])
Z_1[7] + S_3(W_1[4],W_1[5],W_1[6],W_1[7])
Z_1[8] + S_0(W_1[8],W_1[9],W_1[10],W_1[11])
Z_1[9] + S_1(W_1[8],W_1[9],W_1[10],W_1[11])
Z_1[10] + S_2(W_1[8],W_1[9],W_1[10],W_1[11])
Z_1[11] + S_3(W_1[8],W_1[9],W_1[10],W_1[11])
Z_1[12] + S_0(W_1[12],W_1[13],W_1[14],W_1[15])
Z_1[13] + S_1(W_1[12],W_1[13],W_1[14],W_1[15])
Z_1[14] + S_2(W_1[12],W_1[13],W_1[14],W_1[15])
Z_1[15] + S_3(W_1[12],W_1[13],W_1[14],W_1[15])
Z_1[16] + S_0(W_1[16],W_1[17],W_1[18],W_1[19])
Z_1[17] + S_1(W_1[16],W_1[17],W_1[18],W_1[19])
Z_1[18] + S_2(W_1[16],W_1[17],W_1[18],W_1[19])
Z_1[19] + S_3(W_1[16],W_1[17],W_1[18],W_1[19])
Z_1[20] + S_0(W_1[20],W_1[21],W_1[22],W_1[23])
Z_1[21] + S_1(W_1[20],W_1[21],W_1[22],W_1[23])
Z_1[22] + S_2(W_1[20],W_1[21],W_1[22],W_1[23])
Z_1[23] + S_3(W_1[20],W_1[21],W_1[22],W_1[23])
Z_1[24] + S_0(W_1[24],W_1[25],W_1[26],W_1[27])
Z_1[25] + S_1(W_1[24],W_1[25],W_1[26],W_1[27])
Z_1[26] + S_2(W_1[24],W_1[25],W_1[26],W_1[27])
Z_1[27] + S_3(W_1[24],W_1[25],W_1[26],W_1[27])
Z_1[28] + S_0(W_1[28],W_1[29],W_1[30],W_1[31])
Z_1[29] + S_1(W_1[28],W_1[29],W_1[30],W_1[31])
Z_1[30] + S_2(W_1[28],W_1[29],W_1[30],W_1[31])
Z_1[31] + S_3(W_1[28],W_1[29],W_1[30],W_1[31])
Z_1[32] + S_0(W_1[32],W_1[33],W_1[34],W_1[35])
Z_1[33] + S_1(W_1[32],W_1[33],W_1[34],W_1[35])
Z_1[34] + S_2(W_1[32],W_1[33],W_1[34],W_1[35])
Z_1[35] + S_3(W_1[32],W_1[33],W_1[34],W_1[35])
Z_1[36] + S_0(W_1[36],W_1[37],W_1[38],W_1[39])
Z_1[37] + S_1(W_1[36],W_1[37],W_1[38],W_1[39])
Z_1[38] + S_2(W_1[36],W_1[37],W_1[38],W_1[39])
Z_1[39] + S_3(W_1[36],W_1[37],W_1[38],W_1[39])
Z_1[40] + S_0(W_1[40],W_1[41],W_1[42],W_1[43])
Z_1[41] + S_1(W_1[40],W_1[41],W_1[42],W_1[43])
Z_1[42] + S_2(W_1[40],W_1[41],W_1[42],W_1[43])
Z_1[43] + S_3(W_1[40],W_1[41],W_1[42],W_1[43])
Z_1[44] + S_0(W_1[44],W_1[45],W_1[46],W_1[47])
Z_1[45] + S_1(W_1[44],W_1[45],W_1[46],W_1[47])
Z_1[46] + S_2(W_1[44],W_1[45],W_1[46],W_1[47])
Z_1[47] + S_3(W_1[44],W_1[45],W_1[46],W_1[47])
Z_1[48] + S_0(W_1[48],W_1[49],W_1[50],W_1[51])
Z_1[49] + S_1(W_1[48],W_1[49],W_1[50],W_1[51])
Z_1[50] + S_2(W_1[48],W_1[49],W_1[50],W_1[51])
Z_1[51] + S_3(W_1[48],W_1[49],W_1[50],W_1[51])
Z_1[52] + S_0(W_1[52],W_1[53],W_1[54],W_1[55])
Z_1[53] + S_1(W_1[52],W_1[53],W_1[54],W_1[55])
Z_1[54] + S_2(W_1[52],W_1[53],W_1[54],W_1[55])
Z_1[55] + S_3(W_1[52],W_1[53],W_1[54],W_1[55])
Z_1[56] + S_0(W_1[56],W_1[57],W_1[58],W_1[59])
Z_1[57] + S_1(W_1[56],W_1[57],W_1[58],W_1[59])
Z_1[58] + S_2(W_1[56],W_1[57],W_1[58],W_1[59])
Z_1[59] + S_3(W_1[56],W_1[57],W_1[58],W_1[59])
Z_1[60] + S_0(W_1[60],W_1[61],W_1[62],W_1[63])
Z_1[61] + S_1(W_1[60],W_1[61],W_1[62],W_1[63])
Z_1[62] + S_2(W_1[60],W_1[61],W_1[62],W_1[63])
Z_1[63] + S_3(W_1[60],W_1[61],W_1[62],W_1[63])
W_2[0] + Z_1[28] + Z_1[24] + Z_1[20] + K_1[0] + 1
W_2[1] + Z_1[29] + Z_1[25] + Z_1[17] + K_1[1]
W_2[2] + Z_1[30] + Z_1[22] + Z_1[18] + K_1[2] + 1
W_2[3] + Z_1[27] + Z_1[23] + Z_1[19] + K_1[3] + 1
W_2[4] + Z_1[40] + Z_1[36] + Z_1[32] + K_1[4]
W_2[5] + Z_1[45] + Z_1[41] + Z_1[37] + K_1[5]
W_2[6] + Z_1[46] + Z_1[42] + Z_1[34] + K_1[6]
W_2[7] + Z_1[47] + Z_1[39] + Z_1[35] + K_1[7]
W_2[8] + Z_1[60] + Z_1[56] + Z_1[48] + K_1[8] + 1
W_2[9] + Z_1[61] + Z_1[53] + Z_1[49] + K_1[9]
W_2[10] + Z_1[58] + Z_1[54] + Z_1[50] + K_1[10]
W_2[11] + Z_1[63] + Z_1[59] + Z_1[55] + K_1[11]
W_2[12] + Z_1[12] + Z_1[8] + Z_1[4] + K_1[12]
W_2[13] + Z_1[13] + Z_1[9] + Z_1[1] + K_1[13] + 1
W_2[14] + Z_1[14] + Z_1[6] + Z_1[2] + K_1[14] + 1
W_2[15] + Z_1[11] + Z_1[7] + Z_1[3] + K_1[15]
W_2[16] + Z_1[44] + Z_1[40] + Z_1[36] + K_1[16] + 1
W_2[17] + Z_1[45] + Z_1[41] + Z_1[33] + K_1[17] + 1
W_2[18] + Z_1[46] + Z_1[38] + Z_1[34] + K_1[18]
W_2[19] + Z_1[43] + Z_1[39] + Z_1[35] + K_1[19]
W_2[20] + Z_1[60] + Z_1[52] + Z_1[48] + K_1[20]
W_2[21] + Z_1[57] + Z_1[53] + Z_1[49] + K_1[21] + 1
W_2[22] + Z_1[62] + Z_1[58] + Z_1[54] + K_1[22] + 1
W_2[23] + Z_1[63] + Z_1[59] + Z_1[51] + K_1[23] + 1
W_2[24] + Z_1[12] + Z_1[8] + Z_1[0] + K_1[24]
W_2[25] + Z_1[13] + Z_1[5] + Z_1[1] + K_1[25]
W_2[26] + Z_1[10] + Z_1[6] + Z_1[2] + K_1[26]
W_2[27] + Z_1[15] + Z_1[11] + Z_1[7] + K_1[27]
W_2[28] + Z_1[28] + Z_1[24] + Z_1[16] + K_1[28]
W_2[29] + Z_1[29] + Z_1[21] + Z_1[17] + K_1[29] + 1
W_2[30] + Z_1[26] + Z_1[22] + Z_1[18] + K_1[30] + 1
W_2[31] + Z_1[31] + Z_1[27] + Z_1[23] + K_1[31] + 1
W_2[32] + Z_1[56] + Z_1[52] + Z_1[48] + K_1[32] + 1
W_2[33] + Z_1[61] + Z_1[57] + Z_1[53] + K_1[33]
W_2[34] + Z_1[62] + Z_1[58] + Z_1[50] + K_1[34] + 1
W_2[35] + Z_1[63] + Z_1[55] + Z_1[51] + K_1[35]
W_2[36] + Z_1[12] + Z_1[4] + Z_1[0] + K_1[36] + 1
W_2[37] + Z_1[9] + Z_1[5] + Z_1[1] + K_1[37]
W_2[38] + Z_1[14] + Z_1[10] + Z_1[6] + K_1[38]
W_2[39] + Z_1[15] + Z_1[11] + Z_1[3] + K_1[39] + 1
W_2[40] + Z_1[28] + Z_1[20] + Z_1[16] + K_1[40] + 1
W_2[41] + Z_1[25] + Z_1[21] + Z_1[17] + K_1[41]
W_2[42] + Z_1[30] + Z_1[26] + Z_1[22] + K_1[42]
W_2[43] + Z_1[31] + Z_1[27] + Z_1[19] + K_1[43]
W_2[44] + Z_1[44] + Z_1[40] + Z_1[32] + K_1[44] + 1
W_2[45] + Z_1[45] + Z_1[37] + Z_1[33] + K_1[45]
W_2[46] + Z_1[42] + Z_1[38] + Z_1[34] + K_1[46]
W_2[47] + Z_1[47] + Z_1[43] + Z_1[39] + K_1[47]
W_2[48] + Z_1[8] + Z_1[4] + Z_1[0] + K_1[48] + 1
W_2[49] + Z_1[13] + Z_1[9] + Z_1[5] + K_1[49]
W_2[50] + Z_1[14] + Z_1[10] + Z_1[2] + K_1[50] + 1
W_2[51] + Z_1[15] + Z_1[7] + Z_1[3] + K_1[51]
W_2[52] + Z_1[24] + Z_1[20] + Z_1[16] + K_1[52]
W_2[53] + Z_1[29] + Z_1[25] + Z_1[21] + K_1[53] + 1
W_2[54] + Z_1[30] + Z_1[26] + Z_1[18] + K_1[54]
W_2[55] + Z_1[31] + Z_1[23] + Z_1[19] + K_1[55] + 1
W_2[56] + Z_1[44] + Z_1[36] + Z_1[32] + K_1[56]
W_2[57] + Z_1[41] + Z_1[37] + Z_1[33] + K_1[57]
W_2[58] + Z_1[46] + Z_1[42] + Z_1[38] + K_1[58] + 1
W_2[59] + Z_1[47] + Z_1[43] + Z_1[35] + K_1[59]
W_2[60] + Z_1[60] + Z_1[56] + Z_1[52] + K_1[60]
W_2[61] + Z_1[61] + Z_1[57] + Z_1[49] + K_1[61] + 1
W_2[62] + Z_1[62] + Z_1[54] + Z_1[50] + K_1[62] + 1
W_2[63] + Z_1[59] + Z_1[55] + Z_1[51] + K_1[63]
Y_2[0] + S_0(X_2[0],X_2[1],X_2[2],X_2[3])
Y_2[1] + S_1(X_2[0],X_2[1],X_2[2],X_2[3])
Y_2[2] + S_2(X_2[0],X_2[1],X_2[2],X_2[3])
Y_2[3] + S_3(X_2[0],X_2[1],X_2[2],X_2[3])
Y_2[4] + S_0(X_2[4],X_2[5],X_2[6],X_2[7])
Y_2[5] + S_1(X_2[4],X_2[5],X_2[6],X_2[7])
Y_2[6] + S_2(X_2[4],X_2[5],X_2[6],X_2[7])
Y_2[7] + S_3(X_2[4],X_2[5],X_2[6],X_2[7])
Y_2[8] + S_0(X_2[8],X_2[9],X_2[10],X_2[11])
Y_2[9] + S_1(X_2[8],X_2[9],X_2[10],X_2[11])
Y_2[10] + S_2(X_2[8],X_2[9],X_2[10],X_2[11])
Y_2[11] + S_3(X_2[8],X_2[9],X_2[10],X_2[11])
Y_2[12] + S_0(X_2[12],X_2[13],X_2[14],X_2[15])
Y_2[13] + S_1(X_2[12],X_2[13],X_2[14],X_2[15])
Y_2[14] + S_2(X_2[12],X_2[13],X_2[14],X_2[15])
Y_2[15] + S_3(X_2[12],X_2[13],X_2[14],X_2[15])
Y_2[16] + S_0(X_2[16],X_2[17],X_2[18],X_2[19])
Y_2[17] + S_1(X_2[16],X_2[17],X_2[18],X_2[19])
Y_2[18] + S_2(X_2[16],X_2[17],X_2[18],X_2[19])
Y_2[19] + S_3(X_2[16],X_2[17],X_2[18],X_2[19])
Y_2[20] + S_0(X_2[20],X_2[21],X_2[22],X_2[23])
Y_2[21] + S_1(X_2[20],X_2[21],X_2[22],X_2[23])
Y_2[22] + S_2(X_2[20],X_2[21],X_2[22],X_2[23])
Y_2[23] + S_3(X_2[20],X_2[21],X_2[22],X_2[23])
Y_2[24] + S_0(X_2[24],X_2[25],X_2[26],X_2[27])
Y_2[25] + S_1(X_2[24],X_2[25],X_2[26],X_2[27])
Y_2[26] + S_2(X_2[24],X_2[25],X_2[26],X_2[27])
Y_2[27] + S_3(X_2[24],X_2[25],X_2[26],X_2[27])
Y_2[28] + S_0(X_2[28],X_2[29],X_2[30],X_2[31])
Y_2[29] + S_1(X_2[28],X_2[29],X_2[30],X_2[31])
Y_2[30] + S_2(X_2[28],X_2[29],X_2[30],X_2[31])
Y_2[31] + S_3(X_2[28],X_2[29],X_2[30],X_2[31])
Y_2[32] + S_0(X_2[32],X_2[33],X_2[34],X_2[35])
Y_2[33] + S_1(X_2[32],X_2[33],X_2[34],X_2[35])
Y_2[34] + S_2(X_2[32],X_2[33],X_2[34],X_2[35])
Y_2[35] + S_3(X_2[32],X_2[33],X_2[34],X_2[35])
Y_2[36] + S_0(X_2[36],X_2[37],X_2[38],X_2[39])
Y_2[37] + S_1(X_2[36],X_2[37],X_2[38],X_2[39])
Y_2[38] + S_2(X_2[36],X_2[37],X_2[38],X_2[39])
Y_2[39] + S_3(X_2[36],X_2[37],X_2[38],X_2[39])
Y_2[40] + S_0(X_2[40],X_2[41],X_2[42],X_2[43])
Y_2[41] + S_1(X_2[40],X_2[41],X_2[42],X_2[43])
Y_2[42] + S_2(X_2[40],X_2[41],X_2[42],X_2[43])
Y_2[43] + S_3(X_2[40],X_2[41],X_2[42],X_2[43])
Y_2[44] + S_0(X_2[44],X_2[45],X_2[46],X_2[47])
Y_2[45] + S_1(X_2[44],X_2[45],X_2[46],X_2[47])
Y_2[46] + S_2(X_2[44],X_2[45],X_2[46],X_2[47])
Y_2[47] + S_3(X_2[44],X_2[45],X_2[46],X_2[47])
Y_2[48] + S_0(X_2[48],X_2[49],X_2[50],X_2[51])
Y_2[49] + S_1(X_2[48],X_2[49],X_2[50],X_2[51])
Y_2[50] + S_2(X_2[48],X_2[49],X_2[50],X_2[51])
Y_2[51] + S_3(X_2[48],X_2[49],X_2[50],X_2[51])
Y_2[52] + S_0(X_2[52],X_2[53],X_2[54],X_2[55])
Y_2[53] + S_1(X_2[52],X_2[53],X_2[54],X_2[55])
Y_2[54] + S_2(X_2[52],X_2[53],X_2[54],X_2[55])
Y_2[55] + S_3(X_2[52],X_2[53],X_2[54],X_2[55])
Y_2[56] + S_0(X_2[56],X_2[57],X_2[58],X_2[59])
Y_2[57] + S_1(X_2[56],X_2[57],X_2[58],X_2[59])
Y_2[58] + S_2(X_2[56],X_2[57],X_2[58],X_2[59])
Y_2[59] + S_3(X_2[56],X_2[57],X_2[58],X_2[59])
Y_2[60] + S_0(X_2[60],X_2[61],X_2[62],X_2[63])
Y_2[61] + S_1(X_2[60],X_2[61],X_2[62],X_2[63])
Y_2[62] + S_2(X_2[60],X_2[61],X_2[62],X_2[63])
Y_2[63] + S_3(X_2[60],X_2[61],X_2[62],X_2[63])
Z_2[0] + S_0(W_2[0],W_2[1],W_2[2],W_2[3])
Z_2[1] + S_1(W_2[0],W_2[1],W_2[2],W_2[3])
Z_2[2] + S_2(W_2[0],W_2[1],W_2[2],W_2[3])
Z_2[3] + S_3(W_2[0],W_2[1],W_2[2],W_2[3])
Z_2[4] + S_0(W_2[4],W_2[5],W_2[6],W_2[7])
Z_2[5] + S_1(W_2[4],W_2[5],W_2[6],W_2[7])
Z_2[6] + S_2(W_2[4],W_2[5],W_2[6],W_2[7])
Z_2[7] + S_3(W_2[4],W_2[5],W_2[6],W_2[7])
Z_2[8] + S_0(W_2[8],W_2[9],W_2[10],W_2[11])
Z_2[9] + S_1(W_2[8],W_2[9],W_2[10],W_2[11])
Z_2[10] + S_2(W_2[8],W_2[9],W_2[10],W_2[11])
Z_2[11] + S_3(W_2[8],W_2[9],W_2[10],W_2[11])
Z_2[12] + S_0(W_2[12],W_2[13],W_2[14],W_2[15])
Z_2[13] + S_1(W_2[12],W_2[13],W_2[14],W_2[15])
Z_2[14] + S_2(W_2[12],W_2[13],W_2[14],W_2[15])
Z_2[15] + S_3(W_2[12],W_2[13],W_2[14],W_2[15])
Z_2[16] + S_0(W_2[16],W_2[17],W_2[18],W_2[19])
Z_2[17] + S_1(W_2[16],W_2[17],W_2[18],W_2[19])
Z_2[18] + S_2(W_2[16],W_2[17],W_2[18],W_2[19])
Z_2[19] + S_3(W_2[16],W_2[17],W_2[18],W_2[19])
Z_2[20] + S_0(W_2[20],W_2[21],W_2[22],W_2[23])
Z_2[21] + S_1(W_2[20],W_2[21],W_2[22],W_2[23])
Z_2[22] + S_2(W_2[20],W_2[21],W_2[22],W_2[23])
Z_2[23] + S_3(W_2[20],W_2[21],W_2[22],W_2[23])
Z_2[24] + S_0(W_2[24],W_2[25],W_2[26],W_2[27])
Z_2[25] + S_1(W_2[24],W_2[25],W_2[26],W_2[27])
Z_2[26] + S_2(W_2[24],W_2[25],W_2[26],W_2[27])
Z_2[27] + S_3(W_2[24],W_2[25],W_2[26],W_2[27])
Z_2[28] + S_0(W_2[28],W_2[29],W_2[30],W_2[31])
Z_2[29] + S_1(W_2[28],W_2[29],W_2[30],W_2[31])
Z_2[30] + S_2(W_2[28],W_2[29],W_2[30],W_2[31])
Z_2[31] + S_3(W_2[28],W_2[29],W_2[30],W_2[31])
Z_2[32] + S_0(W_2[32],W_2[33],W_2[34],W_2[35])
Z_2[33] + S_1(W_2[32],W_2[33],W_2[34],W_2[35])
Z_2[34] + S_2(W_2[32],W_2[33],W_2[34],W_2[35])
Z_2[35] + S_3(W_2[32],W_2[33],W_2[34],W_2[35])
Z_2[36] + S_0(W_2[36],W_2[37],W_2[38],W_2[39])
Z_2[37] + S_1(W_2[36],W_2[37],W_2[38],W_2[39])
Z_2[38] + S_2(W_2[36],W_2[37],W_2[38],W_2[39])
Z_2[39] + S_3(W_2[36],W_2[37],W_2[38],W_2[39])
Z_2[40] + S_0(W_2[40],W_2[41],W_2[42],W_2[43])
Z_2[41] + S_1(W_2[40],W_2[41],W_2[42],W_2[43])
Z_2[42] + S_2(W_2[40],W_2[41],W_2[42],W_2[43])
Z_2[43] + S_3(W_2[40],W_2[41],W_2[42],W_2[43])
Z_2[44] + S_0(W_2[44],W_2[45],W_2[46],W_2[47])
Z_2[45] + S_1(W_2[44],W_2[45],W_2[46],W_2[47])
Z_2[46] + S_2(W_2[44],W_2[45],W_2[46],W_2[47])
Z_2[47] + S_3(W_2[44],W_2[45],W_2[46],W_2[47])
Z_2[48] + S_0(W_2[48],W_2[49],W_2[50],W_2[51])
Z_2[49] + S_1(W_2[48],W_2[49],W_2[50],W_2[51])
Z_2[50] + S_2(W_2[48],W_2[49],W_2[50],W_2[51])
Z_2[51] + S_3(W_2[48],W_2[49],W_2[50],W_2[51])
Z_2[52] + S_0(W_2[52],W_2[53],W_2[54],W_2[55])
Z_2[53] + S_1(W_2[52],W_2[53],W_2[54],W_2[55])
Z_2[54] + S_2(W_2[52],W_2[53],W_2[54],W_2[55])
Z_2[55] + S_3(W_2[52],W_2[53],W_2[54],W_2[55])
Z_2[56] + S_0(W_2[56],W_2[57],W_2[58],W_2[59])
Z_2[57] + S_1(W_2[56],W_2[57],W_2[58],W_2[59])
Z_2[58] + S_2(W_2[56],W_2[57],W_2[58],W_2[59])
Z_2[59] + S_3(W_2[56],W_2[57],W_2[58],W_2[59])
Z_2[60] + S_0(W_2[60],W_2[61],W_2[62],W_2[63])
Z_2[61] + S_1(W_2[60],W_2[61],W_2[62],W_2[63])
Z_2[62] + S_2(W_2[60],W_2[61],W_2[62],W_2[63])
Z_2[63] + S_3(W_2[60],W_2[61],W_2[62],W_2[63])
Z_2[0] + Y_2[8] + Y_2[4] + Y_2[0]
Z_2[1] + Y_2[13] + Y_2[9] + Y_2[5]
Z_2[2] + Y_2[14] + Y_2[10] + Y_2[2]
Z_2[3] + Y_2[15] + Y_2[7] + Y_2[3]
Z_2[4] + Y_2[12] + Y_2[4] + Y_2[0]
Z_2[5] + Y_2[9] + Y_2[5] + Y_2[1]
Z_2[6] + Y_2[14] + Y_2[10] + Y_2[6]
Z_2[7] + Y_2[15] + Y_2[11] + Y_2[3]
Z_2[8] + Y_2[12] + Y_2[8] + Y_2[0]
Z_2[9] + Y_2[13] + Y_2[5] + Y_2[1]
Z_2[10] + Y_2[10] + Y_2[6] + Y_2[2]
Z_2[11] + Y_2[15] + Y_2[11] + Y_2[7]
Z_2[12] + Y_2[12] + Y_2[8] + Y_2[4]
Z_2[13] + Y_2[13] + Y_2[9] + Y_2[1]
Z_2[14] + Y_2[14] + Y_2[6] + Y_2[2]
Z_2[15] + Y_2[11] + Y_2[7] + Y_2[3]
Z_2[16] + Y_2[28] + Y_2[24] + Y_2[20]
Z_2[17] + Y_2[29] + Y_2[25] + Y_2[17]
Z_2[18] + Y_2[30] + Y_2[22] + Y_2[18]
Z_2[19] + Y_2[27] + Y_2[23] + Y_2[19]
Z_2[20] + Y_2[24] + Y_2[20] + Y_2[16]
Z_2[21] + Y_2[29] + Y_2[25] + Y_2[21]
Z_2[22] + Y_2[30] + Y_2[26] + Y_2[18]
Z_2[23] + Y_2[31] + Y_2[23] + Y_2[19]
Z_2[24] + Y_2[28] + Y_2[20] + Y_2[16]
Z_2[25] + Y_2[25] + Y_2[21] + Y_2[17]
Z_2[26] + Y_2[30] + Y_2[26] + Y_2[22]
Z_2[27] + Y_2[31] + Y_2[27] + Y_2[19]
Z_2[28] + Y_2[28] + Y_2[24] + Y_2[16]
Z_2[29] + Y_2[29] + Y_2[21] + Y_2[17]
Z_2[30] + Y_2[26] + Y_2[22] + Y_2[18]
Z_2[31] + Y_2[31] + Y_2[27] + Y_2[23]
Z_2[32] + Y_2[44] + Y_2[40] + Y_2[36]
Z_2[33] + Y_2[45] + Y_2[41] + Y_2[33]
Z_2[34] + Y_2[46] + Y_2[38] + Y_2[34]
Z_2[35] + Y_2[43] + Y_2[39] + Y_2[35]
Z_2[36] + Y_2[40] + Y_2[36] + Y_2[32]
Z_2[37] + Y_2[45] + Y_2[41] + Y_2[37]
Z_2[38] + Y_2[46] + Y_2[42] + Y_2[34]
Z_2[39] + Y_2[47] + Y_2[39] + Y_2[35]
Z_2[40] + Y_2[44] + Y_2[36] + Y_2[32]
Z_2[41] + Y_2[41] + Y_2[37] + Y_2[33]
Z_2[42] + Y_2[46] + Y_2[42] + Y_2[38]
Z_2[43] + Y_2[47] + Y_2[43] + Y_2[35]
Z_2[44] + Y_2[44] + Y_2[40] + Y_2[32]
Z_2[45] + Y_2[45] + Y_2[37] + Y_2[33]
Z_2[46] + Y_2[42] + Y_2[38] + Y_2[34]
Z_2[47] + Y_2[47] + Y_2[43] + Y_2[39]
Z_2[48] + Y_2[56] + Y_2[52] + Y_2[48]
Z_2[49] + Y_2[61] + Y_2[57] + Y_2[53]
Z_2[50] + Y_2[62] + Y_2[58] + Y_2[50]
Z_2[51] + Y_2[63] + Y_2[55] + Y_2[51]
Z_2[52] + Y_2[60] + Y_2[52] + Y_2[48]
Z_2[53] + Y_2[57] + Y_2[53] + Y_2[49]
Z_2[54] + Y_2[62] + Y_2[58] + Y_2[54]
Z_2[55] + Y_2[63] + Y_2[59] + Y_2[51]
Z_2[56] + Y_2[60] + Y_2[56] + Y_2[48]
Z_2[57] + Y_2[61] + Y_2[53] + Y_2[49]
Z_2[58] + Y_2[58] + Y_2[54] + Y_2[50]
Z_2[59] + Y_2[63] + Y_2[59] + Y_2[55]
Z_2[60] + Y_2[60] + Y_2[56] + Y_2[52]
Z_2[61] + Y_2[61] + Y_2[57] + Y_2[49]
Z_2[62] + Y_2[62] + Y_2[54] + Y_2[50]
Z_2[63] + Y_2[59] + Y_2[55] + Y_2[51]
